\relax 
\@writefile{toc}{\contentsline {section}{\numberline {1}Introduction}{3}}
\@writefile{toc}{\contentsline {section}{\numberline {2}Data treatment}{4}}
\@writefile{toc}{\contentsline {subsection}{\numberline {2.1}Data selection}{4}}
\@writefile{lof}{\contentsline {figure}{\numberline {1}{\ignorespaces Temperature measurements in Alvesta.\relax }}{4}}
\providecommand*\caption@xref[2]{\@setref\relax\@undefined{#1}}
\newlabel{fig:ProcessPlot}{{1}{4}}
\@writefile{toc}{\contentsline {subsubsection}{\numberline {2.1.1}Exogenous input}{4}}
\@writefile{lof}{\contentsline {figure}{\numberline {2}{\ignorespaces Temperature predictions in V\IeC {\"a}xj\IeC {\"o}.\relax }}{5}}
\newlabel{fig:InputPlot}{{2}{5}}
\@writefile{toc}{\contentsline {subsection}{\numberline {2.2}Treatment of missing data}{5}}
\@writefile{toc}{\contentsline {subsection}{\numberline {2.3}Treatment of outliers}{5}}
\@writefile{lof}{\contentsline {figure}{\numberline {3}{\ignorespaces Modelling set: Auto correlation function and the truncated auto correlation function.\relax }}{6}}
\newlabel{fig:AcfTacf}{{3}{6}}
\@writefile{toc}{\contentsline {section}{\numberline {3}Benchmarks}{7}}
\@writefile{toc}{\contentsline {subsection}{\numberline {3.1}1-step prediction}{7}}
\@writefile{toc}{\contentsline {subsection}{\numberline {3.2}8-step prediction}{7}}
\@writefile{toc}{\contentsline {subsection}{\numberline {3.3}Results}{7}}
\@writefile{lot}{\contentsline {table}{\numberline {1}{\ignorespaces Variance of the prediction errors using the naive methods.\relax }}{7}}
\newlabel{tab:bench}{{1}{7}}
\@writefile{toc}{\contentsline {section}{\numberline {4}SARIMA}{8}}
\@writefile{toc}{\contentsline {subsection}{\numberline {4.1}Model}{8}}
\@writefile{lot}{\contentsline {table}{\numberline {2}{\ignorespaces Identified coefficients and approximate $95 \%$ confidence intervals to the $A$ and $C$ polynomials for the SARIMA model. All unspecified coefficients are 0.\relax }}{8}}
\newlabel{tab:A_coeff}{{2}{8}}
\@writefile{toc}{\contentsline {subsection}{\numberline {4.2}Model validation}{8}}
\@writefile{toc}{\contentsline {subsubsection}{\numberline {4.2.1}Residual analysis}{8}}
\@writefile{lof}{\contentsline {figure}{\numberline {4}{\ignorespaces Residual analysis of the SARIMA model on the modelling set.\relax }}{9}}
\newlabel{fig:AModRes}{{4}{9}}
\@writefile{toc}{\contentsline {subsubsection}{\numberline {4.2.2}Cross-validation}{9}}
\@writefile{lof}{\contentsline {figure}{\numberline {5}{\ignorespaces Residual analysis of the SARIMA model on the validation set.\relax }}{10}}
\newlabel{fig:AValRes}{{5}{10}}
\@writefile{toc}{\contentsline {subsubsection}{\numberline {4.2.3}Prediction error analysis}{10}}
\@writefile{lof}{\contentsline {figure}{\numberline {6}{\ignorespaces Modelling set: 1-step and 8-step predictions together with measured values.\relax }}{11}}
\newlabel{fig:AModPred}{{6}{11}}
\@writefile{lot}{\contentsline {table}{\numberline {3}{\ignorespaces Variance of the prediction errors on the modelling set\relax }}{11}}
\newlabel{tab:AModPred}{{3}{11}}
\@writefile{lof}{\contentsline {figure}{\numberline {7}{\ignorespaces Modelling set: Analysis of the 1-step prediction error.\relax }}{12}}
\newlabel{fig:AModPred1}{{7}{12}}
\@writefile{lof}{\contentsline {figure}{\numberline {8}{\ignorespaces Modelling set: Analysis of the 8-step prediction error.\relax }}{13}}
\newlabel{fig:AModPred8}{{8}{13}}
\@writefile{toc}{\contentsline {subsection}{\numberline {4.3}Test score}{13}}
\@writefile{lof}{\contentsline {figure}{\numberline {9}{\ignorespaces Test set: 1-step and 8-step predictions together with measured values.\relax }}{14}}
\newlabel{fig:ATestPred}{{9}{14}}
\@writefile{lot}{\contentsline {table}{\numberline {4}{\ignorespaces Variance of the prediction errors on the test set\relax }}{14}}
\newlabel{tab:ATestPred}{{4}{14}}
\@writefile{toc}{\contentsline {section}{\numberline {5}Model with exogenous input}{15}}
\@writefile{toc}{\contentsline {subsection}{\numberline {5.1}Model}{15}}
\newlabel{eq:BMod}{{5.1}{15}}
\@writefile{lot}{\contentsline {table}{\numberline {5}{\ignorespaces Identified Box-Jenkins model for Alvesta, together with approximate $95\%$ confidence regions.\relax }}{15}}
\newlabel{tab:Bmod}{{5}{15}}
\@writefile{toc}{\contentsline {subsection}{\numberline {5.2}Model Validation}{15}}
\@writefile{toc}{\contentsline {subsubsection}{\numberline {5.2.1}Residual analysis}{15}}
\@writefile{lof}{\contentsline {figure}{\numberline {10}{\ignorespaces Residual analysis of the BJ-model on the modelling set.\relax }}{16}}
\newlabel{fig:BModRes}{{10}{16}}
\@writefile{toc}{\contentsline {subsection}{\numberline {5.3}Cross-validation}{16}}
\@writefile{lof}{\contentsline {figure}{\numberline {11}{\ignorespaces Residual analysis of the BJ-model on the validation set.\relax }}{17}}
\newlabel{fig:BValRes}{{11}{17}}
\@writefile{toc}{\contentsline {subsection}{\numberline {5.4}Prediction error analysis}{17}}
\@writefile{lof}{\contentsline {figure}{\numberline {12}{\ignorespaces Modelling set: 1-step and 8-step predictions together with the measured values for the BJ-model.\relax }}{18}}
\newlabel{fig:BModPred}{{12}{18}}
\@writefile{lot}{\contentsline {table}{\numberline {6}{\ignorespaces Variance of the prediction errors on the modelling set\relax }}{18}}
\newlabel{tab:BModPred}{{6}{18}}
\@writefile{lof}{\contentsline {figure}{\numberline {13}{\ignorespaces Modelling set: 1 step prediction error analysis of the BJ-model.\relax }}{19}}
\newlabel{fig:BModPred1}{{13}{19}}
\@writefile{lof}{\contentsline {figure}{\numberline {14}{\ignorespaces Modelling set: 8 step prediction error analysis of the BJ-model.\relax }}{20}}
\newlabel{fig:BModPred8}{{14}{20}}
\@writefile{toc}{\contentsline {subsection}{\numberline {5.5}Test score}{20}}
\@writefile{lof}{\contentsline {figure}{\numberline {15}{\ignorespaces Test set: 1-step and 8-step predictions together with measured values.\relax }}{21}}
\newlabel{fig:BTestPred}{{15}{21}}
\@writefile{lot}{\contentsline {table}{\numberline {7}{\ignorespaces Variance of the prediction errors on the test set.\relax }}{21}}
\newlabel{tab:BTestPred}{{7}{21}}
\@writefile{toc}{\contentsline {section}{\numberline {6}Recursive estimation}{22}}
\@writefile{toc}{\contentsline {subsection}{\numberline {6.1}No exogenous input}{22}}
\newlabel{eq:M1}{{1}{22}}
\newlabel{eq:SS1}{{6.1}{22}}
\@writefile{toc}{\contentsline {subsubsection}{\numberline {6.1.1}Predictions}{22}}
\@writefile{lof}{\contentsline {figure}{\numberline {16}{\ignorespaces Modelling set: 1-step and 8-step predictions together with the measured values for the No-input kalman filter.\relax }}{23}}
\newlabel{fig:CModPred}{{16}{23}}
\@writefile{lot}{\contentsline {table}{\numberline {8}{\ignorespaces Variance of the prediction errors on the modelling set for no-input kalman filter.\relax }}{23}}
\newlabel{tab:CModPred}{{8}{23}}
\@writefile{lof}{\contentsline {figure}{\numberline {17}{\ignorespaces Test set: 1-step and 8-step predictions together with the measured values for the No-input kalman filter.\relax }}{24}}
\newlabel{fig:CTestPred}{{17}{24}}
\@writefile{lot}{\contentsline {table}{\numberline {9}{\ignorespaces Variance of the prediction errors on the test set for no-input kalman filter.\relax }}{24}}
\newlabel{tab:CTestPred}{{9}{24}}
\@writefile{toc}{\contentsline {subsection}{\numberline {6.2}With exogenous input}{25}}
\newlabel{eq:M2}{{2}{25}}
\@writefile{toc}{\contentsline {subsubsection}{\numberline {6.2.1}Predictions}{25}}
\@writefile{lof}{\contentsline {figure}{\numberline {18}{\ignorespaces Modelling set: 1-step and 8-step predictions together with the measured values for the kalman filter with exogenous input.\relax }}{25}}
\newlabel{fig:CModPred2}{{18}{25}}
\@writefile{lot}{\contentsline {table}{\numberline {10}{\ignorespaces Variance of the prediction errors on the modelling set for kalman filter with exogenous input.\relax }}{26}}
\newlabel{tab:CModPred2}{{10}{26}}
\@writefile{lof}{\contentsline {figure}{\numberline {19}{\ignorespaces Test set: 1-step and 8-step predictions together with the measured values for the kalman filter with exogenous input.\relax }}{26}}
\newlabel{fig:CTestPred2}{{19}{26}}
\@writefile{lot}{\contentsline {table}{\numberline {11}{\ignorespaces Variance of the prediction errors on the test set for kalman filter with exogenous input.\relax }}{26}}
\newlabel{tab:CTestPred2}{{11}{26}}
\@writefile{toc}{\contentsline {section}{\numberline {7}Summary and conclusions}{27}}
\@writefile{lot}{\contentsline {table}{\numberline {12}{\ignorespaces Summary of prediction error variances on the test results\relax }}{27}}
\newlabel{tab:sum}{{12}{27}}
