%!PS-Adobe-3.0 EPSF-3.0
%%Creator: (MATLAB, The Mathworks, Inc. Version 9.2.0.556344 \(R2017a\). Operating System: Linux)
%%Title: /home/oxac/Git/TSAProj/Report/Img/AModBench.eps
%%CreationDate: 2018-01-11T21:10:07
%%Pages: (atend)
%%BoundingBox: 0 0 426 315
%%LanguageLevel: 3
%%EndComments
%%BeginProlog
%%BeginResource: procset (Apache XML Graphics Std ProcSet) 1.2 0
%%Version: 1.2 0
%%Copyright: (Copyright 2001-2003,2010 The Apache Software Foundation. License terms: http://www.apache.org/licenses/LICENSE-2.0)
/bd{bind def}bind def
/ld{load def}bd
/GR/grestore ld
/M/moveto ld
/LJ/setlinejoin ld
/C/curveto ld
/f/fill ld
/LW/setlinewidth ld
/GC/setgray ld
/t/show ld
/N/newpath ld
/CT/concat ld
/cp/closepath ld
/S/stroke ld
/L/lineto ld
/CC/setcmykcolor ld
/A/ashow ld
/GS/gsave ld
/RC/setrgbcolor ld
/RM/rmoveto ld
/ML/setmiterlimit ld
/re {4 2 roll M
1 index 0 rlineto
0 exch rlineto
neg 0 rlineto
cp } bd
/_ctm matrix def
/_tm matrix def
/BT { _ctm currentmatrix pop matrix _tm copy pop 0 0 moveto } bd
/ET { _ctm setmatrix } bd
/iTm { _ctm setmatrix _tm concat } bd
/Tm { _tm astore pop iTm 0 0 moveto } bd
/ux 0.0 def
/uy 0.0 def
/F {
  /Tp exch def
  /Tf exch def
  Tf findfont Tp scalefont setfont
  /cf Tf def  /cs Tp def
} bd
/ULS {currentpoint /uy exch def /ux exch def} bd
/ULE {
  /Tcx currentpoint pop def
  gsave
  newpath
  cf findfont cs scalefont dup
  /FontMatrix get 0 get /Ts exch def /FontInfo get dup
  /UnderlinePosition get Ts mul /To exch def
  /UnderlineThickness get Ts mul /Tt exch def
  ux uy To add moveto  Tcx uy To add lineto
  Tt setlinewidth stroke
  grestore
} bd
/OLE {
  /Tcx currentpoint pop def
  gsave
  newpath
  cf findfont cs scalefont dup
  /FontMatrix get 0 get /Ts exch def /FontInfo get dup
  /UnderlinePosition get Ts mul /To exch def
  /UnderlineThickness get Ts mul /Tt exch def
  ux uy To add cs add moveto Tcx uy To add cs add lineto
  Tt setlinewidth stroke
  grestore
} bd
/SOE {
  /Tcx currentpoint pop def
  gsave
  newpath
  cf findfont cs scalefont dup
  /FontMatrix get 0 get /Ts exch def /FontInfo get dup
  /UnderlinePosition get Ts mul /To exch def
  /UnderlineThickness get Ts mul /Tt exch def
  ux uy To add cs 10 mul 26 idiv add moveto Tcx uy To add cs 10 mul 26 idiv add lineto
  Tt setlinewidth stroke
  grestore
} bd
/QT {
/Y22 exch store
/X22 exch store
/Y21 exch store
/X21 exch store
currentpoint
/Y21 load 2 mul add 3 div exch
/X21 load 2 mul add 3 div exch
/X21 load 2 mul /X22 load add 3 div
/Y21 load 2 mul /Y22 load add 3 div
/X22 load /Y22 load curveto
} bd
/SSPD {
dup length /d exch dict def
{
/v exch def
/k exch def
currentpagedevice k known {
/cpdv currentpagedevice k get def
v cpdv ne {
/upd false def
/nullv v type /nulltype eq def
/nullcpdv cpdv type /nulltype eq def
nullv nullcpdv or
{
/upd true def
} {
/sametype v type cpdv type eq def
sametype {
v type /arraytype eq {
/vlen v length def
/cpdvlen cpdv length def
vlen cpdvlen eq {
0 1 vlen 1 sub {
/i exch def
/obj v i get def
/cpdobj cpdv i get def
obj cpdobj ne {
/upd true def
exit
} if
} for
} {
/upd true def
} ifelse
} {
v type /dicttype eq {
v {
/dv exch def
/dk exch def
/cpddv cpdv dk get def
dv cpddv ne {
/upd true def
exit
} if
} forall
} {
/upd true def
} ifelse
} ifelse
} if
} ifelse
upd true eq {
d k v put
} if
} if
} if
} forall
d length 0 gt {
d setpagedevice
} if
} bd
/RE { % /NewFontName [NewEncodingArray] /FontName RE -
  findfont dup length dict begin
  {
    1 index /FID ne
    {def} {pop pop} ifelse
  } forall
  /Encoding exch def
  /FontName 1 index def
  currentdict definefont pop
  end
} bind def
%%EndResource
%%BeginResource: procset (Apache XML Graphics EPS ProcSet) 1.0 0
%%Version: 1.0 0
%%Copyright: (Copyright 2002-2003 The Apache Software Foundation. License terms: http://www.apache.org/licenses/LICENSE-2.0)
/BeginEPSF { %def
/b4_Inc_state save def         % Save state for cleanup
/dict_count countdictstack def % Count objects on dict stack
/op_count count 1 sub def      % Count objects on operand stack
userdict begin                 % Push userdict on dict stack
/showpage { } def              % Redefine showpage, { } = null proc
0 setgray 0 setlinecap         % Prepare graphics state
1 setlinewidth 0 setlinejoin
10 setmiterlimit [ ] 0 setdash newpath
/languagelevel where           % If level not equal to 1 then
{pop languagelevel             % set strokeadjust and
1 ne                           % overprint to their defaults.
{false setstrokeadjust false setoverprint
} if
} if
} bd
/EndEPSF { %def
count op_count sub {pop} repeat            % Clean up stacks
countdictstack dict_count sub {end} repeat
b4_Inc_state restore
} bd
%%EndResource
%FOPBeginFontDict
%%IncludeResource: font Courier-Bold
%%IncludeResource: font Helvetica
%%IncludeResource: font Courier-BoldOblique
%%IncludeResource: font Courier-Oblique
%%IncludeResource: font Times-Roman
%%IncludeResource: font Helvetica-BoldOblique
%%IncludeResource: font Helvetica-Bold
%%IncludeResource: font Helvetica-Oblique
%%IncludeResource: font Times-BoldItalic
%%IncludeResource: font Courier
%%IncludeResource: font Times-Italic
%%IncludeResource: font Times-Bold
%%IncludeResource: font Symbol
%%IncludeResource: font ZapfDingbats
%FOPEndFontDict
%%BeginResource: encoding WinAnsiEncoding
/WinAnsiEncoding [
/.notdef /.notdef /.notdef /.notdef /.notdef
/.notdef /.notdef /.notdef /.notdef /.notdef
/.notdef /.notdef /.notdef /.notdef /.notdef
/.notdef /.notdef /.notdef /.notdef /.notdef
/.notdef /.notdef /.notdef /.notdef /.notdef
/.notdef /.notdef /.notdef /.notdef /.notdef
/.notdef /.notdef /space /exclam /quotedbl
/numbersign /dollar /percent /ampersand /quotesingle
/parenleft /parenright /asterisk /plus /comma
/hyphen /period /slash /zero /one
/two /three /four /five /six
/seven /eight /nine /colon /semicolon
/less /equal /greater /question /at
/A /B /C /D /E
/F /G /H /I /J
/K /L /M /N /O
/P /Q /R /S /T
/U /V /W /X /Y
/Z /bracketleft /backslash /bracketright /asciicircum
/underscore /quoteleft /a /b /c
/d /e /f /g /h
/i /j /k /l /m
/n /o /p /q /r
/s /t /u /v /w
/x /y /z /braceleft /bar
/braceright /asciitilde /bullet /Euro /bullet
/quotesinglbase /florin /quotedblbase /ellipsis /dagger
/daggerdbl /circumflex /perthousand /Scaron /guilsinglleft
/OE /bullet /Zcaron /bullet /bullet
/quoteleft /quoteright /quotedblleft /quotedblright /bullet
/endash /emdash /asciitilde /trademark /scaron
/guilsinglright /oe /bullet /zcaron /Ydieresis
/space /exclamdown /cent /sterling /currency
/yen /brokenbar /section /dieresis /copyright
/ordfeminine /guillemotleft /logicalnot /sfthyphen /registered
/macron /degree /plusminus /twosuperior /threesuperior
/acute /mu /paragraph /middot /cedilla
/onesuperior /ordmasculine /guillemotright /onequarter /onehalf
/threequarters /questiondown /Agrave /Aacute /Acircumflex
/Atilde /Adieresis /Aring /AE /Ccedilla
/Egrave /Eacute /Ecircumflex /Edieresis /Igrave
/Iacute /Icircumflex /Idieresis /Eth /Ntilde
/Ograve /Oacute /Ocircumflex /Otilde /Odieresis
/multiply /Oslash /Ugrave /Uacute /Ucircumflex
/Udieresis /Yacute /Thorn /germandbls /agrave
/aacute /acircumflex /atilde /adieresis /aring
/ae /ccedilla /egrave /eacute /ecircumflex
/edieresis /igrave /iacute /icircumflex /idieresis
/eth /ntilde /ograve /oacute /ocircumflex
/otilde /odieresis /divide /oslash /ugrave
/uacute /ucircumflex /udieresis /yacute /thorn
/ydieresis
] def
%%EndResource
%FOPBeginFontReencode
/Courier-Bold findfont
dup length dict begin
  {1 index /FID ne {def} {pop pop} ifelse} forall
  /Encoding WinAnsiEncoding def
  currentdict
end
/Courier-Bold exch definefont pop
/Helvetica findfont
dup length dict begin
  {1 index /FID ne {def} {pop pop} ifelse} forall
  /Encoding WinAnsiEncoding def
  currentdict
end
/Helvetica exch definefont pop
/Courier-BoldOblique findfont
dup length dict begin
  {1 index /FID ne {def} {pop pop} ifelse} forall
  /Encoding WinAnsiEncoding def
  currentdict
end
/Courier-BoldOblique exch definefont pop
/Courier-Oblique findfont
dup length dict begin
  {1 index /FID ne {def} {pop pop} ifelse} forall
  /Encoding WinAnsiEncoding def
  currentdict
end
/Courier-Oblique exch definefont pop
/Times-Roman findfont
dup length dict begin
  {1 index /FID ne {def} {pop pop} ifelse} forall
  /Encoding WinAnsiEncoding def
  currentdict
end
/Times-Roman exch definefont pop
/Helvetica-BoldOblique findfont
dup length dict begin
  {1 index /FID ne {def} {pop pop} ifelse} forall
  /Encoding WinAnsiEncoding def
  currentdict
end
/Helvetica-BoldOblique exch definefont pop
/Helvetica-Bold findfont
dup length dict begin
  {1 index /FID ne {def} {pop pop} ifelse} forall
  /Encoding WinAnsiEncoding def
  currentdict
end
/Helvetica-Bold exch definefont pop
/Helvetica-Oblique findfont
dup length dict begin
  {1 index /FID ne {def} {pop pop} ifelse} forall
  /Encoding WinAnsiEncoding def
  currentdict
end
/Helvetica-Oblique exch definefont pop
/Times-BoldItalic findfont
dup length dict begin
  {1 index /FID ne {def} {pop pop} ifelse} forall
  /Encoding WinAnsiEncoding def
  currentdict
end
/Times-BoldItalic exch definefont pop
/Courier findfont
dup length dict begin
  {1 index /FID ne {def} {pop pop} ifelse} forall
  /Encoding WinAnsiEncoding def
  currentdict
end
/Courier exch definefont pop
/Times-Italic findfont
dup length dict begin
  {1 index /FID ne {def} {pop pop} ifelse} forall
  /Encoding WinAnsiEncoding def
  currentdict
end
/Times-Italic exch definefont pop
/Times-Bold findfont
dup length dict begin
  {1 index /FID ne {def} {pop pop} ifelse} forall
  /Encoding WinAnsiEncoding def
  currentdict
end
/Times-Bold exch definefont pop
%FOPEndFontReencode
%%EndProlog
%%Page: 1 1
%%PageBoundingBox: 0 0 426 315
%%BeginPageSetup
[1 0 0 -1 0 315] CT
%%EndPageSetup
GS
[0.58537 0 0 0.58537 0 0.07315] CT
1 GC
N
0 0 727 538 re
f
GR
GS
[0.58537 0 0 0.58537 0 0.07315] CT
1 GC
N
0 0 727 538 re
f
GR
GS
[0.58537 0 0 0.58537 0 0.07315] CT
1 GC
N
95 217 M
658 217 L
658 43 L
95 43 L
cp
f
GR
GS
[0.58537 0 0 0.58537 0 0.07315] CT
0.149 GC
2 setlinecap
1 LJ
0.854 LW
N
95 217 M
658 217 L
S
GR
GS
[0.58537 0 0 0.58537 0 0.07315] CT
0.149 GC
2 setlinecap
1 LJ
0.854 LW
N
95 43 M
658 43 L
S
GR
GS
[0.58537 0 0 0.58537 0 0.07315] CT
0.149 GC
2 setlinecap
1 LJ
0.854 LW
N
95 217 M
95 211.37 L
S
GR
GS
[0.58537 0 0 0.58537 0 0.07315] CT
0.149 GC
2 setlinecap
1 LJ
0.854 LW
N
207.6 217 M
207.6 211.37 L
S
GR
GS
[0.58537 0 0 0.58537 0 0.07315] CT
0.149 GC
2 setlinecap
1 LJ
0.854 LW
N
320.2 217 M
320.2 211.37 L
S
GR
GS
[0.58537 0 0 0.58537 0 0.07315] CT
0.149 GC
2 setlinecap
1 LJ
0.854 LW
N
432.8 217 M
432.8 211.37 L
S
GR
GS
[0.58537 0 0 0.58537 0 0.07315] CT
0.149 GC
2 setlinecap
1 LJ
0.854 LW
N
545.4 217 M
545.4 211.37 L
S
GR
GS
[0.58537 0 0 0.58537 0 0.07315] CT
0.149 GC
2 setlinecap
1 LJ
0.854 LW
N
658 217 M
658 211.37 L
S
GR
GS
[0.58537 0 0 0.58537 0 0.07315] CT
0.149 GC
2 setlinecap
1 LJ
0.854 LW
N
95 43 M
95 48.63 L
S
GR
GS
[0.58537 0 0 0.58537 0 0.07315] CT
0.149 GC
2 setlinecap
1 LJ
0.854 LW
N
207.6 43 M
207.6 48.63 L
S
GR
GS
[0.58537 0 0 0.58537 0 0.07315] CT
0.149 GC
2 setlinecap
1 LJ
0.854 LW
N
320.2 43 M
320.2 48.63 L
S
GR
GS
[0.58537 0 0 0.58537 0 0.07315] CT
0.149 GC
2 setlinecap
1 LJ
0.854 LW
N
432.8 43 M
432.8 48.63 L
S
GR
GS
[0.58537 0 0 0.58537 0 0.07315] CT
0.149 GC
2 setlinecap
1 LJ
0.854 LW
N
545.4 43 M
545.4 48.63 L
S
GR
GS
[0.58537 0 0 0.58537 0 0.07315] CT
0.149 GC
2 setlinecap
1 LJ
0.854 LW
N
658 43 M
658 48.63 L
S
GR
GS
[0.58537 0 0 0.58537 55.60976 131.09755] CT
0.149 GC
/Helvetica 17.083 F
GS
[1 0 0 1 0 0] CT
-16.5 16 moveto 
1 -1 scale
(750) t 
GR
GR
GS
[0.58537 0 0 0.58537 121.52195 131.09755] CT
0.149 GC
/Helvetica 17.083 F
GS
[1 0 0 1 0 0] CT
-16.5 16 moveto 
1 -1 scale
(800) t 
GR
GR
GS
[0.58537 0 0 0.58537 187.43415 131.09755] CT
0.149 GC
/Helvetica 17.083 F
GS
[1 0 0 1 0 0] CT
-16.5 16 moveto 
1 -1 scale
(850) t 
GR
GR
GS
[0.58537 0 0 0.58537 253.34633 131.09755] CT
0.149 GC
/Helvetica 17.083 F
GS
[1 0 0 1 0 0] CT
-16.5 16 moveto 
1 -1 scale
(900) t 
GR
GR
GS
[0.58537 0 0 0.58537 319.25855 131.09755] CT
0.149 GC
/Helvetica 17.083 F
GS
[1 0 0 1 0 0] CT
-16.5 16 moveto 
1 -1 scale
(950) t 
GR
GR
GS
[0.58537 0 0 0.58537 385.17073 131.09755] CT
0.149 GC
/Helvetica 17.083 F
GS
[1 0 0 1 0 0] CT
-22 16 moveto 
1 -1 scale
(1000) t 
GR
GR
GS
[0.58537 0 0 0.58537 220.3904 144.39024] CT
0.149 GC
/Helvetica 18.792 F
GS
[1 0 0 1 0 0] CT
-19 18 moveto 
1 -1 scale
(t / h) t 
GR
GR
GS
[0.58537 0 0 0.58537 0 0.07315] CT
0.149 GC
2 setlinecap
1 LJ
0.854 LW
N
95 217 M
95 43 L
S
GR
GS
[0.58537 0 0 0.58537 0 0.07315] CT
0.149 GC
2 setlinecap
1 LJ
0.854 LW
N
658 217 M
658 43 L
S
GR
GS
[0.58537 0 0 0.58537 0 0.07315] CT
0.149 GC
2 setlinecap
1 LJ
0.854 LW
N
95 217 M
100.63 217 L
S
GR
GS
[0.58537 0 0 0.58537 0 0.07315] CT
0.149 GC
2 setlinecap
1 LJ
0.854 LW
N
95 173.5 M
100.63 173.5 L
S
GR
GS
[0.58537 0 0 0.58537 0 0.07315] CT
0.149 GC
2 setlinecap
1 LJ
0.854 LW
N
95 130 M
100.63 130 L
S
GR
GS
[0.58537 0 0 0.58537 0 0.07315] CT
0.149 GC
2 setlinecap
1 LJ
0.854 LW
N
95 86.5 M
100.63 86.5 L
S
GR
GS
[0.58537 0 0 0.58537 0 0.07315] CT
0.149 GC
2 setlinecap
1 LJ
0.854 LW
N
95 43 M
100.63 43 L
S
GR
GS
[0.58537 0 0 0.58537 0 0.07315] CT
0.149 GC
2 setlinecap
1 LJ
0.854 LW
N
658 217 M
652.37 217 L
S
GR
GS
[0.58537 0 0 0.58537 0 0.07315] CT
0.149 GC
2 setlinecap
1 LJ
0.854 LW
N
658 173.5 M
652.37 173.5 L
S
GR
GS
[0.58537 0 0 0.58537 0 0.07315] CT
0.149 GC
2 setlinecap
1 LJ
0.854 LW
N
658 130 M
652.37 130 L
S
GR
GS
[0.58537 0 0 0.58537 0 0.07315] CT
0.149 GC
2 setlinecap
1 LJ
0.854 LW
N
658 86.5 M
652.37 86.5 L
S
GR
GS
[0.58537 0 0 0.58537 0 0.07315] CT
0.149 GC
2 setlinecap
1 LJ
0.854 LW
N
658 43 M
652.37 43 L
S
GR
GS
[0.58537 0 0 0.58537 51.60973 127.09755] CT
0.149 GC
/Helvetica 17.083 F
GS
[1 0 0 1 0 0] CT
-17 5.5 moveto 
1 -1 scale
(-5) t 
GR
GR
GS
[0.58537 0 0 0.58537 51.60973 101.63413] CT
0.149 GC
/Helvetica 17.083 F
GS
[1 0 0 1 0 0] CT
-11 5.5 moveto 
1 -1 scale
(0) t 
GR
GR
GS
[0.58537 0 0 0.58537 51.60973 76.17072] CT
0.149 GC
/Helvetica 17.083 F
GS
[1 0 0 1 0 0] CT
-11 5.5 moveto 
1 -1 scale
(5) t 
GR
GR
GS
[0.58537 0 0 0.58537 51.60973 50.7073] CT
0.149 GC
/Helvetica 17.083 F
GS
[1 0 0 1 0 0] CT
-22 5.5 moveto 
1 -1 scale
(10) t 
GR
GR
GS
[0.58537 0 0 0.58537 51.60973 25.24388] CT
0.149 GC
/Helvetica 17.083 F
GS
[1 0 0 1 0 0] CT
-22 5.5 moveto 
1 -1 scale
(15) t 
GR
GR
GS
[0 -0.58537 0.58537 0 32.78049 91.9756] CT
0.149 GC
/Helvetica 18.792 F
GS
[1 0 0 1 0 0] CT
0 0 moveto 
1 -1 scale
(T / ) t 
GR
GR
GS
[0 -0.58537 0.58537 0 27.5122 73.82925] CT
0.149 GC
/Courier 15.033 F
GS
[1 0 0 1 0 0] CT
0 0 moveto 
1 -1 scale
(\260) t 
GR
GR
GS
[0 -0.58537 0.58537 0 32.78049 69.14633] CT
0.149 GC
/Helvetica 18.792 F
GS
[1 0 0 1 0 0] CT
0 0 moveto 
1 -1 scale
(C) t 
GR
GR
GS
[0.58537 0 0 0.58537 220.39049 23.63413] CT
/Helvetica-Bold 18.792 F
GS
[1 0 0 1 0 0] CT
-192 -5 moveto 
1 -1 scale
(Modelling set: 1 step vs Benchmark) t 
GR
GR
GS
[0.58537 0 0 0.58537 0 0.07315] CT
0 0.447 0.741 RC
1 LJ
0.854 LW
N
94.933 96.511 M
95 96.07 L
97.252 83.02 L
99.504 73.45 L
101.756 69.97 L
104.008 63.88 L
106.26 63.01 L
108.512 64.75 L
110.764 64.75 L
113.016 69.97 L
115.268 83.89 L
117.52 102.16 L
119.772 123.04 L
122.024 134.35 L
124.276 144.79 L
126.528 159.58 L
128.78 174.37 L
131.032 182.2 L
133.284 182.2 L
135.536 183.07 L
137.788 183.94 L
140.04 183.94 L
142.292 167.41 L
144.544 130 L
146.796 104.77 L
149.048 83.02 L
151.3 66.49 L
153.552 60.4 L
155.804 53.44 L
158.056 53.44 L
160.308 51.7 L
162.56 55.18 L
164.812 55.18 L
167.064 64.75 L
169.316 79.54 L
171.568 98.68 L
173.82 109.99 L
176.072 118.69 L
178.324 126.52 L
180.576 132.61 L
182.828 138.7 L
185.08 143.92 L
187.332 143.92 L
189.584 145.66 L
191.836 145.66 L
194.088 143.92 L
196.34 138.7 L
198.592 130.87 L
200.844 118.69 L
203.096 104.77 L
205.348 84.76 L
207.6 82.15 L
209.852 89.11 L
212.104 100.42 L
214.356 104.77 L
216.608 107.38 L
218.86 109.99 L
221.112 112.6 L
223.364 116.08 L
225.616 121.3 L
227.868 125.65 L
230.12 125.65 L
232.372 127.39 L
234.624 128.695 L
236.876 130 L
239.128 132.61 L
241.38 136.96 L
243.632 137.83 L
245.884 136.96 L
248.136 136.96 L
250.388 136.09 L
252.64 133.48 L
254.892 128.26 L
257.144 121.3 L
259.396 117.82 L
261.648 110.86 L
263.9 103.9 L
266.152 104.77 L
268.404 106.51 L
270.656 109.12 L
272.908 112.6 L
275.16 112.6 L
277.412 120.43 L
279.664 123.04 L
281.916 128.26 L
284.168 133.48 L
286.42 136.96 L
288.672 139.135 L
290.924 141.31 L
293.176 143.92 L
295.428 145.66 L
297.68 148.27 L
299.932 149.14 L
302.184 148.27 L
304.436 146.53 L
306.688 143.92 L
308.94 143.05 L
311.192 142.18 L
313.444 138.7 L
315.696 138.7 L
317.948 137.83 L
320.2 134.35 L
322.452 131.74 L
324.704 130 L
326.956 132.61 L
329.208 132.61 L
331.46 136.09 L
333.712 137.83 L
335.964 142.18 L
338.216 143.92 L
340.468 147.4 L
342.72 156.1 L
344.972 164.8 L
347.224 164.8 L
349.476 168.28 L
351.728 176.98 L
353.98 183.94 L
356.232 187.42 L
358.484 173.5 L
360.736 150.88 L
362.988 126.52 L
365.24 116.08 L
367.492 106.51 L
369.744 100.42 L
371.996 96.07 L
374.248 91.72 L
376.5 86.5 L
378.752 94.33 L
381.004 94.33 L
383.256 96.07 L
385.508 102.16 L
387.76 120.43 L
390.012 132.61 L
392.264 143.05 L
394.516 150.88 L
396.768 152.185 L
399.02 153.49 L
401.272 144.79 L
403.524 143.05 L
405.776 142.18 L
408.028 143.05 L
410.28 144.79 L
412.532 143.05 L
414.784 135.22 L
417.036 131.74 L
419.288 129.13 L
421.54 125.65 L
423.792 117.82 L
426.044 109.12 L
428.296 107.38 L
430.548 104.77 L
432.8 107.38 L
435.052 108.25 L
437.304 110.86 L
439.556 126.52 L
441.808 136.96 L
444.06 146.53 L
446.312 160.45 L
448.564 166.54 L
450.816 174.805 L
453.068 183.07 L
455.32 185.68 L
457.572 191.77 L
459.824 192.64 L
462.076 192.64 L
464.328 193.51 L
466.58 180.46 L
468.832 163.93 L
471.084 148.27 L
473.336 141.31 L
475.588 138.7 L
477.84 134.35 L
480.092 130.87 L
482.344 125.65 L
484.596 120.43 L
486.848 118.69 L
489.1 116.95 L
491.352 121.3 L
493.604 125.65 L
495.856 143.92 L
498.108 166.54 L
500.36 175.24 L
502.612 188.29 L
504.864 191.77 L
507.116 195.25 L
509.368 196.12 L
511.62 198.73 L
513.872 202.21 L
516.124 203.08 L
518.376 196.99 L
520.628 186.55 L
522.88 167.41 L
525.132 149.14 L
527.384 129.13 L
529.636 126.52 L
531.888 126.52 L
534.14 123.91 L
536.392 118.69 L
538.644 117.82 L
540.896 116.08 L
543.148 123.91 L
545.4 121.3 L
547.652 127.39 L
549.904 135.22 L
552.156 143.05 L
554.408 150.88 L
556.66 157.84 L
558.912 162.625 L
561.164 167.41 L
563.416 170.02 L
565.668 169.15 L
567.92 171.76 L
570.172 173.5 L
572.424 172.63 L
574.676 162.19 L
576.928 143.92 L
579.18 139.57 L
581.432 132.61 L
583.684 131.74 L
585.936 127.39 L
588.188 128.26 L
590.44 131.74 L
592.692 123.04 L
594.944 121.3 L
597.196 121.3 L
599.448 121.3 L
601.7 123.91 L
603.952 130 L
606.204 133.48 L
608.456 136.96 L
610.708 140.44 L
612.96 144.355 L
615.212 148.27 L
617.464 153.49 L
619.716 163.06 L
621.968 163.93 L
624.22 163.06 L
626.472 158.71 L
628.724 151.75 L
630.976 138.7 L
633.228 119.56 L
635.48 103.03 L
637.732 82.15 L
639.984 69.97 L
642.236 70.84 L
644.488 66.49 L
646.74 69.1 L
648.992 63.88 L
651.244 65.62 L
653.496 73.45 L
655.748 83.02 L
658 96.94 L
658.067 97.173 L
S
GR
GS
[0.58537 0 0 0.58537 0 0.07315] CT
0.851 0.325 0.098 RC
1 LJ
0.854 LW
N
94.933 94.097 M
95 93.367 L
97.252 88.152 L
99.504 75.522 L
101.756 68.681 L
104.008 69.278 L
106.26 63.761 L
108.512 63.382 L
110.764 69.815 L
113.016 70.301 L
115.268 82.462 L
117.52 98.858 L
119.772 116.281 L
122.024 137.467 L
124.276 142.504 L
126.528 151.321 L
128.78 169.095 L
131.032 183.107 L
133.284 188.272 L
135.536 180.673 L
137.788 182.673 L
140.04 181.742 L
142.292 176.769 L
144.544 146.216 L
146.796 103.447 L
149.048 86.607 L
151.3 70.59 L
153.552 56.932 L
155.804 57.176 L
158.056 51.238 L
160.308 56.437 L
162.56 51.258 L
164.812 60.32 L
167.064 61.019 L
169.316 79.507 L
171.568 96.553 L
173.82 114.495 L
176.072 120.407 L
178.324 128.021 L
180.576 135.206 L
182.828 140.713 L
185.08 143.655 L
187.332 150.051 L
189.584 144.718 L
191.836 148.391 L
194.088 145.697 L
196.34 135.54 L
198.592 123.352 L
200.844 118.192 L
203.096 105.031 L
205.348 94.703 L
207.6 71.485 L
209.852 79.702 L
212.104 91.762 L
214.356 106.083 L
216.608 104.353 L
218.86 109.056 L
221.112 114.3 L
223.364 121.027 L
225.616 123.637 L
227.868 127.405 L
230.12 130.457 L
232.372 127.859 L
234.624 130.293 L
236.876 132.68 L
239.128 131.629 L
241.38 136.322 L
243.632 138.98 L
245.884 138.658 L
248.136 137.308 L
250.388 133.985 L
252.64 125.97 L
254.892 125.258 L
257.144 117.823 L
259.396 114.254 L
261.648 115.11 L
263.9 108.435 L
266.152 101.976 L
268.404 106.554 L
270.656 107.224 L
272.908 111.62 L
275.16 116.919 L
277.412 118.219 L
279.664 129.447 L
281.916 126.593 L
284.168 132.216 L
286.42 137.117 L
288.672 139.129 L
290.924 141.991 L
293.176 143.119 L
295.428 146.656 L
297.68 145.313 L
299.932 149.258 L
302.184 150.111 L
304.436 145.123 L
306.688 137.276 L
308.94 136.948 L
311.192 137.69 L
313.444 137.877 L
315.696 133.169 L
317.948 136.721 L
320.2 137.039 L
322.452 132.236 L
324.704 129.15 L
326.956 128.845 L
329.208 135.74 L
331.46 136.946 L
333.712 141.634 L
335.964 141.13 L
338.216 145.585 L
340.468 145.633 L
342.72 149.514 L
344.972 161.75 L
347.224 168.671 L
349.476 165.462 L
351.728 168.477 L
353.98 179.831 L
356.232 186.178 L
358.484 184.751 L
360.736 157.985 L
362.988 135.269 L
365.24 111.148 L
367.492 110.445 L
369.744 102.145 L
371.996 98.106 L
374.248 95.987 L
376.5 91.692 L
378.752 85.78 L
381.004 101.269 L
383.256 97.956 L
385.508 103.708 L
387.76 111.019 L
390.012 133.306 L
392.264 140.773 L
394.516 150.88 L
396.768 157.26 L
399.02 154.89 L
401.272 154.927 L
403.524 144.075 L
405.776 144.788 L
408.028 144.436 L
410.28 144.015 L
412.532 140.395 L
414.784 131.291 L
417.036 125.177 L
419.288 125.285 L
421.54 124.295 L
423.792 121.213 L
426.044 111.754 L
428.296 103.707 L
430.548 107.349 L
432.8 103.316 L
435.052 109.292 L
437.304 110.462 L
439.556 119.476 L
441.808 140.437 L
444.06 145.879 L
446.312 153.456 L
448.564 168.063 L
450.816 169.314 L
453.068 177.877 L
455.32 183.98 L
457.572 185.829 L
459.824 192.309 L
462.076 191.016 L
464.328 190.886 L
466.58 187.489 L
468.832 163.906 L
471.084 149.85 L
473.336 136.441 L
475.588 134.149 L
477.84 133.639 L
480.092 129.789 L
482.344 128.189 L
484.596 122.329 L
486.848 117.678 L
489.1 118.305 L
491.352 119.456 L
493.604 130.416 L
495.856 133.648 L
498.108 157.711 L
500.36 180.033 L
502.612 180.851 L
504.864 195.902 L
507.116 194.74 L
509.368 195.934 L
511.62 197.329 L
513.872 198.811 L
516.124 203.189 L
518.376 201.272 L
520.628 186.46 L
522.88 169.997 L
525.132 151.5 L
527.384 136.895 L
529.636 117.338 L
531.888 123.813 L
534.14 124.963 L
536.392 122.062 L
538.644 115.398 L
540.896 117.532 L
543.148 116.305 L
545.4 129.671 L
547.652 127.596 L
549.904 139.456 L
552.156 144.744 L
554.408 151.602 L
556.66 158.066 L
558.912 163.561 L
561.164 168.113 L
563.416 170.164 L
565.668 174.413 L
567.92 169.857 L
570.172 173.291 L
572.424 174.025 L
574.676 165.932 L
576.928 146.452 L
579.18 127.44 L
581.432 134.044 L
583.684 128.312 L
585.936 129.767 L
588.188 123.192 L
590.44 128.19 L
592.692 132.297 L
594.944 119.685 L
597.196 121.004 L
599.448 122.796 L
601.7 127.224 L
603.952 131.237 L
606.204 137.789 L
608.456 138.362 L
610.708 141.814 L
612.96 144.458 L
615.212 149.678 L
617.464 150.138 L
619.716 158.558 L
621.968 168.719 L
624.22 164.772 L
626.472 161.838 L
628.724 149.942 L
630.976 139.65 L
633.228 128.017 L
635.48 107.812 L
637.732 95.25 L
639.984 73.039 L
642.236 67.065 L
644.488 73.608 L
646.74 66.093 L
648.992 73.684 L
651.244 65.326 L
653.496 70.504 L
655.748 85.46 L
658 95.194 L
658.067 95.612 L
S
GR
GS
[0.58537 0 0 0.58537 0 0.07315] CT
0.929 0.694 0.125 RC
1 LJ
0.854 LW
N
94.933 111.612 M
95 110.86 L
97.252 96.07 L
99.504 83.02 L
101.756 73.45 L
104.008 69.97 L
106.26 63.88 L
108.512 63.01 L
110.764 64.75 L
113.016 64.75 L
115.268 69.97 L
117.52 83.89 L
119.772 102.16 L
122.024 123.04 L
124.276 134.35 L
126.528 144.79 L
128.78 159.58 L
131.032 174.37 L
133.284 182.2 L
135.536 182.2 L
137.788 183.07 L
140.04 183.94 L
142.292 183.94 L
144.544 167.41 L
146.796 130 L
149.048 104.77 L
151.3 83.02 L
153.552 66.49 L
155.804 60.4 L
158.056 53.44 L
160.308 53.44 L
162.56 51.7 L
164.812 55.18 L
167.064 55.18 L
169.316 64.75 L
171.568 79.54 L
173.82 98.68 L
176.072 109.99 L
178.324 118.69 L
180.576 126.52 L
182.828 132.61 L
185.08 138.7 L
187.332 143.92 L
189.584 143.92 L
191.836 145.66 L
194.088 145.66 L
196.34 143.92 L
198.592 138.7 L
200.844 130.87 L
203.096 118.69 L
205.348 104.77 L
207.6 84.76 L
209.852 82.15 L
212.104 89.11 L
214.356 100.42 L
216.608 104.77 L
218.86 107.38 L
221.112 109.99 L
223.364 112.6 L
225.616 116.08 L
227.868 121.3 L
230.12 125.65 L
232.372 125.65 L
234.624 127.39 L
236.876 128.695 L
239.128 130 L
241.38 132.61 L
243.632 136.96 L
245.884 137.83 L
248.136 136.96 L
250.388 136.96 L
252.64 136.09 L
254.892 133.48 L
257.144 128.26 L
259.396 121.3 L
261.648 117.82 L
263.9 110.86 L
266.152 103.9 L
268.404 104.77 L
270.656 106.51 L
272.908 109.12 L
275.16 112.6 L
277.412 112.6 L
279.664 120.43 L
281.916 123.04 L
284.168 128.26 L
286.42 133.48 L
288.672 136.96 L
290.924 139.135 L
293.176 141.31 L
295.428 143.92 L
297.68 145.66 L
299.932 148.27 L
302.184 149.14 L
304.436 148.27 L
306.688 146.53 L
308.94 143.92 L
311.192 143.05 L
313.444 142.18 L
315.696 138.7 L
317.948 138.7 L
320.2 137.83 L
322.452 134.35 L
324.704 131.74 L
326.956 130 L
329.208 132.61 L
331.46 132.61 L
333.712 136.09 L
335.964 137.83 L
338.216 142.18 L
340.468 143.92 L
342.72 147.4 L
344.972 156.1 L
347.224 164.8 L
349.476 164.8 L
351.728 168.28 L
353.98 176.98 L
356.232 183.94 L
358.484 187.42 L
360.736 173.5 L
362.988 150.88 L
365.24 126.52 L
367.492 116.08 L
369.744 106.51 L
371.996 100.42 L
374.248 96.07 L
376.5 91.72 L
378.752 86.5 L
381.004 94.33 L
383.256 94.33 L
385.508 96.07 L
387.76 102.16 L
390.012 120.43 L
392.264 132.61 L
394.516 143.05 L
396.768 150.88 L
399.02 152.185 L
401.272 153.49 L
403.524 144.79 L
405.776 143.05 L
408.028 142.18 L
410.28 143.05 L
412.532 144.79 L
414.784 143.05 L
417.036 135.22 L
419.288 131.74 L
421.54 129.13 L
423.792 125.65 L
426.044 117.82 L
428.296 109.12 L
430.548 107.38 L
432.8 104.77 L
435.052 107.38 L
437.304 108.25 L
439.556 110.86 L
441.808 126.52 L
444.06 136.96 L
446.312 146.53 L
448.564 160.45 L
450.816 166.54 L
453.068 174.805 L
455.32 183.07 L
457.572 185.68 L
459.824 191.77 L
462.076 192.64 L
464.328 192.64 L
466.58 193.51 L
468.832 180.46 L
471.084 163.93 L
473.336 148.27 L
475.588 141.31 L
477.84 138.7 L
480.092 134.35 L
482.344 130.87 L
484.596 125.65 L
486.848 120.43 L
489.1 118.69 L
491.352 116.95 L
493.604 121.3 L
495.856 125.65 L
498.108 143.92 L
500.36 166.54 L
502.612 175.24 L
504.864 188.29 L
507.116 191.77 L
509.368 195.25 L
511.62 196.12 L
513.872 198.73 L
516.124 202.21 L
518.376 203.08 L
520.628 196.99 L
522.88 186.55 L
525.132 167.41 L
527.384 149.14 L
529.636 129.13 L
531.888 126.52 L
534.14 126.52 L
536.392 123.91 L
538.644 118.69 L
540.896 117.82 L
543.148 116.08 L
545.4 123.91 L
547.652 121.3 L
549.904 127.39 L
552.156 135.22 L
554.408 143.05 L
556.66 150.88 L
558.912 157.84 L
561.164 162.625 L
563.416 167.41 L
565.668 170.02 L
567.92 169.15 L
570.172 171.76 L
572.424 173.5 L
574.676 172.63 L
576.928 162.19 L
579.18 143.92 L
581.432 139.57 L
583.684 132.61 L
585.936 131.74 L
588.188 127.39 L
590.44 128.26 L
592.692 131.74 L
594.944 123.04 L
597.196 121.3 L
599.448 121.3 L
601.7 121.3 L
603.952 123.91 L
606.204 130 L
608.456 133.48 L
610.708 136.96 L
612.96 140.44 L
615.212 144.355 L
617.464 148.27 L
619.716 153.49 L
621.968 163.06 L
624.22 163.93 L
626.472 163.06 L
628.724 158.71 L
630.976 151.75 L
633.228 138.7 L
635.48 119.56 L
637.732 103.03 L
639.984 82.15 L
642.236 69.97 L
644.488 70.84 L
646.74 66.49 L
648.992 69.1 L
651.244 63.88 L
653.496 65.62 L
655.748 73.45 L
658 83.02 L
658.067 83.435 L
S
GR
GS
[0.58537 0 0 0.58537 0 0.07315] CT
1 GC
N
466 119 M
466 60 L
641 60 L
641 119 L
cp
f
GR
GS
[0.58537 0 0 0.58537 306.82942 41.63413] CT
/Helvetica 15.375 F
GS
[1 0 0 1 0 0] CT
0 5 moveto 
1 -1 scale
(Measured data) t 
GR
GR
GS
[0.58537 0 0 0.58537 0 0.07315] CT
0 0.447 0.741 RC
1 LJ
0.854 LW
N
469.994 71 M
521.171 71 L
S
GR
GS
[0.58537 0 0 0.58537 306.82942 52.4634] CT
/Helvetica 15.375 F
GS
[1 0 0 1 0 0] CT
0 5 moveto 
1 -1 scale
(1-step) t 
GR
GR
GS
[0.58537 0 0 0.58537 0 0.07315] CT
0.851 0.325 0.098 RC
1 LJ
0.854 LW
N
469.994 89.5 M
521.171 89.5 L
S
GR
GS
[0.58537 0 0 0.58537 306.82942 63.29267] CT
/Helvetica 15.375 F
GS
[1 0 0 1 0 0] CT
0 5 moveto 
1 -1 scale
(benchmark) t 
GR
GR
GS
[0.58537 0 0 0.58537 0 0.07315] CT
0.929 0.694 0.125 RC
1 LJ
0.854 LW
N
469.994 108 M
521.171 108 L
S
GR
GS
[0.58537 0 0 0.58537 0 0.07315] CT
0.149 GC
10.0 ML
0.854 LW
N
466 119 M
466 60 L
641 60 L
641 119 L
cp
S
GR
GS
[0.58537 0 0 0.58537 0 0.07315] CT
1 GC
N
95 472 M
658 472 L
658 297 L
95 297 L
cp
f
GR
GS
[0.58537 0 0 0.58537 0 0.07315] CT
0.149 GC
2 setlinecap
1 LJ
0.854 LW
N
95 472 M
658 472 L
S
GR
GS
[0.58537 0 0 0.58537 0 0.07315] CT
0.149 GC
2 setlinecap
1 LJ
0.854 LW
N
95 297 M
658 297 L
S
GR
GS
[0.58537 0 0 0.58537 0 0.07315] CT
0.149 GC
2 setlinecap
1 LJ
0.854 LW
N
95 472 M
95 466.37 L
S
GR
GS
[0.58537 0 0 0.58537 0 0.07315] CT
0.149 GC
2 setlinecap
1 LJ
0.854 LW
N
207.6 472 M
207.6 466.37 L
S
GR
GS
[0.58537 0 0 0.58537 0 0.07315] CT
0.149 GC
2 setlinecap
1 LJ
0.854 LW
N
320.2 472 M
320.2 466.37 L
S
GR
GS
[0.58537 0 0 0.58537 0 0.07315] CT
0.149 GC
2 setlinecap
1 LJ
0.854 LW
N
432.8 472 M
432.8 466.37 L
S
GR
GS
[0.58537 0 0 0.58537 0 0.07315] CT
0.149 GC
2 setlinecap
1 LJ
0.854 LW
N
545.4 472 M
545.4 466.37 L
S
GR
GS
[0.58537 0 0 0.58537 0 0.07315] CT
0.149 GC
2 setlinecap
1 LJ
0.854 LW
N
658 472 M
658 466.37 L
S
GR
GS
[0.58537 0 0 0.58537 0 0.07315] CT
0.149 GC
2 setlinecap
1 LJ
0.854 LW
N
95 297 M
95 302.63 L
S
GR
GS
[0.58537 0 0 0.58537 0 0.07315] CT
0.149 GC
2 setlinecap
1 LJ
0.854 LW
N
207.6 297 M
207.6 302.63 L
S
GR
GS
[0.58537 0 0 0.58537 0 0.07315] CT
0.149 GC
2 setlinecap
1 LJ
0.854 LW
N
320.2 297 M
320.2 302.63 L
S
GR
GS
[0.58537 0 0 0.58537 0 0.07315] CT
0.149 GC
2 setlinecap
1 LJ
0.854 LW
N
432.8 297 M
432.8 302.63 L
S
GR
GS
[0.58537 0 0 0.58537 0 0.07315] CT
0.149 GC
2 setlinecap
1 LJ
0.854 LW
N
545.4 297 M
545.4 302.63 L
S
GR
GS
[0.58537 0 0 0.58537 0 0.07315] CT
0.149 GC
2 setlinecap
1 LJ
0.854 LW
N
658 297 M
658 302.63 L
S
GR
GS
[0.58537 0 0 0.58537 55.60976 280.36586] CT
0.149 GC
/Helvetica 17.083 F
GS
[1 0 0 1 0 0] CT
-16.5 16 moveto 
1 -1 scale
(750) t 
GR
GR
GS
[0.58537 0 0 0.58537 121.52195 280.36586] CT
0.149 GC
/Helvetica 17.083 F
GS
[1 0 0 1 0 0] CT
-16.5 16 moveto 
1 -1 scale
(800) t 
GR
GR
GS
[0.58537 0 0 0.58537 187.43415 280.36586] CT
0.149 GC
/Helvetica 17.083 F
GS
[1 0 0 1 0 0] CT
-16.5 16 moveto 
1 -1 scale
(850) t 
GR
GR
GS
[0.58537 0 0 0.58537 253.34633 280.36586] CT
0.149 GC
/Helvetica 17.083 F
GS
[1 0 0 1 0 0] CT
-16.5 16 moveto 
1 -1 scale
(900) t 
GR
GR
GS
[0.58537 0 0 0.58537 319.25855 280.36586] CT
0.149 GC
/Helvetica 17.083 F
GS
[1 0 0 1 0 0] CT
-16.5 16 moveto 
1 -1 scale
(950) t 
GR
GR
GS
[0.58537 0 0 0.58537 385.17073 280.36586] CT
0.149 GC
/Helvetica 17.083 F
GS
[1 0 0 1 0 0] CT
-22 16 moveto 
1 -1 scale
(1000) t 
GR
GR
GS
[0.58537 0 0 0.58537 220.3904 293.65853] CT
0.149 GC
/Helvetica 18.792 F
GS
[1 0 0 1 0 0] CT
-19 18 moveto 
1 -1 scale
(t / h) t 
GR
GR
GS
[0.58537 0 0 0.58537 0 0.07315] CT
0.149 GC
2 setlinecap
1 LJ
0.854 LW
N
95 472 M
95 297 L
S
GR
GS
[0.58537 0 0 0.58537 0 0.07315] CT
0.149 GC
2 setlinecap
1 LJ
0.854 LW
N
658 472 M
658 297 L
S
GR
GS
[0.58537 0 0 0.58537 0 0.07315] CT
0.149 GC
2 setlinecap
1 LJ
0.854 LW
N
95 472 M
100.63 472 L
S
GR
GS
[0.58537 0 0 0.58537 0 0.07315] CT
0.149 GC
2 setlinecap
1 LJ
0.854 LW
N
95 428.25 M
100.63 428.25 L
S
GR
GS
[0.58537 0 0 0.58537 0 0.07315] CT
0.149 GC
2 setlinecap
1 LJ
0.854 LW
N
95 384.5 M
100.63 384.5 L
S
GR
GS
[0.58537 0 0 0.58537 0 0.07315] CT
0.149 GC
2 setlinecap
1 LJ
0.854 LW
N
95 340.75 M
100.63 340.75 L
S
GR
GS
[0.58537 0 0 0.58537 0 0.07315] CT
0.149 GC
2 setlinecap
1 LJ
0.854 LW
N
95 297 M
100.63 297 L
S
GR
GS
[0.58537 0 0 0.58537 0 0.07315] CT
0.149 GC
2 setlinecap
1 LJ
0.854 LW
N
658 472 M
652.37 472 L
S
GR
GS
[0.58537 0 0 0.58537 0 0.07315] CT
0.149 GC
2 setlinecap
1 LJ
0.854 LW
N
658 428.25 M
652.37 428.25 L
S
GR
GS
[0.58537 0 0 0.58537 0 0.07315] CT
0.149 GC
2 setlinecap
1 LJ
0.854 LW
N
658 384.5 M
652.37 384.5 L
S
GR
GS
[0.58537 0 0 0.58537 0 0.07315] CT
0.149 GC
2 setlinecap
1 LJ
0.854 LW
N
658 340.75 M
652.37 340.75 L
S
GR
GS
[0.58537 0 0 0.58537 0 0.07315] CT
0.149 GC
2 setlinecap
1 LJ
0.854 LW
N
658 297 M
652.37 297 L
S
GR
GS
[0.58537 0 0 0.58537 51.60973 276.36585] CT
0.149 GC
/Helvetica 17.083 F
GS
[1 0 0 1 0 0] CT
-17 5.5 moveto 
1 -1 scale
(-5) t 
GR
GR
GS
[0.58537 0 0 0.58537 51.60973 250.75609] CT
0.149 GC
/Helvetica 17.083 F
GS
[1 0 0 1 0 0] CT
-11 5.5 moveto 
1 -1 scale
(0) t 
GR
GR
GS
[0.58537 0 0 0.58537 51.60973 225.14634] CT
0.149 GC
/Helvetica 17.083 F
GS
[1 0 0 1 0 0] CT
-11 5.5 moveto 
1 -1 scale
(5) t 
GR
GR
GS
[0.58537 0 0 0.58537 51.60973 199.53658] CT
0.149 GC
/Helvetica 17.083 F
GS
[1 0 0 1 0 0] CT
-22 5.5 moveto 
1 -1 scale
(10) t 
GR
GR
GS
[0.58537 0 0 0.58537 51.60973 173.92682] CT
0.149 GC
/Helvetica 17.083 F
GS
[1 0 0 1 0 0] CT
-22 5.5 moveto 
1 -1 scale
(15) t 
GR
GR
GS
[0 -0.58537 0.58537 0 32.78049 240.65853] CT
0.149 GC
/Helvetica 18.792 F
GS
[1 0 0 1 0 0] CT
0 0 moveto 
1 -1 scale
(T / ) t 
GR
GR
GS
[0 -0.58537 0.58537 0 27.5122 222.51219] CT
0.149 GC
/Courier 15.033 F
GS
[1 0 0 1 0 0] CT
0 0 moveto 
1 -1 scale
(\260) t 
GR
GR
GS
[0 -0.58537 0.58537 0 32.78049 217.82926] CT
0.149 GC
/Helvetica 18.792 F
GS
[1 0 0 1 0 0] CT
0 0 moveto 
1 -1 scale
(C) t 
GR
GR
GS
[0.58537 0 0 0.58537 220.39049 172.31706] CT
/Helvetica-Bold 18.792 F
GS
[1 0 0 1 0 0] CT
-193 -5 moveto 
1 -1 scale
(Modelling Set: 8 step vs Benchmark) t 
GR
GR
GS
[0.58537 0 0 0.58537 0 0.07315] CT
0 0.447 0.741 RC
1 LJ
0.854 LW
N
94.933 359.881 M
95 359.125 L
97.252 337.25 L
99.504 320.625 L
101.756 314.5 L
104.008 307.5 L
106.26 307.5 L
108.512 305.75 L
110.764 309.25 L
113.016 309.25 L
115.268 318.875 L
117.52 333.75 L
119.772 353 L
122.024 364.375 L
124.276 373.125 L
126.528 381 L
128.78 387.125 L
131.032 393.25 L
133.284 398.5 L
135.536 398.5 L
137.788 400.25 L
140.04 400.25 L
142.292 398.5 L
144.544 393.25 L
146.796 385.375 L
149.048 373.125 L
151.3 359.125 L
153.552 339 L
155.804 336.375 L
158.056 343.375 L
160.308 354.75 L
162.56 359.125 L
164.812 361.75 L
167.064 364.375 L
169.316 367 L
171.568 370.5 L
173.82 375.75 L
176.072 380.125 L
178.324 380.125 L
180.576 381.875 L
182.828 383.188 L
185.08 384.5 L
187.332 387.125 L
189.584 391.5 L
191.836 392.375 L
194.088 391.5 L
196.34 391.5 L
198.592 390.625 L
200.844 388 L
203.096 382.75 L
205.348 375.75 L
207.6 372.25 L
209.852 365.25 L
212.104 358.25 L
214.356 359.125 L
216.608 360.875 L
218.86 363.5 L
221.112 367 L
223.364 367 L
225.616 374.875 L
227.868 377.5 L
230.12 382.75 L
232.372 388 L
234.624 391.5 L
236.876 393.688 L
239.128 395.875 L
241.38 398.5 L
243.632 400.25 L
245.884 402.875 L
248.136 403.75 L
250.388 402.875 L
252.64 401.125 L
254.892 398.5 L
257.144 397.625 L
259.396 396.75 L
261.648 393.25 L
263.9 393.25 L
266.152 392.375 L
268.404 388.875 L
270.656 386.25 L
272.908 384.5 L
275.16 387.125 L
277.412 387.125 L
279.664 390.625 L
281.916 392.375 L
284.168 396.75 L
286.42 398.5 L
288.672 402 L
290.924 410.75 L
293.176 419.5 L
295.428 419.5 L
297.68 423 L
299.932 431.75 L
302.184 438.75 L
304.436 442.25 L
306.688 428.25 L
308.94 405.5 L
311.192 381 L
313.444 370.5 L
315.696 360.875 L
317.948 354.75 L
320.2 350.375 L
322.452 346 L
324.704 340.75 L
326.956 348.625 L
329.208 348.625 L
331.46 350.375 L
333.712 356.5 L
335.964 374.875 L
338.216 387.125 L
340.468 397.625 L
342.72 405.5 L
344.972 406.813 L
347.224 408.125 L
349.476 399.375 L
351.728 397.625 L
353.98 396.75 L
356.232 397.625 L
358.484 399.375 L
360.736 397.625 L
362.988 389.75 L
365.24 386.25 L
367.492 383.625 L
369.744 380.125 L
371.996 372.25 L
374.248 363.5 L
376.5 361.75 L
378.752 359.125 L
381.004 361.75 L
383.256 362.625 L
385.508 365.25 L
387.76 381 L
390.012 391.5 L
392.264 401.125 L
394.516 415.125 L
396.768 421.25 L
399.02 429.563 L
401.272 437.875 L
403.524 440.5 L
405.776 446.625 L
408.028 447.5 L
410.28 447.5 L
412.532 448.375 L
414.784 435.25 L
417.036 418.625 L
419.288 402.875 L
421.54 395.875 L
423.792 393.25 L
426.044 388.875 L
428.296 385.375 L
430.548 380.125 L
432.8 374.875 L
435.052 373.125 L
437.304 371.375 L
439.556 375.75 L
441.808 380.125 L
444.06 398.5 L
446.312 421.25 L
448.564 430 L
450.816 443.125 L
453.068 446.625 L
455.32 450.125 L
457.572 451 L
459.824 453.625 L
462.076 457.125 L
464.328 458 L
466.58 451.875 L
468.832 441.375 L
471.084 422.125 L
473.336 403.75 L
475.588 383.625 L
477.84 381 L
480.092 381 L
482.344 378.375 L
484.596 373.125 L
486.848 372.25 L
489.1 370.5 L
491.352 378.375 L
493.604 375.75 L
495.856 381.875 L
498.108 389.75 L
500.36 397.625 L
502.612 405.5 L
504.864 412.5 L
507.116 417.313 L
509.368 422.125 L
511.62 424.75 L
513.872 423.875 L
516.124 426.5 L
518.376 428.25 L
520.628 427.375 L
522.88 416.875 L
525.132 398.5 L
527.384 394.125 L
529.636 387.125 L
531.888 386.25 L
534.14 381.875 L
536.392 382.75 L
538.644 386.25 L
540.896 377.5 L
543.148 375.75 L
545.4 375.75 L
547.652 375.75 L
549.904 378.375 L
552.156 384.5 L
554.408 388 L
556.66 391.5 L
558.912 395 L
561.164 398.938 L
563.416 402.875 L
565.668 408.125 L
567.92 417.75 L
570.172 418.625 L
572.424 417.75 L
574.676 413.375 L
576.928 406.375 L
579.18 393.25 L
581.432 374 L
583.684 357.375 L
585.936 336.375 L
588.188 324.125 L
590.44 325 L
592.692 320.625 L
594.944 323.25 L
597.196 318 L
599.448 319.75 L
601.7 327.625 L
603.952 337.25 L
606.204 351.25 L
608.456 359.125 L
610.708 363.5 L
612.96 370.5 L
615.212 381.438 L
617.464 392.375 L
619.716 401.125 L
621.968 402.875 L
624.22 408.125 L
626.472 410.75 L
628.724 409 L
630.976 395 L
633.228 369.625 L
635.48 351.25 L
637.732 340.75 L
639.984 331.125 L
642.236 323.25 L
644.488 315.375 L
646.74 310.125 L
648.992 310.125 L
651.244 312.75 L
653.496 315.375 L
655.748 318 L
658 321.5 L
658.067 322.022 L
S
GR
GS
[0.58537 0 0 0.58537 0 0.07315] CT
0.851 0.325 0.098 RC
1 LJ
0.854 LW
N
94.933 397.006 M
95 396.633 L
97.252 378.991 L
99.504 361.073 L
101.756 354.14 L
104.008 348.032 L
106.26 345.376 L
108.512 334.79 L
110.764 318.101 L
113.016 322.587 L
115.268 325.946 L
117.52 335.238 L
119.772 354.946 L
122.024 365.509 L
124.276 379.708 L
126.528 385.836 L
128.78 399.733 L
131.032 404.15 L
133.284 414.014 L
135.536 419.614 L
137.788 424.137 L
140.04 421.489 L
142.292 419.857 L
144.544 409.817 L
146.796 389.317 L
149.048 369.325 L
151.3 353.212 L
153.552 336.425 L
155.804 329.335 L
158.056 321.747 L
160.308 317.909 L
162.56 321.801 L
164.812 328.655 L
167.064 330.685 L
169.316 336.119 L
171.568 338.591 L
173.82 363.105 L
176.072 382.826 L
178.324 398.34 L
180.576 401.488 L
182.828 407.577 L
185.08 411.856 L
187.332 411.357 L
189.584 408.362 L
191.836 406.177 L
194.088 404.305 L
196.34 399.869 L
198.592 396.344 L
200.844 383.205 L
203.096 368.093 L
205.348 355.77 L
207.6 347.129 L
209.852 341.74 L
212.104 340.569 L
214.356 343.293 L
216.608 349.072 L
218.86 358.448 L
221.112 363.363 L
223.364 370.251 L
225.616 380.74 L
227.868 384.799 L
230.12 386.842 L
232.372 394.056 L
234.624 396.77 L
236.876 400.062 L
239.128 403.013 L
241.38 400.208 L
243.632 404.545 L
245.884 398.023 L
248.136 399.688 L
250.388 401.577 L
252.64 399.079 L
254.892 389.578 L
257.144 378.83 L
259.396 370.529 L
261.648 362.476 L
263.9 359.688 L
266.152 356.384 L
268.404 354.732 L
270.656 357.891 L
272.908 365.362 L
275.16 372.085 L
277.412 379.006 L
279.664 385.713 L
281.916 397.982 L
284.168 404.399 L
286.42 405.261 L
288.672 407.18 L
290.924 409.25 L
293.176 414.601 L
295.428 411.976 L
297.68 412.709 L
299.932 408.93 L
302.184 409.681 L
304.436 408.209 L
306.688 407.513 L
308.94 405.288 L
311.192 399.415 L
313.444 387.188 L
315.696 384.394 L
317.948 388.661 L
320.2 388.903 L
322.452 387.9 L
324.704 375.949 L
326.956 369.355 L
329.208 363.299 L
331.46 372.587 L
333.712 376.436 L
335.964 383.601 L
338.216 389.226 L
340.468 391.047 L
342.72 392.295 L
344.972 407.016 L
347.224 405.384 L
349.476 407.546 L
351.728 411.646 L
353.98 425.31 L
356.232 427.549 L
358.484 430.046 L
360.736 422.978 L
362.988 402.159 L
365.24 386.163 L
367.492 364.422 L
369.744 355.477 L
371.996 347.742 L
374.248 343.3 L
376.5 342.744 L
378.752 346.436 L
381.004 351.205 L
383.256 358.792 L
385.508 364.689 L
387.76 374.211 L
390.012 381.373 L
392.264 388.66 L
394.516 400.055 L
396.768 402.692 L
399.02 410.047 L
401.272 410.469 L
403.524 409.81 L
405.776 416.451 L
408.028 411.746 L
410.28 411.847 L
412.532 418.397 L
414.784 411.631 L
417.036 405.703 L
419.288 399.61 L
421.54 391.59 L
423.792 388.709 L
426.044 380.725 L
428.296 376.107 L
430.548 374.94 L
432.8 365.943 L
435.052 365.698 L
437.304 364.984 L
439.556 373.882 L
441.808 387.048 L
444.06 397.411 L
446.312 407.736 L
448.564 412.631 L
450.816 416.987 L
453.068 423.565 L
455.32 427.673 L
457.572 432.438 L
459.824 431.189 L
462.076 442.876 L
464.328 451.475 L
466.58 444.59 L
468.832 443.75 L
471.084 423.894 L
473.336 410.277 L
475.588 399.939 L
477.84 393.464 L
480.092 390.36 L
482.344 384.662 L
484.596 376.914 L
486.848 374.605 L
489.1 370.922 L
491.352 369.359 L
493.604 364.723 L
495.856 383.723 L
498.108 399.816 L
500.36 410.584 L
502.612 417.339 L
504.864 427.465 L
507.116 431.252 L
509.368 443.434 L
511.62 436.665 L
513.872 440.026 L
516.124 438.164 L
518.376 437.452 L
520.628 436.444 L
522.88 429.325 L
525.132 413.802 L
527.384 397.69 L
529.636 386.016 L
531.888 374.514 L
534.14 372.43 L
536.392 369.103 L
538.644 366.169 L
540.896 361.79 L
543.148 361.356 L
545.4 375.365 L
547.652 375.997 L
549.904 386.307 L
552.156 393.058 L
554.408 406.825 L
556.66 416.509 L
558.912 412.44 L
561.164 418.26 L
563.416 422.855 L
565.668 422.367 L
567.92 421.369 L
570.172 422.029 L
572.424 419.26 L
574.676 418.053 L
576.928 410.102 L
579.18 397.864 L
581.432 386.049 L
583.684 381.394 L
585.936 380.76 L
588.188 372.625 L
590.44 370.077 L
592.692 366.461 L
594.944 367.348 L
597.196 366.602 L
599.448 360.252 L
601.7 358.847 L
603.952 354.634 L
606.204 363.178 L
608.456 377.279 L
610.708 378.213 L
612.96 388.413 L
615.212 384.532 L
617.464 392.024 L
619.716 400.38 L
621.968 403.463 L
624.22 408.504 L
626.472 405.802 L
628.724 403.619 L
630.976 399.788 L
633.228 390.56 L
635.48 377.694 L
637.732 364.572 L
639.984 348.118 L
642.236 344.913 L
644.488 340.204 L
646.74 335.832 L
648.992 326.753 L
651.244 319.615 L
653.496 323.79 L
655.748 333.254 L
658 341.437 L
658.067 341.723 L
S
GR
GS
[0.58537 0 0 0.58537 0 0.07315] CT
0.929 0.694 0.125 RC
1 LJ
0.854 LW
N
94.933 366.006 M
95 365.25 L
97.252 350.375 L
99.504 337.25 L
101.756 327.625 L
104.008 324.125 L
106.26 318 L
108.512 317.125 L
110.764 318.875 L
113.016 318.875 L
115.268 324.125 L
117.52 338.125 L
119.772 356.5 L
122.024 377.5 L
124.276 388.875 L
126.528 399.375 L
128.78 414.25 L
131.032 429.125 L
133.284 437 L
135.536 437 L
137.788 437.875 L
140.04 438.75 L
142.292 438.75 L
144.544 422.125 L
146.796 384.5 L
149.048 359.125 L
151.3 337.25 L
153.552 320.625 L
155.804 314.5 L
158.056 307.5 L
160.308 307.5 L
162.56 305.75 L
164.812 309.25 L
167.064 309.25 L
169.316 318.875 L
171.568 333.75 L
173.82 353 L
176.072 364.375 L
178.324 373.125 L
180.576 381 L
182.828 387.125 L
185.08 393.25 L
187.332 398.5 L
189.584 398.5 L
191.836 400.25 L
194.088 400.25 L
196.34 398.5 L
198.592 393.25 L
200.844 385.375 L
203.096 373.125 L
205.348 359.125 L
207.6 339 L
209.852 336.375 L
212.104 343.375 L
214.356 354.75 L
216.608 359.125 L
218.86 361.75 L
221.112 364.375 L
223.364 367 L
225.616 370.5 L
227.868 375.75 L
230.12 380.125 L
232.372 380.125 L
234.624 381.875 L
236.876 383.188 L
239.128 384.5 L
241.38 387.125 L
243.632 391.5 L
245.884 392.375 L
248.136 391.5 L
250.388 391.5 L
252.64 390.625 L
254.892 388 L
257.144 382.75 L
259.396 375.75 L
261.648 372.25 L
263.9 365.25 L
266.152 358.25 L
268.404 359.125 L
270.656 360.875 L
272.908 363.5 L
275.16 367 L
277.412 367 L
279.664 374.875 L
281.916 377.5 L
284.168 382.75 L
286.42 388 L
288.672 391.5 L
290.924 393.688 L
293.176 395.875 L
295.428 398.5 L
297.68 400.25 L
299.932 402.875 L
302.184 403.75 L
304.436 402.875 L
306.688 401.125 L
308.94 398.5 L
311.192 397.625 L
313.444 396.75 L
315.696 393.25 L
317.948 393.25 L
320.2 392.375 L
322.452 388.875 L
324.704 386.25 L
326.956 384.5 L
329.208 387.125 L
331.46 387.125 L
333.712 390.625 L
335.964 392.375 L
338.216 396.75 L
340.468 398.5 L
342.72 402 L
344.972 410.75 L
347.224 419.5 L
349.476 419.5 L
351.728 423 L
353.98 431.75 L
356.232 438.75 L
358.484 442.25 L
360.736 428.25 L
362.988 405.5 L
365.24 381 L
367.492 370.5 L
369.744 360.875 L
371.996 354.75 L
374.248 350.375 L
376.5 346 L
378.752 340.75 L
381.004 348.625 L
383.256 348.625 L
385.508 350.375 L
387.76 356.5 L
390.012 374.875 L
392.264 387.125 L
394.516 397.625 L
396.768 405.5 L
399.02 406.813 L
401.272 408.125 L
403.524 399.375 L
405.776 397.625 L
408.028 396.75 L
410.28 397.625 L
412.532 399.375 L
414.784 397.625 L
417.036 389.75 L
419.288 386.25 L
421.54 383.625 L
423.792 380.125 L
426.044 372.25 L
428.296 363.5 L
430.548 361.75 L
432.8 359.125 L
435.052 361.75 L
437.304 362.625 L
439.556 365.25 L
441.808 381 L
444.06 391.5 L
446.312 401.125 L
448.564 415.125 L
450.816 421.25 L
453.068 429.563 L
455.32 437.875 L
457.572 440.5 L
459.824 446.625 L
462.076 447.5 L
464.328 447.5 L
466.58 448.375 L
468.832 435.25 L
471.084 418.625 L
473.336 402.875 L
475.588 395.875 L
477.84 393.25 L
480.092 388.875 L
482.344 385.375 L
484.596 380.125 L
486.848 374.875 L
489.1 373.125 L
491.352 371.375 L
493.604 375.75 L
495.856 380.125 L
498.108 398.5 L
500.36 421.25 L
502.612 430 L
504.864 443.125 L
507.116 446.625 L
509.368 450.125 L
511.62 451 L
513.872 453.625 L
516.124 457.125 L
518.376 458 L
520.628 451.875 L
522.88 441.375 L
525.132 422.125 L
527.384 403.75 L
529.636 383.625 L
531.888 381 L
534.14 381 L
536.392 378.375 L
538.644 373.125 L
540.896 372.25 L
543.148 370.5 L
545.4 378.375 L
547.652 375.75 L
549.904 381.875 L
552.156 389.75 L
554.408 397.625 L
556.66 405.5 L
558.912 412.5 L
561.164 417.313 L
563.416 422.125 L
565.668 424.75 L
567.92 423.875 L
570.172 426.5 L
572.424 428.25 L
574.676 427.375 L
576.928 416.875 L
579.18 398.5 L
581.432 394.125 L
583.684 387.125 L
585.936 386.25 L
588.188 381.875 L
590.44 382.75 L
592.692 386.25 L
594.944 377.5 L
597.196 375.75 L
599.448 375.75 L
601.7 375.75 L
603.952 378.375 L
606.204 384.5 L
608.456 388 L
610.708 391.5 L
612.96 395 L
615.212 398.938 L
617.464 402.875 L
619.716 408.125 L
621.968 417.75 L
624.22 418.625 L
626.472 417.75 L
628.724 413.375 L
630.976 406.375 L
633.228 393.25 L
635.48 374 L
637.732 357.375 L
639.984 336.375 L
642.236 324.125 L
644.488 325 L
646.74 320.625 L
648.992 323.25 L
651.244 318 L
653.496 319.75 L
655.748 327.625 L
658 337.25 L
658.067 337.667 L
S
GR
GS
[0.58537 0 0 0.58537 0 0.07315] CT
1 GC
N
466 373 M
466 314 L
641 314 L
641 373 L
cp
f
GR
GS
[0.58537 0 0 0.58537 306.82942 190.31707] CT
/Helvetica 15.375 F
GS
[1 0 0 1 0 0] CT
0 5 moveto 
1 -1 scale
(Measured data) t 
GR
GR
GS
[0.58537 0 0 0.58537 0 0.07315] CT
0 0.447 0.741 RC
1 LJ
0.854 LW
N
469.994 325 M
521.171 325 L
S
GR
GS
[0.58537 0 0 0.58537 306.82942 201.14633] CT
/Helvetica 15.375 F
GS
[1 0 0 1 0 0] CT
0 5 moveto 
1 -1 scale
(8-step) t 
GR
GR
GS
[0.58537 0 0 0.58537 0 0.07315] CT
0.851 0.325 0.098 RC
1 LJ
0.854 LW
N
469.994 343.5 M
521.171 343.5 L
S
GR
GS
[0.58537 0 0 0.58537 306.82942 211.9756] CT
/Helvetica 15.375 F
GS
[1 0 0 1 0 0] CT
0 5 moveto 
1 -1 scale
(benchmark) t 
GR
GR
GS
[0.58537 0 0 0.58537 0 0.07315] CT
0.929 0.694 0.125 RC
1 LJ
0.854 LW
N
469.994 362 M
521.171 362 L
S
GR
GS
[0.58537 0 0 0.58537 0 0.07315] CT
0.149 GC
10.0 ML
0.854 LW
N
466 373 M
466 314 L
641 314 L
641 373 L
cp
S
GR
%%Trailer
%%Pages: 1
%%EOF
