%!PS-Adobe-3.0 EPSF-3.0
%%Creator: (MATLAB, The Mathworks, Inc. Version 9.0.0.370719 \(R2016a\). Operating System: Windows 8)
%%Title: H:/Skolan/GitTogether/tsaproj/Report/Img/ATestPred.eps
%%CreationDate: 2018-01-11T22:57:32
%%Pages: (atend)
%%BoundingBox: 0 0 420 315
%%LanguageLevel: 3
%%EndComments
%%BeginProlog
%%BeginResource: procset (Apache XML Graphics Std ProcSet) 1.2 0
%%Version: 1.2 0
%%Copyright: (Copyright 2001-2003,2010 The Apache Software Foundation. License terms: http://www.apache.org/licenses/LICENSE-2.0)
/bd{bind def}bind def
/ld{load def}bd
/GR/grestore ld
/M/moveto ld
/LJ/setlinejoin ld
/C/curveto ld
/f/fill ld
/LW/setlinewidth ld
/GC/setgray ld
/t/show ld
/N/newpath ld
/CT/concat ld
/cp/closepath ld
/S/stroke ld
/L/lineto ld
/CC/setcmykcolor ld
/A/ashow ld
/GS/gsave ld
/RC/setrgbcolor ld
/RM/rmoveto ld
/ML/setmiterlimit ld
/re {4 2 roll M
1 index 0 rlineto
0 exch rlineto
neg 0 rlineto
cp } bd
/_ctm matrix def
/_tm matrix def
/BT { _ctm currentmatrix pop matrix _tm copy pop 0 0 moveto } bd
/ET { _ctm setmatrix } bd
/iTm { _ctm setmatrix _tm concat } bd
/Tm { _tm astore pop iTm 0 0 moveto } bd
/ux 0.0 def
/uy 0.0 def
/F {
  /Tp exch def
  /Tf exch def
  Tf findfont Tp scalefont setfont
  /cf Tf def  /cs Tp def
} bd
/ULS {currentpoint /uy exch def /ux exch def} bd
/ULE {
  /Tcx currentpoint pop def
  gsave
  newpath
  cf findfont cs scalefont dup
  /FontMatrix get 0 get /Ts exch def /FontInfo get dup
  /UnderlinePosition get Ts mul /To exch def
  /UnderlineThickness get Ts mul /Tt exch def
  ux uy To add moveto  Tcx uy To add lineto
  Tt setlinewidth stroke
  grestore
} bd
/OLE {
  /Tcx currentpoint pop def
  gsave
  newpath
  cf findfont cs scalefont dup
  /FontMatrix get 0 get /Ts exch def /FontInfo get dup
  /UnderlinePosition get Ts mul /To exch def
  /UnderlineThickness get Ts mul /Tt exch def
  ux uy To add cs add moveto Tcx uy To add cs add lineto
  Tt setlinewidth stroke
  grestore
} bd
/SOE {
  /Tcx currentpoint pop def
  gsave
  newpath
  cf findfont cs scalefont dup
  /FontMatrix get 0 get /Ts exch def /FontInfo get dup
  /UnderlinePosition get Ts mul /To exch def
  /UnderlineThickness get Ts mul /Tt exch def
  ux uy To add cs 10 mul 26 idiv add moveto Tcx uy To add cs 10 mul 26 idiv add lineto
  Tt setlinewidth stroke
  grestore
} bd
/QT {
/Y22 exch store
/X22 exch store
/Y21 exch store
/X21 exch store
currentpoint
/Y21 load 2 mul add 3 div exch
/X21 load 2 mul add 3 div exch
/X21 load 2 mul /X22 load add 3 div
/Y21 load 2 mul /Y22 load add 3 div
/X22 load /Y22 load curveto
} bd
/SSPD {
dup length /d exch dict def
{
/v exch def
/k exch def
currentpagedevice k known {
/cpdv currentpagedevice k get def
v cpdv ne {
/upd false def
/nullv v type /nulltype eq def
/nullcpdv cpdv type /nulltype eq def
nullv nullcpdv or
{
/upd true def
} {
/sametype v type cpdv type eq def
sametype {
v type /arraytype eq {
/vlen v length def
/cpdvlen cpdv length def
vlen cpdvlen eq {
0 1 vlen 1 sub {
/i exch def
/obj v i get def
/cpdobj cpdv i get def
obj cpdobj ne {
/upd true def
exit
} if
} for
} {
/upd true def
} ifelse
} {
v type /dicttype eq {
v {
/dv exch def
/dk exch def
/cpddv cpdv dk get def
dv cpddv ne {
/upd true def
exit
} if
} forall
} {
/upd true def
} ifelse
} ifelse
} if
} ifelse
upd true eq {
d k v put
} if
} if
} if
} forall
d length 0 gt {
d setpagedevice
} if
} bd
%%EndResource
%%BeginResource: procset (Apache XML Graphics EPS ProcSet) 1.0 0
%%Version: 1.0 0
%%Copyright: (Copyright 2002-2003 The Apache Software Foundation. License terms: http://www.apache.org/licenses/LICENSE-2.0)
/BeginEPSF { %def
/b4_Inc_state save def         % Save state for cleanup
/dict_count countdictstack def % Count objects on dict stack
/op_count count 1 sub def      % Count objects on operand stack
userdict begin                 % Push userdict on dict stack
/showpage { } def              % Redefine showpage, { } = null proc
0 setgray 0 setlinecap         % Prepare graphics state
1 setlinewidth 0 setlinejoin
10 setmiterlimit [ ] 0 setdash newpath
/languagelevel where           % If level not equal to 1 then
{pop languagelevel             % set strokeadjust and
1 ne                           % overprint to their defaults.
{false setstrokeadjust false setoverprint
} if
} if
} bd
/EndEPSF { %def
count op_count sub {pop} repeat            % Clean up stacks
countdictstack dict_count sub {end} repeat
b4_Inc_state restore
} bd
%%EndResource
%FOPBeginFontDict
%%IncludeResource: font Courier-Bold
%%IncludeResource: font Helvetica
%%IncludeResource: font Courier-BoldOblique
%%IncludeResource: font Courier-Oblique
%%IncludeResource: font Times-Roman
%%IncludeResource: font Helvetica-BoldOblique
%%IncludeResource: font Helvetica-Bold
%%IncludeResource: font Helvetica-Oblique
%%IncludeResource: font Times-BoldItalic
%%IncludeResource: font Courier
%%IncludeResource: font Times-Italic
%%IncludeResource: font Times-Bold
%%IncludeResource: font Symbol
%%IncludeResource: font ZapfDingbats
%FOPEndFontDict
%%BeginResource: encoding WinAnsiEncoding
/WinAnsiEncoding [
/.notdef /.notdef /.notdef /.notdef /.notdef
/.notdef /.notdef /.notdef /.notdef /.notdef
/.notdef /.notdef /.notdef /.notdef /.notdef
/.notdef /.notdef /.notdef /.notdef /.notdef
/.notdef /.notdef /.notdef /.notdef /.notdef
/.notdef /.notdef /.notdef /.notdef /.notdef
/.notdef /.notdef /space /exclam /quotedbl
/numbersign /dollar /percent /ampersand /quotesingle
/parenleft /parenright /asterisk /plus /comma
/hyphen /period /slash /zero /one
/two /three /four /five /six
/seven /eight /nine /colon /semicolon
/less /equal /greater /question /at
/A /B /C /D /E
/F /G /H /I /J
/K /L /M /N /O
/P /Q /R /S /T
/U /V /W /X /Y
/Z /bracketleft /backslash /bracketright /asciicircum
/underscore /quoteleft /a /b /c
/d /e /f /g /h
/i /j /k /l /m
/n /o /p /q /r
/s /t /u /v /w
/x /y /z /braceleft /bar
/braceright /asciitilde /bullet /Euro /bullet
/quotesinglbase /florin /quotedblbase /ellipsis /dagger
/daggerdbl /circumflex /perthousand /Scaron /guilsinglleft
/OE /bullet /Zcaron /bullet /bullet
/quoteleft /quoteright /quotedblleft /quotedblright /bullet
/endash /emdash /asciitilde /trademark /scaron
/guilsinglright /oe /bullet /zcaron /Ydieresis
/space /exclamdown /cent /sterling /currency
/yen /brokenbar /section /dieresis /copyright
/ordfeminine /guillemotleft /logicalnot /sfthyphen /registered
/macron /degree /plusminus /twosuperior /threesuperior
/acute /mu /paragraph /middot /cedilla
/onesuperior /ordmasculine /guillemotright /onequarter /onehalf
/threequarters /questiondown /Agrave /Aacute /Acircumflex
/Atilde /Adieresis /Aring /AE /Ccedilla
/Egrave /Eacute /Ecircumflex /Edieresis /Igrave
/Iacute /Icircumflex /Idieresis /Eth /Ntilde
/Ograve /Oacute /Ocircumflex /Otilde /Odieresis
/multiply /Oslash /Ugrave /Uacute /Ucircumflex
/Udieresis /Yacute /Thorn /germandbls /agrave
/aacute /acircumflex /atilde /adieresis /aring
/ae /ccedilla /egrave /eacute /ecircumflex
/edieresis /igrave /iacute /icircumflex /idieresis
/eth /ntilde /ograve /oacute /ocircumflex
/otilde /odieresis /divide /oslash /ugrave
/uacute /ucircumflex /udieresis /yacute /thorn
/ydieresis
] def
%%EndResource
%FOPBeginFontReencode
/Courier-Bold findfont
dup length dict begin
  {1 index /FID ne {def} {pop pop} ifelse} forall
  /Encoding WinAnsiEncoding def
  currentdict
end
/Courier-Bold exch definefont pop
/Helvetica findfont
dup length dict begin
  {1 index /FID ne {def} {pop pop} ifelse} forall
  /Encoding WinAnsiEncoding def
  currentdict
end
/Helvetica exch definefont pop
/Courier-BoldOblique findfont
dup length dict begin
  {1 index /FID ne {def} {pop pop} ifelse} forall
  /Encoding WinAnsiEncoding def
  currentdict
end
/Courier-BoldOblique exch definefont pop
/Courier-Oblique findfont
dup length dict begin
  {1 index /FID ne {def} {pop pop} ifelse} forall
  /Encoding WinAnsiEncoding def
  currentdict
end
/Courier-Oblique exch definefont pop
/Times-Roman findfont
dup length dict begin
  {1 index /FID ne {def} {pop pop} ifelse} forall
  /Encoding WinAnsiEncoding def
  currentdict
end
/Times-Roman exch definefont pop
/Helvetica-BoldOblique findfont
dup length dict begin
  {1 index /FID ne {def} {pop pop} ifelse} forall
  /Encoding WinAnsiEncoding def
  currentdict
end
/Helvetica-BoldOblique exch definefont pop
/Helvetica-Bold findfont
dup length dict begin
  {1 index /FID ne {def} {pop pop} ifelse} forall
  /Encoding WinAnsiEncoding def
  currentdict
end
/Helvetica-Bold exch definefont pop
/Helvetica-Oblique findfont
dup length dict begin
  {1 index /FID ne {def} {pop pop} ifelse} forall
  /Encoding WinAnsiEncoding def
  currentdict
end
/Helvetica-Oblique exch definefont pop
/Times-BoldItalic findfont
dup length dict begin
  {1 index /FID ne {def} {pop pop} ifelse} forall
  /Encoding WinAnsiEncoding def
  currentdict
end
/Times-BoldItalic exch definefont pop
/Courier findfont
dup length dict begin
  {1 index /FID ne {def} {pop pop} ifelse} forall
  /Encoding WinAnsiEncoding def
  currentdict
end
/Courier exch definefont pop
/Times-Italic findfont
dup length dict begin
  {1 index /FID ne {def} {pop pop} ifelse} forall
  /Encoding WinAnsiEncoding def
  currentdict
end
/Times-Italic exch definefont pop
/Times-Bold findfont
dup length dict begin
  {1 index /FID ne {def} {pop pop} ifelse} forall
  /Encoding WinAnsiEncoding def
  currentdict
end
/Times-Bold exch definefont pop
%FOPEndFontReencode
%%EndProlog
%%Page: 1 1
%%PageBoundingBox: 0 0 420 315
%%BeginPageSetup
[1 0 0 -1 0 315] CT
%%EndPageSetup
GS
[0.75 0 0 0.75 0 0] CT
1 GC
N
0 0 560 420 re
f
GR
GS
[0.75 0 0 0.75 0 0] CT
1 GC
N
0 0 560 420 re
f
GR
GS
[0.75 0 0 0.75 0 0] CT
1 GC
N
73 167 M
507 167 L
507 35 L
73 35 L
cp
f
GR
GS
[0.75 0 0 0.75 0 0] CT
0.149 GC
2 setlinecap
1 LJ
0.667 LW
N
73 167 M
507 167 L
S
GR
GS
[0.75 0 0 0.75 0 0] CT
0.149 GC
2 setlinecap
1 LJ
0.667 LW
N
73 35 M
507 35 L
S
GR
GS
[0.75 0 0 0.75 0 0] CT
0.149 GC
2 setlinecap
1 LJ
0.667 LW
N
73 167 M
73 162.66 L
S
GR
GS
[0.75 0 0 0.75 0 0] CT
0.149 GC
2 setlinecap
1 LJ
0.667 LW
N
159.8 167 M
159.8 162.66 L
S
GR
GS
[0.75 0 0 0.75 0 0] CT
0.149 GC
2 setlinecap
1 LJ
0.667 LW
N
246.6 167 M
246.6 162.66 L
S
GR
GS
[0.75 0 0 0.75 0 0] CT
0.149 GC
2 setlinecap
1 LJ
0.667 LW
N
333.4 167 M
333.4 162.66 L
S
GR
GS
[0.75 0 0 0.75 0 0] CT
0.149 GC
2 setlinecap
1 LJ
0.667 LW
N
420.2 167 M
420.2 162.66 L
S
GR
GS
[0.75 0 0 0.75 0 0] CT
0.149 GC
2 setlinecap
1 LJ
0.667 LW
N
507 167 M
507 162.66 L
S
GR
GS
[0.75 0 0 0.75 0 0] CT
0.149 GC
2 setlinecap
1 LJ
0.667 LW
N
73 35 M
73 39.34 L
S
GR
GS
[0.75 0 0 0.75 0 0] CT
0.149 GC
2 setlinecap
1 LJ
0.667 LW
N
159.8 35 M
159.8 39.34 L
S
GR
GS
[0.75 0 0 0.75 0 0] CT
0.149 GC
2 setlinecap
1 LJ
0.667 LW
N
246.6 35 M
246.6 39.34 L
S
GR
GS
[0.75 0 0 0.75 0 0] CT
0.149 GC
2 setlinecap
1 LJ
0.667 LW
N
333.4 35 M
333.4 39.34 L
S
GR
GS
[0.75 0 0 0.75 0 0] CT
0.149 GC
2 setlinecap
1 LJ
0.667 LW
N
420.2 35 M
420.2 39.34 L
S
GR
GS
[0.75 0 0 0.75 0 0] CT
0.149 GC
2 setlinecap
1 LJ
0.667 LW
N
507 35 M
507 39.34 L
S
GR
GS
[0.75 0 0 0.75 54.75 129.25] CT
0.149 GC
/Helvetica 13.333 F
GS
[1 0 0 1 0 0] CT
-11 14 moveto 
1 -1 scale
(750) t 
GR
GR
GS
[0.75 0 0 0.75 119.85 129.25] CT
0.149 GC
/Helvetica 13.333 F
GS
[1 0 0 1 0 0] CT
-11 14 moveto 
1 -1 scale
(800) t 
GR
GR
GS
[0.75 0 0 0.75 184.95 129.25] CT
0.149 GC
/Helvetica 13.333 F
GS
[1 0 0 1 0 0] CT
-11 14 moveto 
1 -1 scale
(850) t 
GR
GR
GS
[0.75 0 0 0.75 250.05 129.25] CT
0.149 GC
/Helvetica 13.333 F
GS
[1 0 0 1 0 0] CT
-11 14 moveto 
1 -1 scale
(900) t 
GR
GR
GS
[0.75 0 0 0.75 315.15001 129.25] CT
0.149 GC
/Helvetica 13.333 F
GS
[1 0 0 1 0 0] CT
-11 14 moveto 
1 -1 scale
(950) t 
GR
GR
GS
[0.75 0 0 0.75 380.25 129.25] CT
0.149 GC
/Helvetica 13.333 F
GS
[1 0 0 1 0 0] CT
-14.5 14 moveto 
1 -1 scale
(1000) t 
GR
GR
GS
[0.75 0 0 0.75 217.50016 143] CT
0.149 GC
/Helvetica 14.667 F
GS
[1 0 0 1 0 0] CT
-13 16 moveto 
1 -1 scale
(t / h) t 
GR
GR
GS
[0.75 0 0 0.75 0 0] CT
0.149 GC
2 setlinecap
1 LJ
0.667 LW
N
73 167 M
73 35 L
S
GR
GS
[0.75 0 0 0.75 0 0] CT
0.149 GC
2 setlinecap
1 LJ
0.667 LW
N
507 167 M
507 35 L
S
GR
GS
[0.75 0 0 0.75 0 0] CT
0.149 GC
2 setlinecap
1 LJ
0.667 LW
N
73 153.8 M
77.34 153.8 L
S
GR
GS
[0.75 0 0 0.75 0 0] CT
0.149 GC
2 setlinecap
1 LJ
0.667 LW
N
73 120.8 M
77.34 120.8 L
S
GR
GS
[0.75 0 0 0.75 0 0] CT
0.149 GC
2 setlinecap
1 LJ
0.667 LW
N
73 87.8 M
77.34 87.8 L
S
GR
GS
[0.75 0 0 0.75 0 0] CT
0.149 GC
2 setlinecap
1 LJ
0.667 LW
N
73 54.8 M
77.34 54.8 L
S
GR
GS
[0.75 0 0 0.75 0 0] CT
0.149 GC
2 setlinecap
1 LJ
0.667 LW
N
507 153.8 M
502.66 153.8 L
S
GR
GS
[0.75 0 0 0.75 0 0] CT
0.149 GC
2 setlinecap
1 LJ
0.667 LW
N
507 120.8 M
502.66 120.8 L
S
GR
GS
[0.75 0 0 0.75 0 0] CT
0.149 GC
2 setlinecap
1 LJ
0.667 LW
N
507 87.8 M
502.66 87.8 L
S
GR
GS
[0.75 0 0 0.75 0 0] CT
0.149 GC
2 setlinecap
1 LJ
0.667 LW
N
507 54.8 M
502.66 54.8 L
S
GR
GS
[0.75 0 0 0.75 50.74999 115.35] CT
0.149 GC
/Helvetica 13.333 F
GS
[1 0 0 1 0 0] CT
-12 5.5 moveto 
1 -1 scale
(-5) t 
GR
GR
GS
[0.75 0 0 0.75 50.74999 90.6] CT
0.149 GC
/Helvetica 13.333 F
GS
[1 0 0 1 0 0] CT
-8 5.5 moveto 
1 -1 scale
(0) t 
GR
GR
GS
[0.75 0 0 0.75 50.74999 65.85] CT
0.149 GC
/Helvetica 13.333 F
GS
[1 0 0 1 0 0] CT
-8 5.5 moveto 
1 -1 scale
(5) t 
GR
GR
GS
[0.75 0 0 0.75 50.74999 41.1] CT
0.149 GC
/Helvetica 13.333 F
GS
[1 0 0 1 0 0] CT
-15 5.5 moveto 
1 -1 scale
(10) t 
GR
GR
GS
[0 -0.75 0.75 0 33.75 90] CT
0.149 GC
/Helvetica 14.667 F
GS
[1 0 0 1 0 0] CT
0 0 moveto 
1 -1 scale
(T / ) t 
GR
GR
GS
[0 -0.75 0.75 0 28.5 73.5] CT
0.149 GC
/Courier 10.667 F
GS
[1 0 0 1 0 0] CT
0 0 moveto 
1 -1 scale
(\260) t 
GR
GR
GS
[0 -0.75 0.75 0 33.75 69.75] CT
0.149 GC
/Helvetica 14.667 F
GS
[1 0 0 1 0 0] CT
0 0 moveto 
1 -1 scale
(C) t 
GR
GR
GS
[0.75 0 0 0.75 217.50023 24.1875] CT
/Helvetica-Bold 14.667 F
GS
[1 0 0 1 0 0] CT
-74 -4 moveto 
1 -1 scale
(Test set: Predictions) t 
GR
GR
GS
[0.75 0 0 0.75 0 0] CT
0 0.447 0.741 RC
1 LJ
0.667 LW
N
72.957 87.85 M
73 87.8 L
74.736 86.48 L
76.472 84.5 L
78.208 83.84 L
79.944 83.18 L
81.68 85.82 L
83.416 87.8 L
85.152 89.78 L
86.888 91.76 L
88.624 92.42 L
90.36 93.74 L
92.096 94.4 L
93.832 95.06 L
95.568 95.06 L
97.304 96.38 L
99.04 96.38 L
100.776 96.38 L
102.512 97.04 L
104.248 97.04 L
105.984 97.7 L
107.72 97.7 L
109.456 98.36 L
111.192 98.36 L
112.928 98.36 L
114.664 97.04 L
116.4 95.06 L
118.136 93.08 L
119.872 91.1 L
121.608 90.44 L
123.344 90.44 L
125.08 92.42 L
126.816 93.08 L
128.552 93.74 L
130.288 93.74 L
132.024 95.06 L
133.76 95.06 L
135.496 95.06 L
137.232 95.72 L
138.968 95.72 L
140.704 96.38 L
142.44 97.04 L
144.176 97.7 L
145.912 98.36 L
147.648 98.36 L
149.384 99.02 L
151.12 100.34 L
152.856 99.68 L
154.592 98.36 L
156.328 95.72 L
158.064 93.74 L
159.8 93.08 L
161.536 91.1 L
163.272 90.44 L
165.008 89.78 L
166.744 90.44 L
168.48 91.76 L
170.216 93.74 L
171.952 95.06 L
173.688 98.36 L
175.424 98.36 L
177.16 99.68 L
178.896 101.66 L
180.632 102.32 L
182.368 103.64 L
184.104 104.96 L
185.84 107.6 L
187.576 108.92 L
189.312 107.6 L
191.048 108.26 L
192.784 108.26 L
194.52 107.6 L
196.256 106.28 L
197.992 105.62 L
199.728 105.62 L
201.464 104.3 L
203.2 102.98 L
204.936 102.32 L
206.672 102.98 L
208.408 103.64 L
210.144 106.28 L
211.88 109.58 L
213.616 108.92 L
215.352 108.26 L
217.088 108.26 L
218.824 110.24 L
220.56 112.22 L
222.296 113.54 L
224.032 114.53 L
225.768 115.52 L
227.504 117.5 L
229.24 118.16 L
230.976 116.84 L
232.712 116.18 L
234.448 116.84 L
236.184 116.18 L
237.92 115.52 L
239.656 115.52 L
241.392 112.88 L
243.128 109.58 L
244.864 108.26 L
246.6 107.6 L
248.336 108.92 L
250.072 112.88 L
251.808 114.86 L
253.544 116.18 L
255.28 118.82 L
257.016 120.8 L
258.752 124.1 L
260.488 128.06 L
262.224 131.36 L
263.96 134 L
265.696 137.96 L
267.432 141.92 L
269.168 144.56 L
270.904 147.2 L
272.64 151.82 L
274.376 155.12 L
276.112 157.76 L
277.848 163.04 L
279.584 160.4 L
281.32 148.52 L
283.056 122.12 L
284.792 112.88 L
286.528 110.24 L
288.264 109.58 L
290 111.56 L
291.736 118.82 L
293.472 124.1 L
295.208 125.42 L
296.944 126.08 L
298.68 126.08 L
300.416 126.74 L
302.152 126.74 L
303.888 126.08 L
305.624 126.74 L
307.36 126.74 L
309.096 126.74 L
310.832 127.4 L
312.568 126.74 L
314.304 126.74 L
316.04 126.08 L
317.776 126.08 L
319.512 128.06 L
321.248 129.38 L
322.984 128.06 L
324.72 121.46 L
326.456 116.84 L
328.192 113.54 L
329.928 109.58 L
331.664 112.88 L
333.4 120.14 L
335.136 125.42 L
336.872 128.06 L
338.608 129.38 L
340.344 130.04 L
342.08 130.04 L
343.816 126.08 L
345.552 119.48 L
347.288 111.56 L
349.024 112.22 L
350.76 112.88 L
352.496 115.52 L
354.232 116.84 L
355.968 116.18 L
357.704 111.56 L
359.44 105.62 L
361.176 101 L
362.912 95.06 L
364.648 93.74 L
366.384 91.76 L
368.12 87.14 L
369.856 80.54 L
371.592 71.3 L
373.328 66.68 L
375.064 68 L
376.8 64.7 L
378.536 51.5 L
380.272 47.54 L
382.008 44.9 L
383.744 50.84 L
385.48 56.78 L
387.216 58.1 L
388.952 59.42 L
390.688 60.74 L
392.424 62.06 L
394.16 61.4 L
395.896 62.72 L
397.632 63.38 L
399.368 62.06 L
401.104 62.06 L
402.84 68 L
404.576 69.98 L
406.312 70.64 L
408.048 69.32 L
409.784 68.66 L
411.52 71.3 L
413.256 71.96 L
414.992 74.6 L
416.728 80.54 L
418.464 79.22 L
420.2 78.56 L
421.936 79.88 L
423.672 79.88 L
425.408 78.56 L
427.144 76.58 L
428.88 78.56 L
430.616 83.84 L
432.352 82.52 L
434.088 81.2 L
435.824 81.2 L
437.56 80.54 L
439.296 79.22 L
441.032 79.22 L
442.768 79.22 L
444.504 82.52 L
446.24 83.84 L
447.976 80.54 L
449.712 75.26 L
451.448 74.6 L
453.184 74.6 L
454.92 77.24 L
456.656 77.9 L
458.392 84.5 L
460.128 95.72 L
461.864 97.7 L
463.6 99.02 L
465.336 102.98 L
467.072 105.62 L
468.808 110.24 L
470.544 110.24 L
472.28 103.64 L
474.016 101.66 L
475.752 99.68 L
477.488 93.74 L
479.224 90.44 L
480.96 92.42 L
482.696 93.74 L
484.432 91.76 L
486.168 96.38 L
487.904 97.04 L
489.64 94.4 L
491.376 89.78 L
493.112 87.8 L
494.848 89.12 L
496.584 89.78 L
498.32 98.36 L
500.056 100.34 L
501.792 99.68 L
503.528 98.36 L
505.264 96.38 L
507 97.04 L
507.043 97.073 L
S
GR
GS
[0.75 0 0 0.75 0 0] CT
0.851 0.325 0.098 RC
1 LJ
0.667 LW
N
72.957 85.299 M
73 85.215 L
74.736 82.05 L
76.472 84.103 L
78.208 82.91 L
79.944 82.58 L
81.68 83.524 L
83.416 90.457 L
85.152 91.268 L
86.888 91.932 L
88.624 93.117 L
90.36 92.294 L
92.096 94.279 L
93.832 95.172 L
95.568 95.357 L
97.304 94.585 L
99.04 97.309 L
100.776 96.26 L
102.512 96.778 L
104.248 97.833 L
105.984 96.381 L
107.72 98.25 L
109.456 96.586 L
111.192 98.294 L
112.928 95.954 L
114.664 95.503 L
116.4 93.266 L
118.136 92.763 L
119.872 91.573 L
121.608 89.576 L
123.344 90.06 L
125.08 92.212 L
126.816 95.621 L
128.552 94.378 L
130.288 94.436 L
132.024 93.339 L
133.76 95.583 L
135.496 95.464 L
137.232 95.448 L
138.968 95.929 L
140.704 96.183 L
142.44 96.992 L
144.176 97.754 L
145.912 98.551 L
147.648 98.237 L
149.384 98.982 L
151.12 98.665 L
152.856 101.006 L
154.592 97.465 L
156.328 95.199 L
158.064 91.819 L
159.8 91.665 L
161.536 92.487 L
163.272 89.453 L
165.008 90.274 L
166.744 91.212 L
168.48 92.753 L
170.216 93.362 L
171.952 95.101 L
173.688 95.341 L
175.424 99.618 L
177.16 98.63 L
178.896 100.32 L
180.632 102.288 L
182.368 102.866 L
184.104 104.211 L
185.84 105.694 L
187.576 108.842 L
189.312 108.671 L
191.048 107.162 L
192.784 107.496 L
194.52 107.525 L
196.256 104.79 L
197.992 102.683 L
199.728 102.539 L
201.464 104.039 L
203.2 102.61 L
204.936 100.968 L
206.672 101.207 L
208.408 104.324 L
210.144 105.269 L
211.88 107.986 L
213.616 111.098 L
215.352 107.741 L
217.088 107.168 L
218.824 108.451 L
220.56 111.073 L
222.296 112.606 L
224.032 114.227 L
225.768 114.986 L
227.504 116.115 L
229.24 118.025 L
230.976 117.285 L
232.712 116.072 L
234.448 114.64 L
236.184 116.272 L
237.92 113.614 L
239.656 112.691 L
241.392 112.83 L
243.128 110.071 L
244.864 107.028 L
246.6 106.723 L
248.336 106.823 L
250.072 110.922 L
251.808 116.513 L
253.544 116.089 L
255.28 115.967 L
257.016 119.195 L
258.752 120.913 L
260.488 125.642 L
262.224 129.5 L
263.96 131.774 L
265.696 134.579 L
267.432 138.949 L
269.168 142.92 L
270.904 144.233 L
272.64 145.784 L
274.376 152.56 L
276.112 153.894 L
277.848 156.315 L
279.584 161.512 L
281.32 154.129 L
283.056 137.736 L
284.792 106.59 L
286.528 107.504 L
288.264 108.332 L
290 109.645 L
291.736 114.166 L
293.472 123.702 L
295.208 127.273 L
296.944 125.684 L
298.68 126.167 L
300.416 126.048 L
302.152 127.86 L
303.888 127.286 L
305.624 126.177 L
307.36 128.356 L
309.096 127.642 L
310.832 128.019 L
312.568 129.317 L
314.304 127.205 L
316.04 128.504 L
317.776 127.248 L
319.512 127.024 L
321.248 126.429 L
322.984 123.732 L
324.72 121.904 L
326.456 116.485 L
328.192 113.901 L
329.928 111.388 L
331.664 108.741 L
333.4 117.303 L
335.136 125.354 L
336.872 128.364 L
338.608 128.807 L
340.344 129.368 L
342.08 129.628 L
343.816 129.843 L
345.552 123.97 L
347.288 115.998 L
349.024 108.418 L
350.76 113.403 L
352.496 114.071 L
354.232 117.434 L
355.968 117.282 L
357.704 116.513 L
359.44 109.691 L
361.176 104.143 L
362.912 98.401 L
364.648 90.543 L
366.384 90.306 L
368.12 90.931 L
369.856 85.393 L
371.592 78.593 L
373.328 70.265 L
375.064 69.961 L
376.8 73.427 L
378.536 66.809 L
380.272 48.624 L
382.008 49.617 L
383.744 47.129 L
385.48 56.95 L
387.216 61.654 L
388.952 61.309 L
390.688 63.867 L
392.424 64.955 L
394.16 66.49 L
395.896 64.152 L
397.632 65.124 L
399.368 65.468 L
401.104 62.492 L
402.84 63.667 L
404.576 71.224 L
406.312 70.727 L
408.048 68.602 L
409.784 68.193 L
411.52 67.528 L
413.256 71.341 L
414.992 72.994 L
416.728 77.696 L
418.464 82.103 L
420.2 76.529 L
421.936 76.976 L
423.672 80.356 L
425.408 80.551 L
427.144 78.159 L
428.88 75.279 L
430.616 79.058 L
432.352 86.968 L
434.088 81.458 L
435.824 80.805 L
437.56 81.312 L
439.296 79.403 L
441.032 78.3 L
442.768 79.497 L
444.504 80.334 L
446.24 82.92 L
447.976 82.742 L
449.712 75.794 L
451.448 72.67 L
453.184 74.783 L
454.92 74.379 L
456.656 80.207 L
458.392 80.783 L
460.128 88.57 L
461.864 100.591 L
463.6 98.161 L
465.336 98.423 L
467.072 103.924 L
468.808 106.388 L
470.544 112.093 L
472.28 108.731 L
474.016 99.465 L
475.752 99.967 L
477.488 98.299 L
479.224 90.282 L
480.96 88.162 L
482.696 93.181 L
484.432 94.019 L
486.168 91.71 L
487.904 96.649 L
489.64 94.365 L
491.376 89.361 L
493.112 86.641 L
494.848 86.999 L
496.584 88.878 L
498.32 91.06 L
500.056 106.742 L
501.792 102.691 L
503.528 98.665 L
505.264 98.51 L
507 96.095 L
507.043 96.164 L
S
GR
GS
[0.75 0 0 0.75 0 0] CT
1 GC
N
73 72 M
73 35 L
197 35 L
197 72 L
cp
f
GR
GS
[0.75 0 0 0.75 82.5 33.85274] CT
/Helvetica 12 F
GS
[1 0 0 1 0 0] CT
0 5 moveto 
1 -1 scale
(Measured Data) t 
GR
GR
GS
[0.75 0 0 0.75 0 0] CT
0 0.447 0.741 RC
1 LJ
0.667 LW
N
77 45.137 M
107 45.137 L
S
GR
GS
[0.75 0 0 0.75 82.5 46.39726] CT
/Helvetica 12 F
GS
[1 0 0 1 0 0] CT
0 5 moveto 
1 -1 scale
(1-step) t 
GR
GR
GS
[0.75 0 0 0.75 0 0] CT
0.851 0.325 0.098 RC
1 LJ
0.667 LW
N
77 61.863 M
107 61.863 L
S
GR
GS
[0.75 0 0 0.75 0 0] CT
0.149 GC
10.0 ML
0.667 LW
N
73 72 M
73 35 L
197 35 L
197 72 L
cp
S
GR
GS
[0.75 0 0 0.75 0 0] CT
1 GC
N
73 366 M
507 366 L
507 234 L
73 234 L
cp
f
GR
GS
[0.75 0 0 0.75 0 0] CT
0.149 GC
2 setlinecap
1 LJ
0.667 LW
N
73 366 M
507 366 L
S
GR
GS
[0.75 0 0 0.75 0 0] CT
0.149 GC
2 setlinecap
1 LJ
0.667 LW
N
73 234 M
507 234 L
S
GR
GS
[0.75 0 0 0.75 0 0] CT
0.149 GC
2 setlinecap
1 LJ
0.667 LW
N
73 366 M
73 361.66 L
S
GR
GS
[0.75 0 0 0.75 0 0] CT
0.149 GC
2 setlinecap
1 LJ
0.667 LW
N
159.8 366 M
159.8 361.66 L
S
GR
GS
[0.75 0 0 0.75 0 0] CT
0.149 GC
2 setlinecap
1 LJ
0.667 LW
N
246.6 366 M
246.6 361.66 L
S
GR
GS
[0.75 0 0 0.75 0 0] CT
0.149 GC
2 setlinecap
1 LJ
0.667 LW
N
333.4 366 M
333.4 361.66 L
S
GR
GS
[0.75 0 0 0.75 0 0] CT
0.149 GC
2 setlinecap
1 LJ
0.667 LW
N
420.2 366 M
420.2 361.66 L
S
GR
GS
[0.75 0 0 0.75 0 0] CT
0.149 GC
2 setlinecap
1 LJ
0.667 LW
N
507 366 M
507 361.66 L
S
GR
GS
[0.75 0 0 0.75 0 0] CT
0.149 GC
2 setlinecap
1 LJ
0.667 LW
N
73 234 M
73 238.34 L
S
GR
GS
[0.75 0 0 0.75 0 0] CT
0.149 GC
2 setlinecap
1 LJ
0.667 LW
N
159.8 234 M
159.8 238.34 L
S
GR
GS
[0.75 0 0 0.75 0 0] CT
0.149 GC
2 setlinecap
1 LJ
0.667 LW
N
246.6 234 M
246.6 238.34 L
S
GR
GS
[0.75 0 0 0.75 0 0] CT
0.149 GC
2 setlinecap
1 LJ
0.667 LW
N
333.4 234 M
333.4 238.34 L
S
GR
GS
[0.75 0 0 0.75 0 0] CT
0.149 GC
2 setlinecap
1 LJ
0.667 LW
N
420.2 234 M
420.2 238.34 L
S
GR
GS
[0.75 0 0 0.75 0 0] CT
0.149 GC
2 setlinecap
1 LJ
0.667 LW
N
507 234 M
507 238.34 L
S
GR
GS
[0.75 0 0 0.75 54.75 278.50001] CT
0.149 GC
/Helvetica 13.333 F
GS
[1 0 0 1 0 0] CT
-11 14 moveto 
1 -1 scale
(750) t 
GR
GR
GS
[0.75 0 0 0.75 119.85 278.50001] CT
0.149 GC
/Helvetica 13.333 F
GS
[1 0 0 1 0 0] CT
-11 14 moveto 
1 -1 scale
(800) t 
GR
GR
GS
[0.75 0 0 0.75 184.95 278.50001] CT
0.149 GC
/Helvetica 13.333 F
GS
[1 0 0 1 0 0] CT
-11 14 moveto 
1 -1 scale
(850) t 
GR
GR
GS
[0.75 0 0 0.75 250.05 278.50001] CT
0.149 GC
/Helvetica 13.333 F
GS
[1 0 0 1 0 0] CT
-11 14 moveto 
1 -1 scale
(900) t 
GR
GR
GS
[0.75 0 0 0.75 315.15001 278.50001] CT
0.149 GC
/Helvetica 13.333 F
GS
[1 0 0 1 0 0] CT
-11 14 moveto 
1 -1 scale
(950) t 
GR
GR
GS
[0.75 0 0 0.75 380.25 278.50001] CT
0.149 GC
/Helvetica 13.333 F
GS
[1 0 0 1 0 0] CT
-14.5 14 moveto 
1 -1 scale
(1000) t 
GR
GR
GS
[0.75 0 0 0.75 217.50016 292.24999] CT
0.149 GC
/Helvetica 14.667 F
GS
[1 0 0 1 0 0] CT
-13 16 moveto 
1 -1 scale
(t / h) t 
GR
GR
GS
[0.75 0 0 0.75 0 0] CT
0.149 GC
2 setlinecap
1 LJ
0.667 LW
N
73 366 M
73 234 L
S
GR
GS
[0.75 0 0 0.75 0 0] CT
0.149 GC
2 setlinecap
1 LJ
0.667 LW
N
507 366 M
507 234 L
S
GR
GS
[0.75 0 0 0.75 0 0] CT
0.149 GC
2 setlinecap
1 LJ
0.667 LW
N
73 352.8 M
77.34 352.8 L
S
GR
GS
[0.75 0 0 0.75 0 0] CT
0.149 GC
2 setlinecap
1 LJ
0.667 LW
N
73 319.8 M
77.34 319.8 L
S
GR
GS
[0.75 0 0 0.75 0 0] CT
0.149 GC
2 setlinecap
1 LJ
0.667 LW
N
73 286.8 M
77.34 286.8 L
S
GR
GS
[0.75 0 0 0.75 0 0] CT
0.149 GC
2 setlinecap
1 LJ
0.667 LW
N
73 253.8 M
77.34 253.8 L
S
GR
GS
[0.75 0 0 0.75 0 0] CT
0.149 GC
2 setlinecap
1 LJ
0.667 LW
N
507 352.8 M
502.66 352.8 L
S
GR
GS
[0.75 0 0 0.75 0 0] CT
0.149 GC
2 setlinecap
1 LJ
0.667 LW
N
507 319.8 M
502.66 319.8 L
S
GR
GS
[0.75 0 0 0.75 0 0] CT
0.149 GC
2 setlinecap
1 LJ
0.667 LW
N
507 286.8 M
502.66 286.8 L
S
GR
GS
[0.75 0 0 0.75 0 0] CT
0.149 GC
2 setlinecap
1 LJ
0.667 LW
N
507 253.8 M
502.66 253.8 L
S
GR
GS
[0.75 0 0 0.75 50.74999 264.59999] CT
0.149 GC
/Helvetica 13.333 F
GS
[1 0 0 1 0 0] CT
-12 5.5 moveto 
1 -1 scale
(-5) t 
GR
GR
GS
[0.75 0 0 0.75 50.74999 239.84999] CT
0.149 GC
/Helvetica 13.333 F
GS
[1 0 0 1 0 0] CT
-8 5.5 moveto 
1 -1 scale
(0) t 
GR
GR
GS
[0.75 0 0 0.75 50.74999 215.09999] CT
0.149 GC
/Helvetica 13.333 F
GS
[1 0 0 1 0 0] CT
-8 5.5 moveto 
1 -1 scale
(5) t 
GR
GR
GS
[0.75 0 0 0.75 50.74999 190.35] CT
0.149 GC
/Helvetica 13.333 F
GS
[1 0 0 1 0 0] CT
-15 5.5 moveto 
1 -1 scale
(10) t 
GR
GR
GS
[0 -0.75 0.75 0 33.75 239.25] CT
0.149 GC
/Helvetica 14.667 F
GS
[1 0 0 1 0 0] CT
0 0 moveto 
1 -1 scale
(T / ) t 
GR
GR
GS
[0 -0.75 0.75 0 28.5 222.75] CT
0.149 GC
/Courier 10.667 F
GS
[1 0 0 1 0 0] CT
0 0 moveto 
1 -1 scale
(\260) t 
GR
GR
GS
[0 -0.75 0.75 0 33.75 219] CT
0.149 GC
/Helvetica 14.667 F
GS
[1 0 0 1 0 0] CT
0 0 moveto 
1 -1 scale
(C) t 
GR
GR
GS
[0.75 0 0 0.75 217.50023 173.4375] CT
/Helvetica-Bold 14.667 F
GS
[1 0 0 1 0 0] CT
-74 -4 moveto 
1 -1 scale
(Test set: Predictions) t 
GR
GR
GS
[0.75 0 0 0.75 0 0] CT
0 0.447 0.741 RC
1 LJ
0.667 LW
N
72.957 286.85 M
73 286.8 L
74.736 285.48 L
76.472 283.5 L
78.208 282.84 L
79.944 282.18 L
81.68 284.82 L
83.416 286.8 L
85.152 288.78 L
86.888 290.76 L
88.624 291.42 L
90.36 292.74 L
92.096 293.4 L
93.832 294.06 L
95.568 294.06 L
97.304 295.38 L
99.04 295.38 L
100.776 295.38 L
102.512 296.04 L
104.248 296.04 L
105.984 296.7 L
107.72 296.7 L
109.456 297.36 L
111.192 297.36 L
112.928 297.36 L
114.664 296.04 L
116.4 294.06 L
118.136 292.08 L
119.872 290.1 L
121.608 289.44 L
123.344 289.44 L
125.08 291.42 L
126.816 292.08 L
128.552 292.74 L
130.288 292.74 L
132.024 294.06 L
133.76 294.06 L
135.496 294.06 L
137.232 294.72 L
138.968 294.72 L
140.704 295.38 L
142.44 296.04 L
144.176 296.7 L
145.912 297.36 L
147.648 297.36 L
149.384 298.02 L
151.12 299.34 L
152.856 298.68 L
154.592 297.36 L
156.328 294.72 L
158.064 292.74 L
159.8 292.08 L
161.536 290.1 L
163.272 289.44 L
165.008 288.78 L
166.744 289.44 L
168.48 290.76 L
170.216 292.74 L
171.952 294.06 L
173.688 297.36 L
175.424 297.36 L
177.16 298.68 L
178.896 300.66 L
180.632 301.32 L
182.368 302.64 L
184.104 303.96 L
185.84 306.6 L
187.576 307.92 L
189.312 306.6 L
191.048 307.26 L
192.784 307.26 L
194.52 306.6 L
196.256 305.28 L
197.992 304.62 L
199.728 304.62 L
201.464 303.3 L
203.2 301.98 L
204.936 301.32 L
206.672 301.98 L
208.408 302.64 L
210.144 305.28 L
211.88 308.58 L
213.616 307.92 L
215.352 307.26 L
217.088 307.26 L
218.824 309.24 L
220.56 311.22 L
222.296 312.54 L
224.032 313.53 L
225.768 314.52 L
227.504 316.5 L
229.24 317.16 L
230.976 315.84 L
232.712 315.18 L
234.448 315.84 L
236.184 315.18 L
237.92 314.52 L
239.656 314.52 L
241.392 311.88 L
243.128 308.58 L
244.864 307.26 L
246.6 306.6 L
248.336 307.92 L
250.072 311.88 L
251.808 313.86 L
253.544 315.18 L
255.28 317.82 L
257.016 319.8 L
258.752 323.1 L
260.488 327.06 L
262.224 330.36 L
263.96 333 L
265.696 336.96 L
267.432 340.92 L
269.168 343.56 L
270.904 346.2 L
272.64 350.82 L
274.376 354.12 L
276.112 356.76 L
277.848 362.04 L
279.584 359.4 L
281.32 347.52 L
283.056 321.12 L
284.792 311.88 L
286.528 309.24 L
288.264 308.58 L
290 310.56 L
291.736 317.82 L
293.472 323.1 L
295.208 324.42 L
296.944 325.08 L
298.68 325.08 L
300.416 325.74 L
302.152 325.74 L
303.888 325.08 L
305.624 325.74 L
307.36 325.74 L
309.096 325.74 L
310.832 326.4 L
312.568 325.74 L
314.304 325.74 L
316.04 325.08 L
317.776 325.08 L
319.512 327.06 L
321.248 328.38 L
322.984 327.06 L
324.72 320.46 L
326.456 315.84 L
328.192 312.54 L
329.928 308.58 L
331.664 311.88 L
333.4 319.14 L
335.136 324.42 L
336.872 327.06 L
338.608 328.38 L
340.344 329.04 L
342.08 329.04 L
343.816 325.08 L
345.552 318.48 L
347.288 310.56 L
349.024 311.22 L
350.76 311.88 L
352.496 314.52 L
354.232 315.84 L
355.968 315.18 L
357.704 310.56 L
359.44 304.62 L
361.176 300 L
362.912 294.06 L
364.648 292.74 L
366.384 290.76 L
368.12 286.14 L
369.856 279.54 L
371.592 270.3 L
373.328 265.68 L
375.064 267 L
376.8 263.7 L
378.536 250.5 L
380.272 246.54 L
382.008 243.9 L
383.744 249.84 L
385.48 255.78 L
387.216 257.1 L
388.952 258.42 L
390.688 259.74 L
392.424 261.06 L
394.16 260.4 L
395.896 261.72 L
397.632 262.38 L
399.368 261.06 L
401.104 261.06 L
402.84 267 L
404.576 268.98 L
406.312 269.64 L
408.048 268.32 L
409.784 267.66 L
411.52 270.3 L
413.256 270.96 L
414.992 273.6 L
416.728 279.54 L
418.464 278.22 L
420.2 277.56 L
421.936 278.88 L
423.672 278.88 L
425.408 277.56 L
427.144 275.58 L
428.88 277.56 L
430.616 282.84 L
432.352 281.52 L
434.088 280.2 L
435.824 280.2 L
437.56 279.54 L
439.296 278.22 L
441.032 278.22 L
442.768 278.22 L
444.504 281.52 L
446.24 282.84 L
447.976 279.54 L
449.712 274.26 L
451.448 273.6 L
453.184 273.6 L
454.92 276.24 L
456.656 276.9 L
458.392 283.5 L
460.128 294.72 L
461.864 296.7 L
463.6 298.02 L
465.336 301.98 L
467.072 304.62 L
468.808 309.24 L
470.544 309.24 L
472.28 302.64 L
474.016 300.66 L
475.752 298.68 L
477.488 292.74 L
479.224 289.44 L
480.96 291.42 L
482.696 292.74 L
484.432 290.76 L
486.168 295.38 L
487.904 296.04 L
489.64 293.4 L
491.376 288.78 L
493.112 286.8 L
494.848 288.12 L
496.584 288.78 L
498.32 297.36 L
500.056 299.34 L
501.792 298.68 L
503.528 297.36 L
505.264 295.38 L
507 296.04 L
507.043 296.073 L
S
GR
GS
[0.75 0 0 0.75 0 0] CT
0.851 0.325 0.098 RC
1 LJ
0.667 LW
N
72.957 297.889 M
73 297.696 L
74.736 287.35 L
76.472 280.925 L
78.208 275.363 L
79.944 272.26 L
81.68 269.812 L
83.416 272.521 L
85.152 279.358 L
86.888 286.316 L
88.624 293.207 L
90.36 294.112 L
92.096 294.994 L
93.832 295.84 L
95.568 297.956 L
97.304 294.593 L
99.04 293.213 L
100.776 293.18 L
102.512 293.126 L
104.248 295.457 L
105.984 295.353 L
107.72 295.399 L
109.456 294.175 L
111.192 295.151 L
112.928 291.515 L
114.664 287.728 L
116.4 283.331 L
118.136 279.506 L
119.872 279.449 L
121.608 278.286 L
123.344 280.242 L
125.08 282.625 L
126.816 288.754 L
128.552 293.193 L
130.288 296.639 L
132.024 297.095 L
133.76 296.361 L
135.496 297.337 L
137.232 297.923 L
138.968 297.894 L
140.704 295.666 L
142.44 295.579 L
144.176 295.635 L
145.912 298.236 L
147.648 297.622 L
149.384 297.821 L
151.12 297.718 L
152.856 297.382 L
154.592 295.727 L
156.328 292.411 L
158.064 288.215 L
159.8 285.092 L
161.536 283.844 L
163.272 282.919 L
165.008 284.528 L
166.744 285.207 L
168.48 289.349 L
170.216 292.485 L
171.952 295.96 L
173.688 297.506 L
175.424 295.743 L
177.16 296.91 L
178.896 296.556 L
180.632 295.756 L
182.368 295.369 L
184.104 296.374 L
185.84 297.127 L
187.576 300.777 L
189.312 299.293 L
191.048 300.881 L
192.784 301.622 L
194.52 300.875 L
196.256 299.057 L
197.992 295.821 L
199.728 293.267 L
201.464 290.022 L
203.2 287.065 L
204.936 286.685 L
206.672 286.652 L
208.408 288.149 L
210.144 292.404 L
211.88 297.597 L
213.616 301.969 L
215.352 302.288 L
217.088 302.175 L
218.824 303.651 L
220.56 305.444 L
222.296 304.44 L
224.032 305.716 L
225.768 307.705 L
227.504 306.278 L
229.24 307.312 L
230.976 307.931 L
232.712 309.693 L
234.448 309.796 L
236.184 309.508 L
237.92 307.232 L
239.656 304.306 L
241.392 301.677 L
243.128 298.829 L
244.864 296.584 L
246.6 295.516 L
248.336 297.158 L
250.072 298.622 L
251.808 303.554 L
253.544 308.515 L
255.28 309.037 L
257.016 308.308 L
258.752 309.101 L
260.488 310.271 L
262.224 312.706 L
263.96 314.355 L
265.696 312.846 L
267.432 313.374 L
269.168 316.789 L
270.904 318.317 L
272.64 320.002 L
274.376 321.453 L
276.112 321.546 L
277.848 321.839 L
279.584 321.934 L
281.32 320.164 L
283.056 316.099 L
284.792 314.355 L
286.528 316.597 L
288.264 315.811 L
290 317.604 L
291.736 323.873 L
293.472 323.111 L
295.208 318.549 L
296.944 304.604 L
298.68 312.863 L
300.416 316.867 L
302.152 319.863 L
303.888 323.403 L
305.624 329.071 L
307.36 330.867 L
309.096 330.457 L
310.832 332.656 L
312.568 334.708 L
314.304 336.775 L
316.04 337.535 L
317.776 338.229 L
319.512 339.975 L
321.248 335.644 L
322.984 326.694 L
324.72 316.52 L
326.456 307.881 L
328.192 304.32 L
329.928 300.494 L
331.664 300.446 L
333.4 305.368 L
335.136 312.34 L
336.872 319.284 L
338.608 319.891 L
340.344 320.571 L
342.08 320.113 L
343.816 318.692 L
345.552 323.169 L
347.288 325.526 L
349.024 325.334 L
350.76 324.893 L
352.496 325.487 L
354.232 326.023 L
355.968 325.509 L
357.704 321.585 L
359.44 317.358 L
361.176 314.376 L
362.912 317.825 L
364.648 314.205 L
366.384 309.962 L
368.12 305.506 L
369.856 302.078 L
371.592 296.481 L
373.328 294.798 L
375.064 297.235 L
376.8 300.108 L
378.536 308.225 L
380.272 312.736 L
382.008 310.989 L
383.744 307.41 L
385.48 301.121 L
387.216 297.79 L
388.952 296.467 L
390.688 290.297 L
392.424 279.405 L
394.16 283.96 L
395.896 284.259 L
397.632 290.93 L
399.368 292.276 L
401.104 289.083 L
402.84 287.632 L
404.576 283.941 L
406.312 279.954 L
408.048 271.767 L
409.784 268.375 L
411.52 264.95 L
413.256 259.912 L
414.992 260.127 L
416.728 267.038 L
418.464 266.235 L
420.2 265.139 L
421.936 264.737 L
423.672 265.151 L
425.408 270.11 L
427.144 271.883 L
428.88 273.898 L
430.616 276.363 L
432.352 274.098 L
434.088 276.53 L
435.824 279.874 L
437.56 279.666 L
439.296 277.158 L
441.032 275.305 L
442.768 278.732 L
444.504 284.257 L
446.24 278.812 L
447.976 276.678 L
449.712 273.234 L
451.448 270.706 L
453.184 270.326 L
454.92 271.065 L
456.656 272.555 L
458.392 278.347 L
460.128 281.912 L
461.864 280.944 L
463.6 281.556 L
465.336 283.634 L
467.072 283.378 L
468.808 286.65 L
470.544 285.328 L
472.28 289.295 L
474.016 296.02 L
475.752 292.372 L
477.488 292.896 L
479.224 296.593 L
480.96 296.563 L
482.696 298.625 L
484.432 295.091 L
486.168 290.273 L
487.904 290.8 L
489.64 286.884 L
491.376 277.449 L
493.112 275.144 L
494.848 278.738 L
496.584 278.356 L
498.32 277.267 L
500.056 287.384 L
501.792 292.476 L
503.528 294.61 L
505.264 297.057 L
507 299.82 L
507.043 299.921 L
S
GR
GS
[0.75 0 0 0.75 0 0] CT
1 GC
N
73 270 M
73 233 L
197 233 L
197 270 L
cp
f
GR
GS
[0.75 0 0 0.75 82.5 182.35275] CT
/Helvetica 12 F
GS
[1 0 0 1 0 0] CT
0 5 moveto 
1 -1 scale
(Measured Data) t 
GR
GR
GS
[0.75 0 0 0.75 0 0] CT
0 0.447 0.741 RC
1 LJ
0.667 LW
N
77 243.137 M
107 243.137 L
S
GR
GS
[0.75 0 0 0.75 82.5 194.89725] CT
/Helvetica 12 F
GS
[1 0 0 1 0 0] CT
0 5 moveto 
1 -1 scale
(8-step) t 
GR
GR
GS
[0.75 0 0 0.75 0 0] CT
0.851 0.325 0.098 RC
1 LJ
0.667 LW
N
77 259.863 M
107 259.863 L
S
GR
GS
[0.75 0 0 0.75 0 0] CT
0.149 GC
10.0 ML
0.667 LW
N
73 270 M
73 233 L
197 233 L
197 270 L
cp
S
GR
%%Trailer
%%Pages: 1
%%EOF
