%!PS-Adobe-3.0 EPSF-3.0
%%Creator: (MATLAB, The Mathworks, Inc. Version 9.2.0.556344 \(R2017a\). Operating System: Linux)
%%Title: /home/oxac/Git/TSAProj/Report/Img/ATestBench.eps
%%CreationDate: 2018-01-11T21:09:16
%%Pages: (atend)
%%BoundingBox: 0 0 426 315
%%LanguageLevel: 3
%%EndComments
%%BeginProlog
%%BeginResource: procset (Apache XML Graphics Std ProcSet) 1.2 0
%%Version: 1.2 0
%%Copyright: (Copyright 2001-2003,2010 The Apache Software Foundation. License terms: http://www.apache.org/licenses/LICENSE-2.0)
/bd{bind def}bind def
/ld{load def}bd
/GR/grestore ld
/M/moveto ld
/LJ/setlinejoin ld
/C/curveto ld
/f/fill ld
/LW/setlinewidth ld
/GC/setgray ld
/t/show ld
/N/newpath ld
/CT/concat ld
/cp/closepath ld
/S/stroke ld
/L/lineto ld
/CC/setcmykcolor ld
/A/ashow ld
/GS/gsave ld
/RC/setrgbcolor ld
/RM/rmoveto ld
/ML/setmiterlimit ld
/re {4 2 roll M
1 index 0 rlineto
0 exch rlineto
neg 0 rlineto
cp } bd
/_ctm matrix def
/_tm matrix def
/BT { _ctm currentmatrix pop matrix _tm copy pop 0 0 moveto } bd
/ET { _ctm setmatrix } bd
/iTm { _ctm setmatrix _tm concat } bd
/Tm { _tm astore pop iTm 0 0 moveto } bd
/ux 0.0 def
/uy 0.0 def
/F {
  /Tp exch def
  /Tf exch def
  Tf findfont Tp scalefont setfont
  /cf Tf def  /cs Tp def
} bd
/ULS {currentpoint /uy exch def /ux exch def} bd
/ULE {
  /Tcx currentpoint pop def
  gsave
  newpath
  cf findfont cs scalefont dup
  /FontMatrix get 0 get /Ts exch def /FontInfo get dup
  /UnderlinePosition get Ts mul /To exch def
  /UnderlineThickness get Ts mul /Tt exch def
  ux uy To add moveto  Tcx uy To add lineto
  Tt setlinewidth stroke
  grestore
} bd
/OLE {
  /Tcx currentpoint pop def
  gsave
  newpath
  cf findfont cs scalefont dup
  /FontMatrix get 0 get /Ts exch def /FontInfo get dup
  /UnderlinePosition get Ts mul /To exch def
  /UnderlineThickness get Ts mul /Tt exch def
  ux uy To add cs add moveto Tcx uy To add cs add lineto
  Tt setlinewidth stroke
  grestore
} bd
/SOE {
  /Tcx currentpoint pop def
  gsave
  newpath
  cf findfont cs scalefont dup
  /FontMatrix get 0 get /Ts exch def /FontInfo get dup
  /UnderlinePosition get Ts mul /To exch def
  /UnderlineThickness get Ts mul /Tt exch def
  ux uy To add cs 10 mul 26 idiv add moveto Tcx uy To add cs 10 mul 26 idiv add lineto
  Tt setlinewidth stroke
  grestore
} bd
/QT {
/Y22 exch store
/X22 exch store
/Y21 exch store
/X21 exch store
currentpoint
/Y21 load 2 mul add 3 div exch
/X21 load 2 mul add 3 div exch
/X21 load 2 mul /X22 load add 3 div
/Y21 load 2 mul /Y22 load add 3 div
/X22 load /Y22 load curveto
} bd
/SSPD {
dup length /d exch dict def
{
/v exch def
/k exch def
currentpagedevice k known {
/cpdv currentpagedevice k get def
v cpdv ne {
/upd false def
/nullv v type /nulltype eq def
/nullcpdv cpdv type /nulltype eq def
nullv nullcpdv or
{
/upd true def
} {
/sametype v type cpdv type eq def
sametype {
v type /arraytype eq {
/vlen v length def
/cpdvlen cpdv length def
vlen cpdvlen eq {
0 1 vlen 1 sub {
/i exch def
/obj v i get def
/cpdobj cpdv i get def
obj cpdobj ne {
/upd true def
exit
} if
} for
} {
/upd true def
} ifelse
} {
v type /dicttype eq {
v {
/dv exch def
/dk exch def
/cpddv cpdv dk get def
dv cpddv ne {
/upd true def
exit
} if
} forall
} {
/upd true def
} ifelse
} ifelse
} if
} ifelse
upd true eq {
d k v put
} if
} if
} if
} forall
d length 0 gt {
d setpagedevice
} if
} bd
/RE { % /NewFontName [NewEncodingArray] /FontName RE -
  findfont dup length dict begin
  {
    1 index /FID ne
    {def} {pop pop} ifelse
  } forall
  /Encoding exch def
  /FontName 1 index def
  currentdict definefont pop
  end
} bind def
%%EndResource
%%BeginResource: procset (Apache XML Graphics EPS ProcSet) 1.0 0
%%Version: 1.0 0
%%Copyright: (Copyright 2002-2003 The Apache Software Foundation. License terms: http://www.apache.org/licenses/LICENSE-2.0)
/BeginEPSF { %def
/b4_Inc_state save def         % Save state for cleanup
/dict_count countdictstack def % Count objects on dict stack
/op_count count 1 sub def      % Count objects on operand stack
userdict begin                 % Push userdict on dict stack
/showpage { } def              % Redefine showpage, { } = null proc
0 setgray 0 setlinecap         % Prepare graphics state
1 setlinewidth 0 setlinejoin
10 setmiterlimit [ ] 0 setdash newpath
/languagelevel where           % If level not equal to 1 then
{pop languagelevel             % set strokeadjust and
1 ne                           % overprint to their defaults.
{false setstrokeadjust false setoverprint
} if
} if
} bd
/EndEPSF { %def
count op_count sub {pop} repeat            % Clean up stacks
countdictstack dict_count sub {end} repeat
b4_Inc_state restore
} bd
%%EndResource
%FOPBeginFontDict
%%IncludeResource: font Courier-Bold
%%IncludeResource: font Helvetica
%%IncludeResource: font Courier-BoldOblique
%%IncludeResource: font Courier-Oblique
%%IncludeResource: font Times-Roman
%%IncludeResource: font Helvetica-BoldOblique
%%IncludeResource: font Helvetica-Bold
%%IncludeResource: font Helvetica-Oblique
%%IncludeResource: font Times-BoldItalic
%%IncludeResource: font Courier
%%IncludeResource: font Times-Italic
%%IncludeResource: font Times-Bold
%%IncludeResource: font Symbol
%%IncludeResource: font ZapfDingbats
%FOPEndFontDict
%%BeginResource: encoding WinAnsiEncoding
/WinAnsiEncoding [
/.notdef /.notdef /.notdef /.notdef /.notdef
/.notdef /.notdef /.notdef /.notdef /.notdef
/.notdef /.notdef /.notdef /.notdef /.notdef
/.notdef /.notdef /.notdef /.notdef /.notdef
/.notdef /.notdef /.notdef /.notdef /.notdef
/.notdef /.notdef /.notdef /.notdef /.notdef
/.notdef /.notdef /space /exclam /quotedbl
/numbersign /dollar /percent /ampersand /quotesingle
/parenleft /parenright /asterisk /plus /comma
/hyphen /period /slash /zero /one
/two /three /four /five /six
/seven /eight /nine /colon /semicolon
/less /equal /greater /question /at
/A /B /C /D /E
/F /G /H /I /J
/K /L /M /N /O
/P /Q /R /S /T
/U /V /W /X /Y
/Z /bracketleft /backslash /bracketright /asciicircum
/underscore /quoteleft /a /b /c
/d /e /f /g /h
/i /j /k /l /m
/n /o /p /q /r
/s /t /u /v /w
/x /y /z /braceleft /bar
/braceright /asciitilde /bullet /Euro /bullet
/quotesinglbase /florin /quotedblbase /ellipsis /dagger
/daggerdbl /circumflex /perthousand /Scaron /guilsinglleft
/OE /bullet /Zcaron /bullet /bullet
/quoteleft /quoteright /quotedblleft /quotedblright /bullet
/endash /emdash /asciitilde /trademark /scaron
/guilsinglright /oe /bullet /zcaron /Ydieresis
/space /exclamdown /cent /sterling /currency
/yen /brokenbar /section /dieresis /copyright
/ordfeminine /guillemotleft /logicalnot /sfthyphen /registered
/macron /degree /plusminus /twosuperior /threesuperior
/acute /mu /paragraph /middot /cedilla
/onesuperior /ordmasculine /guillemotright /onequarter /onehalf
/threequarters /questiondown /Agrave /Aacute /Acircumflex
/Atilde /Adieresis /Aring /AE /Ccedilla
/Egrave /Eacute /Ecircumflex /Edieresis /Igrave
/Iacute /Icircumflex /Idieresis /Eth /Ntilde
/Ograve /Oacute /Ocircumflex /Otilde /Odieresis
/multiply /Oslash /Ugrave /Uacute /Ucircumflex
/Udieresis /Yacute /Thorn /germandbls /agrave
/aacute /acircumflex /atilde /adieresis /aring
/ae /ccedilla /egrave /eacute /ecircumflex
/edieresis /igrave /iacute /icircumflex /idieresis
/eth /ntilde /ograve /oacute /ocircumflex
/otilde /odieresis /divide /oslash /ugrave
/uacute /ucircumflex /udieresis /yacute /thorn
/ydieresis
] def
%%EndResource
%FOPBeginFontReencode
/Courier-Bold findfont
dup length dict begin
  {1 index /FID ne {def} {pop pop} ifelse} forall
  /Encoding WinAnsiEncoding def
  currentdict
end
/Courier-Bold exch definefont pop
/Helvetica findfont
dup length dict begin
  {1 index /FID ne {def} {pop pop} ifelse} forall
  /Encoding WinAnsiEncoding def
  currentdict
end
/Helvetica exch definefont pop
/Courier-BoldOblique findfont
dup length dict begin
  {1 index /FID ne {def} {pop pop} ifelse} forall
  /Encoding WinAnsiEncoding def
  currentdict
end
/Courier-BoldOblique exch definefont pop
/Courier-Oblique findfont
dup length dict begin
  {1 index /FID ne {def} {pop pop} ifelse} forall
  /Encoding WinAnsiEncoding def
  currentdict
end
/Courier-Oblique exch definefont pop
/Times-Roman findfont
dup length dict begin
  {1 index /FID ne {def} {pop pop} ifelse} forall
  /Encoding WinAnsiEncoding def
  currentdict
end
/Times-Roman exch definefont pop
/Helvetica-BoldOblique findfont
dup length dict begin
  {1 index /FID ne {def} {pop pop} ifelse} forall
  /Encoding WinAnsiEncoding def
  currentdict
end
/Helvetica-BoldOblique exch definefont pop
/Helvetica-Bold findfont
dup length dict begin
  {1 index /FID ne {def} {pop pop} ifelse} forall
  /Encoding WinAnsiEncoding def
  currentdict
end
/Helvetica-Bold exch definefont pop
/Helvetica-Oblique findfont
dup length dict begin
  {1 index /FID ne {def} {pop pop} ifelse} forall
  /Encoding WinAnsiEncoding def
  currentdict
end
/Helvetica-Oblique exch definefont pop
/Times-BoldItalic findfont
dup length dict begin
  {1 index /FID ne {def} {pop pop} ifelse} forall
  /Encoding WinAnsiEncoding def
  currentdict
end
/Times-BoldItalic exch definefont pop
/Courier findfont
dup length dict begin
  {1 index /FID ne {def} {pop pop} ifelse} forall
  /Encoding WinAnsiEncoding def
  currentdict
end
/Courier exch definefont pop
/Times-Italic findfont
dup length dict begin
  {1 index /FID ne {def} {pop pop} ifelse} forall
  /Encoding WinAnsiEncoding def
  currentdict
end
/Times-Italic exch definefont pop
/Times-Bold findfont
dup length dict begin
  {1 index /FID ne {def} {pop pop} ifelse} forall
  /Encoding WinAnsiEncoding def
  currentdict
end
/Times-Bold exch definefont pop
%FOPEndFontReencode
%%EndProlog
%%Page: 1 1
%%PageBoundingBox: 0 0 426 315
%%BeginPageSetup
[1 0 0 -1 0 315] CT
%%EndPageSetup
GS
[0.58537 0 0 0.58537 0 0.07315] CT
1 GC
N
0 0 727 538 re
f
GR
GS
[0.58537 0 0 0.58537 0 0.07315] CT
1 GC
N
0 0 727 538 re
f
GR
GS
[0.58537 0 0 0.58537 0 0.07315] CT
1 GC
N
95 217 M
658 217 L
658 43 L
95 43 L
cp
f
GR
GS
[0.58537 0 0 0.58537 0 0.07315] CT
0.149 GC
2 setlinecap
1 LJ
0.854 LW
N
95 217 M
658 217 L
S
GR
GS
[0.58537 0 0 0.58537 0 0.07315] CT
0.149 GC
2 setlinecap
1 LJ
0.854 LW
N
95 43 M
658 43 L
S
GR
GS
[0.58537 0 0 0.58537 0 0.07315] CT
0.149 GC
2 setlinecap
1 LJ
0.854 LW
N
95 217 M
95 211.37 L
S
GR
GS
[0.58537 0 0 0.58537 0 0.07315] CT
0.149 GC
2 setlinecap
1 LJ
0.854 LW
N
207.6 217 M
207.6 211.37 L
S
GR
GS
[0.58537 0 0 0.58537 0 0.07315] CT
0.149 GC
2 setlinecap
1 LJ
0.854 LW
N
320.2 217 M
320.2 211.37 L
S
GR
GS
[0.58537 0 0 0.58537 0 0.07315] CT
0.149 GC
2 setlinecap
1 LJ
0.854 LW
N
432.8 217 M
432.8 211.37 L
S
GR
GS
[0.58537 0 0 0.58537 0 0.07315] CT
0.149 GC
2 setlinecap
1 LJ
0.854 LW
N
545.4 217 M
545.4 211.37 L
S
GR
GS
[0.58537 0 0 0.58537 0 0.07315] CT
0.149 GC
2 setlinecap
1 LJ
0.854 LW
N
658 217 M
658 211.37 L
S
GR
GS
[0.58537 0 0 0.58537 0 0.07315] CT
0.149 GC
2 setlinecap
1 LJ
0.854 LW
N
95 43 M
95 48.63 L
S
GR
GS
[0.58537 0 0 0.58537 0 0.07315] CT
0.149 GC
2 setlinecap
1 LJ
0.854 LW
N
207.6 43 M
207.6 48.63 L
S
GR
GS
[0.58537 0 0 0.58537 0 0.07315] CT
0.149 GC
2 setlinecap
1 LJ
0.854 LW
N
320.2 43 M
320.2 48.63 L
S
GR
GS
[0.58537 0 0 0.58537 0 0.07315] CT
0.149 GC
2 setlinecap
1 LJ
0.854 LW
N
432.8 43 M
432.8 48.63 L
S
GR
GS
[0.58537 0 0 0.58537 0 0.07315] CT
0.149 GC
2 setlinecap
1 LJ
0.854 LW
N
545.4 43 M
545.4 48.63 L
S
GR
GS
[0.58537 0 0 0.58537 0 0.07315] CT
0.149 GC
2 setlinecap
1 LJ
0.854 LW
N
658 43 M
658 48.63 L
S
GR
GS
[0.58537 0 0 0.58537 55.60976 131.09755] CT
0.149 GC
/Helvetica 17.083 F
GS
[1 0 0 1 0 0] CT
-16.5 16 moveto 
1 -1 scale
(750) t 
GR
GR
GS
[0.58537 0 0 0.58537 121.52195 131.09755] CT
0.149 GC
/Helvetica 17.083 F
GS
[1 0 0 1 0 0] CT
-16.5 16 moveto 
1 -1 scale
(800) t 
GR
GR
GS
[0.58537 0 0 0.58537 187.43415 131.09755] CT
0.149 GC
/Helvetica 17.083 F
GS
[1 0 0 1 0 0] CT
-16.5 16 moveto 
1 -1 scale
(850) t 
GR
GR
GS
[0.58537 0 0 0.58537 253.34633 131.09755] CT
0.149 GC
/Helvetica 17.083 F
GS
[1 0 0 1 0 0] CT
-16.5 16 moveto 
1 -1 scale
(900) t 
GR
GR
GS
[0.58537 0 0 0.58537 319.25855 131.09755] CT
0.149 GC
/Helvetica 17.083 F
GS
[1 0 0 1 0 0] CT
-16.5 16 moveto 
1 -1 scale
(950) t 
GR
GR
GS
[0.58537 0 0 0.58537 385.17073 131.09755] CT
0.149 GC
/Helvetica 17.083 F
GS
[1 0 0 1 0 0] CT
-22 16 moveto 
1 -1 scale
(1000) t 
GR
GR
GS
[0.58537 0 0 0.58537 220.3904 144.39024] CT
0.149 GC
/Helvetica 18.792 F
GS
[1 0 0 1 0 0] CT
-19 18 moveto 
1 -1 scale
(t / h) t 
GR
GR
GS
[0.58537 0 0 0.58537 0 0.07315] CT
0.149 GC
2 setlinecap
1 LJ
0.854 LW
N
95 217 M
95 43 L
S
GR
GS
[0.58537 0 0 0.58537 0 0.07315] CT
0.149 GC
2 setlinecap
1 LJ
0.854 LW
N
658 217 M
658 43 L
S
GR
GS
[0.58537 0 0 0.58537 0 0.07315] CT
0.149 GC
2 setlinecap
1 LJ
0.854 LW
N
95 217 M
100.63 217 L
S
GR
GS
[0.58537 0 0 0.58537 0 0.07315] CT
0.149 GC
2 setlinecap
1 LJ
0.854 LW
N
95 159 M
100.63 159 L
S
GR
GS
[0.58537 0 0 0.58537 0 0.07315] CT
0.149 GC
2 setlinecap
1 LJ
0.854 LW
N
95 101 M
100.63 101 L
S
GR
GS
[0.58537 0 0 0.58537 0 0.07315] CT
0.149 GC
2 setlinecap
1 LJ
0.854 LW
N
95 43 M
100.63 43 L
S
GR
GS
[0.58537 0 0 0.58537 0 0.07315] CT
0.149 GC
2 setlinecap
1 LJ
0.854 LW
N
658 217 M
652.37 217 L
S
GR
GS
[0.58537 0 0 0.58537 0 0.07315] CT
0.149 GC
2 setlinecap
1 LJ
0.854 LW
N
658 159 M
652.37 159 L
S
GR
GS
[0.58537 0 0 0.58537 0 0.07315] CT
0.149 GC
2 setlinecap
1 LJ
0.854 LW
N
658 101 M
652.37 101 L
S
GR
GS
[0.58537 0 0 0.58537 0 0.07315] CT
0.149 GC
2 setlinecap
1 LJ
0.854 LW
N
658 43 M
652.37 43 L
S
GR
GS
[0.58537 0 0 0.58537 51.60973 127.09755] CT
0.149 GC
/Helvetica 17.083 F
GS
[1 0 0 1 0 0] CT
-28 5.5 moveto 
1 -1 scale
(-10) t 
GR
GR
GS
[0.58537 0 0 0.58537 51.60973 93.14633] CT
0.149 GC
/Helvetica 17.083 F
GS
[1 0 0 1 0 0] CT
-11 5.5 moveto 
1 -1 scale
(0) t 
GR
GR
GS
[0.58537 0 0 0.58537 51.60973 59.19511] CT
0.149 GC
/Helvetica 17.083 F
GS
[1 0 0 1 0 0] CT
-22 5.5 moveto 
1 -1 scale
(10) t 
GR
GR
GS
[0.58537 0 0 0.58537 51.60973 25.24388] CT
0.149 GC
/Helvetica 17.083 F
GS
[1 0 0 1 0 0] CT
-22 5.5 moveto 
1 -1 scale
(20) t 
GR
GR
GS
[0 -0.58537 0.58537 0 29.26829 91.9756] CT
0.149 GC
/Helvetica 18.792 F
GS
[1 0 0 1 0 0] CT
0 0 moveto 
1 -1 scale
(T / ) t 
GR
GR
GS
[0 -0.58537 0.58537 0 24 73.82925] CT
0.149 GC
/Courier 15.033 F
GS
[1 0 0 1 0 0] CT
0 0 moveto 
1 -1 scale
(\260) t 
GR
GR
GS
[0 -0.58537 0.58537 0 29.26829 69.14633] CT
0.149 GC
/Helvetica 18.792 F
GS
[1 0 0 1 0 0] CT
0 0 moveto 
1 -1 scale
(C) t 
GR
GR
GS
[0.58537 0 0 0.58537 220.39049 23.63413] CT
/Helvetica-Bold 18.792 F
GS
[1 0 0 1 0 0] CT
-162.5 -5 moveto 
1 -1 scale
(Test set: 1 step vs Benchmark) t 
GR
GR
GS
[0.58537 0 0 0.58537 0 0.07315] CT
0 0.447 0.741 RC
1 LJ
0.854 LW
N
94.933 128.875 M
95 128.84 L
97.252 127.1 L
99.504 126.52 L
101.756 125.94 L
104.008 128.26 L
106.26 130 L
108.512 131.74 L
110.764 133.48 L
113.016 134.06 L
115.268 135.22 L
117.52 135.8 L
119.772 136.38 L
122.024 136.38 L
124.276 137.54 L
126.528 137.54 L
128.78 137.54 L
131.032 138.12 L
133.284 138.12 L
135.536 138.7 L
137.788 138.7 L
140.04 139.28 L
142.292 139.28 L
144.544 139.28 L
146.796 138.12 L
149.048 136.38 L
151.3 134.64 L
153.552 132.9 L
155.804 132.32 L
158.056 132.32 L
160.308 134.06 L
162.56 134.64 L
164.812 135.22 L
167.064 135.22 L
169.316 136.38 L
171.568 136.38 L
173.82 136.38 L
176.072 136.96 L
178.324 136.96 L
180.576 137.54 L
182.828 138.12 L
185.08 138.7 L
187.332 139.28 L
189.584 139.28 L
191.836 139.86 L
194.088 141.02 L
196.34 140.44 L
198.592 139.28 L
200.844 136.96 L
203.096 135.22 L
205.348 134.64 L
207.6 132.9 L
209.852 132.32 L
212.104 131.74 L
214.356 132.32 L
216.608 133.48 L
218.86 135.22 L
221.112 136.38 L
223.364 139.28 L
225.616 139.28 L
227.868 140.44 L
230.12 142.18 L
232.372 142.76 L
234.624 143.92 L
236.876 145.08 L
239.128 147.4 L
241.38 148.56 L
243.632 147.4 L
245.884 147.98 L
248.136 147.98 L
250.388 147.4 L
252.64 146.24 L
254.892 145.66 L
257.144 145.66 L
259.396 144.5 L
261.648 143.34 L
263.9 142.76 L
266.152 143.34 L
268.404 143.92 L
270.656 146.24 L
272.908 149.14 L
275.16 148.56 L
277.412 147.98 L
279.664 147.98 L
281.916 149.72 L
284.168 151.46 L
286.42 152.62 L
288.672 153.49 L
290.924 154.36 L
293.176 156.1 L
295.428 156.68 L
297.68 155.52 L
299.932 154.94 L
302.184 155.52 L
304.436 154.94 L
306.688 154.36 L
308.94 154.36 L
311.192 152.04 L
313.444 149.14 L
315.696 147.98 L
317.948 147.4 L
320.2 148.56 L
322.452 152.04 L
324.704 153.78 L
326.956 154.94 L
329.208 157.26 L
331.46 159 L
333.712 161.9 L
335.964 165.38 L
338.216 168.28 L
340.468 170.6 L
342.72 174.08 L
344.972 177.56 L
347.224 179.88 L
349.476 182.2 L
351.728 186.26 L
353.98 189.16 L
356.232 191.48 L
358.484 196.12 L
360.736 193.8 L
362.988 183.36 L
365.24 160.16 L
367.492 152.04 L
369.744 149.72 L
371.996 149.14 L
374.248 150.88 L
376.5 157.26 L
378.752 161.9 L
381.004 163.06 L
383.256 163.64 L
385.508 163.64 L
387.76 164.22 L
390.012 164.22 L
392.264 163.64 L
394.516 164.22 L
396.768 164.22 L
399.02 164.22 L
401.272 164.8 L
403.524 164.22 L
405.776 164.22 L
408.028 163.64 L
410.28 163.64 L
412.532 165.38 L
414.784 166.54 L
417.036 165.38 L
419.288 159.58 L
421.54 155.52 L
423.792 152.62 L
426.044 149.14 L
428.296 152.04 L
430.548 158.42 L
432.8 163.06 L
435.052 165.38 L
437.304 166.54 L
439.556 167.12 L
441.808 167.12 L
444.06 163.64 L
446.312 157.84 L
448.564 150.88 L
450.816 151.46 L
453.068 152.04 L
455.32 154.36 L
457.572 155.52 L
459.824 154.94 L
462.076 150.88 L
464.328 145.66 L
466.58 141.6 L
468.832 136.38 L
471.084 135.22 L
473.336 133.48 L
475.588 129.42 L
477.84 123.62 L
480.092 115.5 L
482.344 111.44 L
484.596 112.6 L
486.848 109.7 L
489.1 98.1 L
491.352 94.62 L
493.604 92.3 L
495.856 97.52 L
498.108 102.74 L
500.36 103.9 L
502.612 105.06 L
504.864 106.22 L
507.116 107.38 L
509.368 106.8 L
511.62 107.96 L
513.872 108.54 L
516.124 107.38 L
518.376 107.38 L
520.628 112.6 L
522.88 114.34 L
525.132 114.92 L
527.384 113.76 L
529.636 113.18 L
531.888 115.5 L
534.14 116.08 L
536.392 118.4 L
538.644 123.62 L
540.896 122.46 L
543.148 121.88 L
545.4 123.04 L
547.652 123.04 L
549.904 121.88 L
552.156 120.14 L
554.408 121.88 L
556.66 126.52 L
558.912 125.36 L
561.164 124.2 L
563.416 124.2 L
565.668 123.62 L
567.92 122.46 L
570.172 122.46 L
572.424 122.46 L
574.676 125.36 L
576.928 126.52 L
579.18 123.62 L
581.432 118.98 L
583.684 118.4 L
585.936 118.4 L
588.188 120.72 L
590.44 121.3 L
592.692 127.1 L
594.944 136.96 L
597.196 138.7 L
599.448 139.86 L
601.7 143.34 L
603.952 145.66 L
606.204 149.72 L
608.456 149.72 L
610.708 143.92 L
612.96 142.18 L
615.212 140.44 L
617.464 135.22 L
619.716 132.32 L
621.968 134.06 L
624.22 135.22 L
626.472 133.48 L
628.724 137.54 L
630.976 138.12 L
633.228 135.8 L
635.48 131.74 L
637.732 130 L
639.984 131.16 L
642.236 131.74 L
644.488 139.28 L
646.74 141.02 L
648.992 140.44 L
651.244 139.28 L
653.496 137.54 L
655.748 138.12 L
658 139.28 L
658.067 139.401 L
S
GR
GS
[0.58537 0 0 0.58537 0 0.07315] CT
0.851 0.325 0.098 RC
1 LJ
0.854 LW
N
94.933 125.03 M
95 124.947 L
97.252 126.751 L
99.504 125.702 L
101.756 125.413 L
104.008 126.242 L
106.26 132.335 L
108.512 133.048 L
110.764 133.631 L
113.016 134.673 L
115.268 133.949 L
117.52 135.694 L
119.772 136.479 L
122.024 136.641 L
124.276 135.963 L
126.528 138.357 L
128.78 137.434 L
131.032 137.889 L
133.284 138.817 L
135.536 137.541 L
137.788 139.183 L
140.04 137.721 L
142.292 139.222 L
144.544 137.166 L
146.796 136.769 L
149.048 134.803 L
151.3 134.361 L
153.552 133.316 L
155.804 131.56 L
158.056 131.986 L
160.308 133.877 L
162.56 136.873 L
164.812 135.781 L
167.064 135.831 L
169.316 134.868 L
171.568 136.84 L
173.82 136.735 L
176.072 136.721 L
178.324 137.144 L
180.576 137.367 L
182.828 138.078 L
185.08 138.747 L
187.332 139.448 L
189.584 139.172 L
191.836 139.827 L
194.088 139.548 L
196.34 141.605 L
198.592 138.494 L
200.844 136.502 L
203.096 133.532 L
205.348 133.396 L
207.6 134.118 L
209.852 131.453 L
212.104 132.174 L
214.356 132.998 L
216.608 134.353 L
218.86 134.888 L
221.112 136.416 L
223.364 136.627 L
225.616 140.385 L
227.868 139.517 L
230.12 141.003 L
232.372 142.732 L
234.624 143.24 L
236.876 144.421 L
239.128 145.725 L
241.38 148.491 L
243.632 148.341 L
245.884 147.015 L
248.136 147.309 L
250.388 147.334 L
252.64 144.931 L
254.892 143.079 L
257.144 142.952 L
259.396 144.27 L
261.648 143.015 L
263.9 141.572 L
266.152 141.782 L
268.404 144.521 L
270.656 145.352 L
272.908 147.739 L
275.16 150.474 L
277.412 147.524 L
279.664 147.02 L
281.916 148.148 L
284.168 150.452 L
286.42 151.799 L
288.672 153.224 L
290.924 153.891 L
293.176 154.883 L
295.428 156.561 L
297.68 155.911 L
299.932 154.845 L
302.184 153.587 L
304.436 155.021 L
306.688 152.685 L
308.94 151.874 L
311.192 151.996 L
313.444 149.572 L
315.696 146.898 L
317.948 146.629 L
320.2 146.717 L
322.452 150.319 L
324.704 155.233 L
326.956 154.86 L
329.208 154.753 L
331.46 157.589 L
333.712 159.1 L
335.964 163.255 L
338.216 166.646 L
340.468 168.644 L
342.72 171.109 L
344.972 174.949 L
347.224 178.439 L
349.476 179.593 L
351.728 180.955 L
353.98 186.91 L
356.232 188.082 L
358.484 190.211 L
360.736 194.777 L
362.988 188.289 L
365.24 173.883 L
367.492 146.512 L
369.744 147.316 L
371.996 148.043 L
374.248 149.197 L
376.5 153.17 L
378.752 161.55 L
381.004 164.689 L
383.256 163.292 L
385.508 163.716 L
387.76 163.612 L
390.012 165.204 L
392.264 164.7 L
394.516 163.725 L
396.768 165.64 L
399.02 165.013 L
401.272 165.344 L
403.524 166.485 L
405.776 164.629 L
408.028 165.77 L
410.28 164.666 L
412.532 164.47 L
414.784 163.947 L
417.036 161.577 L
419.288 159.97 L
421.54 155.208 L
423.792 152.937 L
426.044 150.729 L
428.296 148.403 L
430.548 155.927 L
432.8 163.002 L
435.052 165.647 L
437.304 166.036 L
439.556 166.53 L
441.808 166.758 L
444.06 166.947 L
446.312 161.786 L
448.564 154.78 L
450.816 148.119 L
453.068 152.499 L
455.32 153.087 L
457.572 156.042 L
459.824 155.908 L
462.076 155.233 L
464.328 149.237 L
466.58 144.362 L
468.832 139.316 L
471.084 132.411 L
473.336 132.202 L
475.588 132.751 L
477.84 127.885 L
480.092 121.909 L
482.344 114.59 L
484.596 114.324 L
486.848 117.369 L
489.1 111.553 L
491.352 95.573 L
493.604 96.446 L
495.856 94.259 L
498.108 102.889 L
500.36 107.023 L
502.612 106.72 L
504.864 108.968 L
507.116 109.924 L
509.368 111.273 L
511.62 109.218 L
513.872 110.073 L
516.124 110.375 L
518.376 107.76 L
520.628 108.792 L
522.88 115.434 L
525.132 114.996 L
527.384 113.129 L
529.636 112.77 L
531.888 112.186 L
534.14 115.536 L
536.392 116.989 L
538.644 121.12 L
540.896 124.994 L
543.148 120.095 L
545.4 120.488 L
547.652 123.459 L
549.904 123.63 L
552.156 121.527 L
554.408 118.997 L
556.66 122.317 L
558.912 129.269 L
561.164 124.426 L
563.416 123.853 L
565.668 124.298 L
567.92 122.621 L
570.172 121.652 L
572.424 122.704 L
574.676 123.439 L
576.928 125.711 L
579.18 125.555 L
581.432 119.449 L
583.684 116.704 L
585.936 118.561 L
588.188 118.206 L
590.44 123.327 L
592.692 123.833 L
594.944 130.676 L
597.196 141.24 L
599.448 139.105 L
601.7 139.336 L
603.952 144.17 L
606.204 146.335 L
608.456 151.348 L
610.708 148.394 L
612.96 140.251 L
615.212 140.692 L
617.464 139.227 L
619.716 132.181 L
621.968 130.318 L
624.22 134.728 L
626.472 135.465 L
628.724 133.436 L
630.976 137.776 L
633.228 135.769 L
635.48 131.372 L
637.732 128.981 L
639.984 129.296 L
642.236 130.947 L
644.488 132.865 L
646.74 146.646 L
648.992 143.086 L
651.244 139.548 L
653.496 139.412 L
655.748 137.289 L
658 139.723 L
658.067 139.754 L
S
GR
GS
[0.58537 0 0 0.58537 0 0.07315] CT
0.929 0.694 0.125 RC
1 LJ
0.854 LW
N
94.933 130.052 M
95 130 L
97.252 128.84 L
99.504 127.1 L
101.756 126.52 L
104.008 125.94 L
106.26 128.26 L
108.512 130 L
110.764 131.74 L
113.016 133.48 L
115.268 134.06 L
117.52 135.22 L
119.772 135.8 L
122.024 136.38 L
124.276 136.38 L
126.528 137.54 L
128.78 137.54 L
131.032 137.54 L
133.284 138.12 L
135.536 138.12 L
137.788 138.7 L
140.04 138.7 L
142.292 139.28 L
144.544 139.28 L
146.796 139.28 L
149.048 138.12 L
151.3 136.38 L
153.552 134.64 L
155.804 132.9 L
158.056 132.32 L
160.308 132.32 L
162.56 134.06 L
164.812 134.64 L
167.064 135.22 L
169.316 135.22 L
171.568 136.38 L
173.82 136.38 L
176.072 136.38 L
178.324 136.96 L
180.576 136.96 L
182.828 137.54 L
185.08 138.12 L
187.332 138.7 L
189.584 139.28 L
191.836 139.28 L
194.088 139.86 L
196.34 141.02 L
198.592 140.44 L
200.844 139.28 L
203.096 136.96 L
205.348 135.22 L
207.6 134.64 L
209.852 132.9 L
212.104 132.32 L
214.356 131.74 L
216.608 132.32 L
218.86 133.48 L
221.112 135.22 L
223.364 136.38 L
225.616 139.28 L
227.868 139.28 L
230.12 140.44 L
232.372 142.18 L
234.624 142.76 L
236.876 143.92 L
239.128 145.08 L
241.38 147.4 L
243.632 148.56 L
245.884 147.4 L
248.136 147.98 L
250.388 147.98 L
252.64 147.4 L
254.892 146.24 L
257.144 145.66 L
259.396 145.66 L
261.648 144.5 L
263.9 143.34 L
266.152 142.76 L
268.404 143.34 L
270.656 143.92 L
272.908 146.24 L
275.16 149.14 L
277.412 148.56 L
279.664 147.98 L
281.916 147.98 L
284.168 149.72 L
286.42 151.46 L
288.672 152.62 L
290.924 153.49 L
293.176 154.36 L
295.428 156.1 L
297.68 156.68 L
299.932 155.52 L
302.184 154.94 L
304.436 155.52 L
306.688 154.94 L
308.94 154.36 L
311.192 154.36 L
313.444 152.04 L
315.696 149.14 L
317.948 147.98 L
320.2 147.4 L
322.452 148.56 L
324.704 152.04 L
326.956 153.78 L
329.208 154.94 L
331.46 157.26 L
333.712 159 L
335.964 161.9 L
338.216 165.38 L
340.468 168.28 L
342.72 170.6 L
344.972 174.08 L
347.224 177.56 L
349.476 179.88 L
351.728 182.2 L
353.98 186.26 L
356.232 189.16 L
358.484 191.48 L
360.736 196.12 L
362.988 193.8 L
365.24 183.36 L
367.492 160.16 L
369.744 152.04 L
371.996 149.72 L
374.248 149.14 L
376.5 150.88 L
378.752 157.26 L
381.004 161.9 L
383.256 163.06 L
385.508 163.64 L
387.76 163.64 L
390.012 164.22 L
392.264 164.22 L
394.516 163.64 L
396.768 164.22 L
399.02 164.22 L
401.272 164.22 L
403.524 164.8 L
405.776 164.22 L
408.028 164.22 L
410.28 163.64 L
412.532 163.64 L
414.784 165.38 L
417.036 166.54 L
419.288 165.38 L
421.54 159.58 L
423.792 155.52 L
426.044 152.62 L
428.296 149.14 L
430.548 152.04 L
432.8 158.42 L
435.052 163.06 L
437.304 165.38 L
439.556 166.54 L
441.808 167.12 L
444.06 167.12 L
446.312 163.64 L
448.564 157.84 L
450.816 150.88 L
453.068 151.46 L
455.32 152.04 L
457.572 154.36 L
459.824 155.52 L
462.076 154.94 L
464.328 150.88 L
466.58 145.66 L
468.832 141.6 L
471.084 136.38 L
473.336 135.22 L
475.588 133.48 L
477.84 129.42 L
480.092 123.62 L
482.344 115.5 L
484.596 111.44 L
486.848 112.6 L
489.1 109.7 L
491.352 98.1 L
493.604 94.62 L
495.856 92.3 L
498.108 97.52 L
500.36 102.74 L
502.612 103.9 L
504.864 105.06 L
507.116 106.22 L
509.368 107.38 L
511.62 106.8 L
513.872 107.96 L
516.124 108.54 L
518.376 107.38 L
520.628 107.38 L
522.88 112.6 L
525.132 114.34 L
527.384 114.92 L
529.636 113.76 L
531.888 113.18 L
534.14 115.5 L
536.392 116.08 L
538.644 118.4 L
540.896 123.62 L
543.148 122.46 L
545.4 121.88 L
547.652 123.04 L
549.904 123.04 L
552.156 121.88 L
554.408 120.14 L
556.66 121.88 L
558.912 126.52 L
561.164 125.36 L
563.416 124.2 L
565.668 124.2 L
567.92 123.62 L
570.172 122.46 L
572.424 122.46 L
574.676 122.46 L
576.928 125.36 L
579.18 126.52 L
581.432 123.62 L
583.684 118.98 L
585.936 118.4 L
588.188 118.4 L
590.44 120.72 L
592.692 121.3 L
594.944 127.1 L
597.196 136.96 L
599.448 138.7 L
601.7 139.86 L
603.952 143.34 L
606.204 145.66 L
608.456 149.72 L
610.708 149.72 L
612.96 143.92 L
615.212 142.18 L
617.464 140.44 L
619.716 135.22 L
621.968 132.32 L
624.22 134.06 L
626.472 135.22 L
628.724 133.48 L
630.976 137.54 L
633.228 138.12 L
635.48 135.8 L
637.732 131.74 L
639.984 130 L
642.236 131.16 L
644.488 131.74 L
646.74 139.28 L
648.992 141.02 L
651.244 140.44 L
653.496 139.28 L
655.748 137.54 L
658 138.12 L
658.067 138.155 L
S
GR
GS
[0.58537 0 0 0.58537 0 0.07315] CT
1 GC
N
466 119 M
466 60 L
641 60 L
641 119 L
cp
f
GR
GS
[0.58537 0 0 0.58537 306.82942 41.63413] CT
/Helvetica 15.375 F
GS
[1 0 0 1 0 0] CT
0 5 moveto 
1 -1 scale
(Measured data) t 
GR
GR
GS
[0.58537 0 0 0.58537 0 0.07315] CT
0 0.447 0.741 RC
1 LJ
0.854 LW
N
469.994 71 M
521.171 71 L
S
GR
GS
[0.58537 0 0 0.58537 306.82942 52.4634] CT
/Helvetica 15.375 F
GS
[1 0 0 1 0 0] CT
0 5 moveto 
1 -1 scale
(1-step) t 
GR
GR
GS
[0.58537 0 0 0.58537 0 0.07315] CT
0.851 0.325 0.098 RC
1 LJ
0.854 LW
N
469.994 89.5 M
521.171 89.5 L
S
GR
GS
[0.58537 0 0 0.58537 306.82942 63.29267] CT
/Helvetica 15.375 F
GS
[1 0 0 1 0 0] CT
0 5 moveto 
1 -1 scale
(benchmark) t 
GR
GR
GS
[0.58537 0 0 0.58537 0 0.07315] CT
0.929 0.694 0.125 RC
1 LJ
0.854 LW
N
469.994 108 M
521.171 108 L
S
GR
GS
[0.58537 0 0 0.58537 0 0.07315] CT
0.149 GC
10.0 ML
0.854 LW
N
466 119 M
466 60 L
641 60 L
641 119 L
cp
S
GR
GS
[0.58537 0 0 0.58537 0 0.07315] CT
1 GC
N
95 472 M
658 472 L
658 297 L
95 297 L
cp
f
GR
GS
[0.58537 0 0 0.58537 0 0.07315] CT
0.149 GC
2 setlinecap
1 LJ
0.854 LW
N
95 472 M
658 472 L
S
GR
GS
[0.58537 0 0 0.58537 0 0.07315] CT
0.149 GC
2 setlinecap
1 LJ
0.854 LW
N
95 297 M
658 297 L
S
GR
GS
[0.58537 0 0 0.58537 0 0.07315] CT
0.149 GC
2 setlinecap
1 LJ
0.854 LW
N
95 472 M
95 466.37 L
S
GR
GS
[0.58537 0 0 0.58537 0 0.07315] CT
0.149 GC
2 setlinecap
1 LJ
0.854 LW
N
207.6 472 M
207.6 466.37 L
S
GR
GS
[0.58537 0 0 0.58537 0 0.07315] CT
0.149 GC
2 setlinecap
1 LJ
0.854 LW
N
320.2 472 M
320.2 466.37 L
S
GR
GS
[0.58537 0 0 0.58537 0 0.07315] CT
0.149 GC
2 setlinecap
1 LJ
0.854 LW
N
432.8 472 M
432.8 466.37 L
S
GR
GS
[0.58537 0 0 0.58537 0 0.07315] CT
0.149 GC
2 setlinecap
1 LJ
0.854 LW
N
545.4 472 M
545.4 466.37 L
S
GR
GS
[0.58537 0 0 0.58537 0 0.07315] CT
0.149 GC
2 setlinecap
1 LJ
0.854 LW
N
658 472 M
658 466.37 L
S
GR
GS
[0.58537 0 0 0.58537 0 0.07315] CT
0.149 GC
2 setlinecap
1 LJ
0.854 LW
N
95 297 M
95 302.63 L
S
GR
GS
[0.58537 0 0 0.58537 0 0.07315] CT
0.149 GC
2 setlinecap
1 LJ
0.854 LW
N
207.6 297 M
207.6 302.63 L
S
GR
GS
[0.58537 0 0 0.58537 0 0.07315] CT
0.149 GC
2 setlinecap
1 LJ
0.854 LW
N
320.2 297 M
320.2 302.63 L
S
GR
GS
[0.58537 0 0 0.58537 0 0.07315] CT
0.149 GC
2 setlinecap
1 LJ
0.854 LW
N
432.8 297 M
432.8 302.63 L
S
GR
GS
[0.58537 0 0 0.58537 0 0.07315] CT
0.149 GC
2 setlinecap
1 LJ
0.854 LW
N
545.4 297 M
545.4 302.63 L
S
GR
GS
[0.58537 0 0 0.58537 0 0.07315] CT
0.149 GC
2 setlinecap
1 LJ
0.854 LW
N
658 297 M
658 302.63 L
S
GR
GS
[0.58537 0 0 0.58537 55.60976 280.36586] CT
0.149 GC
/Helvetica 17.083 F
GS
[1 0 0 1 0 0] CT
-16.5 16 moveto 
1 -1 scale
(750) t 
GR
GR
GS
[0.58537 0 0 0.58537 121.52195 280.36586] CT
0.149 GC
/Helvetica 17.083 F
GS
[1 0 0 1 0 0] CT
-16.5 16 moveto 
1 -1 scale
(800) t 
GR
GR
GS
[0.58537 0 0 0.58537 187.43415 280.36586] CT
0.149 GC
/Helvetica 17.083 F
GS
[1 0 0 1 0 0] CT
-16.5 16 moveto 
1 -1 scale
(850) t 
GR
GR
GS
[0.58537 0 0 0.58537 253.34633 280.36586] CT
0.149 GC
/Helvetica 17.083 F
GS
[1 0 0 1 0 0] CT
-16.5 16 moveto 
1 -1 scale
(900) t 
GR
GR
GS
[0.58537 0 0 0.58537 319.25855 280.36586] CT
0.149 GC
/Helvetica 17.083 F
GS
[1 0 0 1 0 0] CT
-16.5 16 moveto 
1 -1 scale
(950) t 
GR
GR
GS
[0.58537 0 0 0.58537 385.17073 280.36586] CT
0.149 GC
/Helvetica 17.083 F
GS
[1 0 0 1 0 0] CT
-22 16 moveto 
1 -1 scale
(1000) t 
GR
GR
GS
[0.58537 0 0 0.58537 220.3904 293.65853] CT
0.149 GC
/Helvetica 18.792 F
GS
[1 0 0 1 0 0] CT
-19 18 moveto 
1 -1 scale
(t / h) t 
GR
GR
GS
[0.58537 0 0 0.58537 0 0.07315] CT
0.149 GC
2 setlinecap
1 LJ
0.854 LW
N
95 472 M
95 297 L
S
GR
GS
[0.58537 0 0 0.58537 0 0.07315] CT
0.149 GC
2 setlinecap
1 LJ
0.854 LW
N
658 472 M
658 297 L
S
GR
GS
[0.58537 0 0 0.58537 0 0.07315] CT
0.149 GC
2 setlinecap
1 LJ
0.854 LW
N
95 472 M
100.63 472 L
S
GR
GS
[0.58537 0 0 0.58537 0 0.07315] CT
0.149 GC
2 setlinecap
1 LJ
0.854 LW
N
95 413.667 M
100.63 413.667 L
S
GR
GS
[0.58537 0 0 0.58537 0 0.07315] CT
0.149 GC
2 setlinecap
1 LJ
0.854 LW
N
95 355.333 M
100.63 355.333 L
S
GR
GS
[0.58537 0 0 0.58537 0 0.07315] CT
0.149 GC
2 setlinecap
1 LJ
0.854 LW
N
95 297 M
100.63 297 L
S
GR
GS
[0.58537 0 0 0.58537 0 0.07315] CT
0.149 GC
2 setlinecap
1 LJ
0.854 LW
N
658 472 M
652.37 472 L
S
GR
GS
[0.58537 0 0 0.58537 0 0.07315] CT
0.149 GC
2 setlinecap
1 LJ
0.854 LW
N
658 413.667 M
652.37 413.667 L
S
GR
GS
[0.58537 0 0 0.58537 0 0.07315] CT
0.149 GC
2 setlinecap
1 LJ
0.854 LW
N
658 355.333 M
652.37 355.333 L
S
GR
GS
[0.58537 0 0 0.58537 0 0.07315] CT
0.149 GC
2 setlinecap
1 LJ
0.854 LW
N
658 297 M
652.37 297 L
S
GR
GS
[0.58537 0 0 0.58537 51.60973 276.36585] CT
0.149 GC
/Helvetica 17.083 F
GS
[1 0 0 1 0 0] CT
-28 5.5 moveto 
1 -1 scale
(-10) t 
GR
GR
GS
[0.58537 0 0 0.58537 51.60973 242.2195] CT
0.149 GC
/Helvetica 17.083 F
GS
[1 0 0 1 0 0] CT
-11 5.5 moveto 
1 -1 scale
(0) t 
GR
GR
GS
[0.58537 0 0 0.58537 51.60973 208.07317] CT
0.149 GC
/Helvetica 17.083 F
GS
[1 0 0 1 0 0] CT
-22 5.5 moveto 
1 -1 scale
(10) t 
GR
GR
GS
[0.58537 0 0 0.58537 51.60973 173.92682] CT
0.149 GC
/Helvetica 17.083 F
GS
[1 0 0 1 0 0] CT
-22 5.5 moveto 
1 -1 scale
(20) t 
GR
GR
GS
[0 -0.58537 0.58537 0 29.26829 240.65853] CT
0.149 GC
/Helvetica 18.792 F
GS
[1 0 0 1 0 0] CT
0 0 moveto 
1 -1 scale
(T / ) t 
GR
GR
GS
[0 -0.58537 0.58537 0 24 222.51219] CT
0.149 GC
/Courier 15.033 F
GS
[1 0 0 1 0 0] CT
0 0 moveto 
1 -1 scale
(\260) t 
GR
GR
GS
[0 -0.58537 0.58537 0 29.26829 217.82926] CT
0.149 GC
/Helvetica 18.792 F
GS
[1 0 0 1 0 0] CT
0 0 moveto 
1 -1 scale
(C) t 
GR
GR
GS
[0.58537 0 0 0.58537 220.39049 172.31706] CT
/Helvetica-Bold 18.792 F
GS
[1 0 0 1 0 0] CT
-162.5 -5 moveto 
1 -1 scale
(Test set: 8 step vs Benchmark) t 
GR
GR
GS
[0.58537 0 0 0.58537 0 0.07315] CT
0 0.447 0.741 RC
1 LJ
0.854 LW
N
94.933 392.701 M
95 392.667 L
97.252 390.917 L
99.504 389.167 L
101.756 387.417 L
104.008 386.833 L
106.26 386.833 L
108.512 388.583 L
110.764 389.167 L
113.016 389.75 L
115.268 389.75 L
117.52 390.917 L
119.772 390.917 L
122.024 390.917 L
124.276 391.5 L
126.528 391.5 L
128.78 392.083 L
131.032 392.667 L
133.284 393.25 L
135.536 393.833 L
137.788 393.833 L
140.04 394.417 L
142.292 395.583 L
144.544 395 L
146.796 393.833 L
149.048 391.5 L
151.3 389.75 L
153.552 389.167 L
155.804 387.417 L
158.056 386.833 L
160.308 386.25 L
162.56 386.833 L
164.812 388 L
167.064 389.75 L
169.316 390.917 L
171.568 393.833 L
173.82 393.833 L
176.072 395 L
178.324 396.75 L
180.576 397.333 L
182.828 398.5 L
185.08 399.667 L
187.332 402 L
189.584 403.167 L
191.836 402 L
194.088 402.583 L
196.34 402.583 L
198.592 402 L
200.844 400.833 L
203.096 400.25 L
205.348 400.25 L
207.6 399.083 L
209.852 397.917 L
212.104 397.333 L
214.356 397.917 L
216.608 398.5 L
218.86 400.833 L
221.112 403.75 L
223.364 403.167 L
225.616 402.583 L
227.868 402.583 L
230.12 404.333 L
232.372 406.083 L
234.624 407.25 L
236.876 408.125 L
239.128 409 L
241.38 410.75 L
243.632 411.333 L
245.884 410.167 L
248.136 409.583 L
250.388 410.167 L
252.64 409.583 L
254.892 409 L
257.144 409 L
259.396 406.667 L
261.648 403.75 L
263.9 402.583 L
266.152 402 L
268.404 403.167 L
270.656 406.667 L
272.908 408.417 L
275.16 409.583 L
277.412 411.917 L
279.664 413.667 L
281.916 416.583 L
284.168 420.083 L
286.42 423 L
288.672 425.333 L
290.924 428.833 L
293.176 432.333 L
295.428 434.667 L
297.68 437 L
299.932 441.083 L
302.184 444 L
304.436 446.333 L
306.688 451 L
308.94 448.667 L
311.192 438.167 L
313.444 414.833 L
315.696 406.667 L
317.948 404.333 L
320.2 403.75 L
322.452 405.5 L
324.704 411.917 L
326.956 416.583 L
329.208 417.75 L
331.46 418.333 L
333.712 418.333 L
335.964 418.917 L
338.216 418.917 L
340.468 418.333 L
342.72 418.917 L
344.972 418.917 L
347.224 418.917 L
349.476 419.5 L
351.728 418.917 L
353.98 418.917 L
356.232 418.333 L
358.484 418.333 L
360.736 420.083 L
362.988 421.25 L
365.24 420.083 L
367.492 414.25 L
369.744 410.167 L
371.996 407.25 L
374.248 403.75 L
376.5 406.667 L
378.752 413.083 L
381.004 417.75 L
383.256 420.083 L
385.508 421.25 L
387.76 421.833 L
390.012 421.833 L
392.264 418.333 L
394.516 412.5 L
396.768 405.5 L
399.02 406.083 L
401.272 406.667 L
403.524 409 L
405.776 410.167 L
408.028 409.583 L
410.28 405.5 L
412.532 400.25 L
414.784 396.167 L
417.036 390.917 L
419.288 389.75 L
421.54 388 L
423.792 383.917 L
426.044 378.083 L
428.296 369.917 L
430.548 365.833 L
432.8 367 L
435.052 364.083 L
437.304 352.417 L
439.556 348.917 L
441.808 346.583 L
444.06 351.833 L
446.312 357.083 L
448.564 358.25 L
450.816 359.417 L
453.068 360.583 L
455.32 361.75 L
457.572 361.167 L
459.824 362.333 L
462.076 362.917 L
464.328 361.75 L
466.58 361.75 L
468.832 367 L
471.084 368.75 L
473.336 369.333 L
475.588 368.167 L
477.84 367.583 L
480.092 369.917 L
482.344 370.5 L
484.596 372.833 L
486.848 378.083 L
489.1 376.917 L
491.352 376.333 L
493.604 377.5 L
495.856 377.5 L
498.108 376.333 L
500.36 374.583 L
502.612 376.333 L
504.864 381 L
507.116 379.833 L
509.368 378.667 L
511.62 378.667 L
513.872 378.083 L
516.124 376.917 L
518.376 376.917 L
520.628 376.917 L
522.88 379.833 L
525.132 381 L
527.384 378.083 L
529.636 373.417 L
531.888 372.833 L
534.14 372.833 L
536.392 375.167 L
538.644 375.75 L
540.896 381.583 L
543.148 391.5 L
545.4 393.25 L
547.652 394.417 L
549.904 397.917 L
552.156 400.25 L
554.408 404.333 L
556.66 404.333 L
558.912 398.5 L
561.164 396.75 L
563.416 395 L
565.668 389.75 L
567.92 386.833 L
570.172 388.583 L
572.424 389.75 L
574.676 388 L
576.928 392.083 L
579.18 392.667 L
581.432 390.333 L
583.684 386.25 L
585.936 384.5 L
588.188 385.667 L
590.44 386.25 L
592.692 393.833 L
594.944 395.583 L
597.196 395 L
599.448 393.833 L
601.7 392.083 L
603.952 392.667 L
606.204 393.833 L
608.456 397.917 L
610.708 398.5 L
612.96 400.25 L
615.212 400.833 L
617.464 401.417 L
619.716 399.667 L
621.968 401.417 L
624.22 402 L
626.472 398.5 L
628.724 397.917 L
630.976 399.667 L
633.228 403.167 L
635.48 403.75 L
637.732 405.5 L
639.984 404.333 L
642.236 400.25 L
644.488 397.333 L
646.74 399.083 L
648.992 404.917 L
651.244 410.75 L
653.496 412.5 L
655.748 413.667 L
658 412.5 L
658.067 412.587 L
S
GR
GS
[0.58537 0 0 0.58537 0 0.07315] CT
0.851 0.325 0.098 RC
1 LJ
0.854 LW
N
94.933 385.42 M
95 385.32 L
97.252 381.434 L
99.504 378.054 L
101.756 378.003 L
104.008 376.975 L
106.26 378.704 L
108.512 380.81 L
110.764 386.227 L
113.016 390.15 L
115.268 393.196 L
117.52 393.599 L
119.772 392.95 L
122.024 393.813 L
124.276 394.331 L
126.528 394.306 L
128.78 392.336 L
131.032 392.259 L
133.284 392.309 L
135.536 394.607 L
137.788 394.064 L
140.04 394.241 L
142.292 394.15 L
144.544 393.853 L
146.796 392.39 L
149.048 389.46 L
151.3 385.75 L
153.552 382.99 L
155.804 381.887 L
158.056 381.07 L
160.308 382.492 L
162.56 383.092 L
164.812 386.753 L
167.064 389.525 L
169.316 392.596 L
171.568 393.963 L
173.82 392.404 L
176.072 393.435 L
178.324 393.122 L
180.576 392.416 L
182.828 392.074 L
185.08 392.961 L
187.332 393.627 L
189.584 396.853 L
191.836 395.542 L
194.088 396.945 L
196.34 397.6 L
198.592 396.94 L
200.844 395.333 L
203.096 392.473 L
205.348 390.216 L
207.6 387.348 L
209.852 384.734 L
212.104 384.399 L
214.356 384.37 L
216.608 385.693 L
218.86 389.453 L
221.112 394.043 L
223.364 397.907 L
225.616 398.188 L
227.868 398.089 L
230.12 399.393 L
232.372 400.978 L
234.624 400.091 L
236.876 401.219 L
239.128 402.976 L
241.38 401.715 L
243.632 402.629 L
245.884 403.176 L
248.136 404.733 L
250.388 404.825 L
252.64 404.57 L
254.892 402.559 L
257.144 399.972 L
259.396 397.649 L
261.648 395.131 L
263.9 393.148 L
266.152 392.203 L
268.404 393.655 L
270.656 394.949 L
272.908 399.308 L
275.16 403.692 L
277.412 404.154 L
279.664 403.509 L
281.916 404.21 L
284.168 405.244 L
286.42 407.397 L
288.672 408.855 L
290.924 407.521 L
293.176 407.987 L
295.428 411.006 L
297.68 412.356 L
299.932 413.845 L
302.184 415.128 L
304.436 415.21 L
306.688 415.469 L
308.94 415.553 L
311.192 413.988 L
313.444 410.396 L
315.696 408.854 L
317.948 410.836 L
320.2 410.141 L
322.452 411.725 L
324.704 417.266 L
326.956 416.593 L
329.208 412.561 L
331.46 400.236 L
333.712 407.536 L
335.964 411.074 L
338.216 413.723 L
340.468 416.851 L
342.72 421.861 L
344.972 423.448 L
347.224 423.086 L
349.476 425.029 L
351.728 426.843 L
353.98 428.669 L
356.232 429.341 L
358.484 429.954 L
360.736 431.498 L
362.988 427.67 L
365.24 419.76 L
367.492 410.768 L
369.744 403.132 L
371.996 399.984 L
374.248 396.603 L
376.5 396.561 L
378.752 400.911 L
381.004 407.073 L
383.256 413.211 L
385.508 413.747 L
387.76 414.348 L
390.012 413.943 L
392.264 412.687 L
394.516 416.645 L
396.768 418.727 L
399.02 418.558 L
401.272 418.168 L
403.524 418.693 L
405.776 419.167 L
408.028 418.713 L
410.28 415.244 L
412.532 411.508 L
414.784 408.873 L
417.036 411.921 L
419.288 408.722 L
421.54 404.972 L
423.792 401.033 L
426.044 398.003 L
428.296 393.057 L
430.548 391.569 L
432.8 393.723 L
435.052 396.262 L
437.304 403.437 L
439.556 407.423 L
441.808 405.879 L
444.06 402.716 L
446.312 397.157 L
448.564 394.213 L
450.816 393.044 L
453.068 387.591 L
455.32 377.964 L
457.572 381.99 L
459.824 382.254 L
462.076 388.15 L
464.328 389.339 L
466.58 386.518 L
468.832 385.235 L
471.084 381.973 L
473.336 378.449 L
475.588 371.213 L
477.84 368.215 L
480.092 365.189 L
482.344 360.735 L
484.596 360.926 L
486.848 367.034 L
489.1 366.324 L
491.352 365.355 L
493.604 365 L
495.856 365.365 L
498.108 369.749 L
500.36 371.316 L
502.612 373.096 L
504.864 375.275 L
507.116 373.274 L
509.368 375.423 L
511.62 378.378 L
513.872 378.195 L
516.124 375.978 L
518.376 374.34 L
520.628 377.369 L
522.88 382.252 L
525.132 377.44 L
527.384 375.553 L
529.636 372.51 L
531.888 370.276 L
534.14 369.939 L
536.392 370.593 L
538.644 371.909 L
540.896 377.029 L
543.148 380.18 L
545.4 379.324 L
547.652 379.865 L
549.904 381.702 L
552.156 381.476 L
554.408 384.367 L
556.66 383.199 L
558.912 386.705 L
561.164 392.649 L
563.416 389.425 L
565.668 389.888 L
567.92 393.156 L
570.172 393.129 L
572.424 394.951 L
574.676 391.828 L
576.928 387.57 L
579.18 388.036 L
581.432 384.574 L
583.684 376.235 L
585.936 374.198 L
588.188 377.374 L
590.44 377.037 L
592.692 376.074 L
594.944 385.016 L
597.196 389.516 L
599.448 391.403 L
601.7 393.566 L
603.952 396.008 L
606.204 399.559 L
608.456 401.691 L
610.708 407.23 L
612.96 399.86 L
615.212 396.585 L
617.464 395.221 L
619.716 392.232 L
621.968 392.804 L
624.22 392.283 L
626.472 394.451 L
628.724 393.396 L
630.976 396.589 L
633.228 395.204 L
635.48 393.681 L
637.732 387.992 L
639.984 388.193 L
642.236 387.143 L
644.488 384.457 L
646.74 387.781 L
648.992 391.715 L
651.244 398.028 L
653.496 398.99 L
655.748 403.232 L
658 401.286 L
658.067 401.21 L
S
GR
GS
[0.58537 0 0 0.58537 0 0.07315] CT
0.929 0.694 0.125 RC
1 LJ
0.854 LW
N
94.933 384.552 M
95 384.5 L
97.252 383.333 L
99.504 381.583 L
101.756 381 L
104.008 380.417 L
106.26 382.75 L
108.512 384.5 L
110.764 386.25 L
113.016 388 L
115.268 388.583 L
117.52 389.75 L
119.772 390.333 L
122.024 390.917 L
124.276 390.917 L
126.528 392.083 L
128.78 392.083 L
131.032 392.083 L
133.284 392.667 L
135.536 392.667 L
137.788 393.25 L
140.04 393.25 L
142.292 393.833 L
144.544 393.833 L
146.796 393.833 L
149.048 392.667 L
151.3 390.917 L
153.552 389.167 L
155.804 387.417 L
158.056 386.833 L
160.308 386.833 L
162.56 388.583 L
164.812 389.167 L
167.064 389.75 L
169.316 389.75 L
171.568 390.917 L
173.82 390.917 L
176.072 390.917 L
178.324 391.5 L
180.576 391.5 L
182.828 392.083 L
185.08 392.667 L
187.332 393.25 L
189.584 393.833 L
191.836 393.833 L
194.088 394.417 L
196.34 395.583 L
198.592 395 L
200.844 393.833 L
203.096 391.5 L
205.348 389.75 L
207.6 389.167 L
209.852 387.417 L
212.104 386.833 L
214.356 386.25 L
216.608 386.833 L
218.86 388 L
221.112 389.75 L
223.364 390.917 L
225.616 393.833 L
227.868 393.833 L
230.12 395 L
232.372 396.75 L
234.624 397.333 L
236.876 398.5 L
239.128 399.667 L
241.38 402 L
243.632 403.167 L
245.884 402 L
248.136 402.583 L
250.388 402.583 L
252.64 402 L
254.892 400.833 L
257.144 400.25 L
259.396 400.25 L
261.648 399.083 L
263.9 397.917 L
266.152 397.333 L
268.404 397.917 L
270.656 398.5 L
272.908 400.833 L
275.16 403.75 L
277.412 403.167 L
279.664 402.583 L
281.916 402.583 L
284.168 404.333 L
286.42 406.083 L
288.672 407.25 L
290.924 408.125 L
293.176 409 L
295.428 410.75 L
297.68 411.333 L
299.932 410.167 L
302.184 409.583 L
304.436 410.167 L
306.688 409.583 L
308.94 409 L
311.192 409 L
313.444 406.667 L
315.696 403.75 L
317.948 402.583 L
320.2 402 L
322.452 403.167 L
324.704 406.667 L
326.956 408.417 L
329.208 409.583 L
331.46 411.917 L
333.712 413.667 L
335.964 416.583 L
338.216 420.083 L
340.468 423 L
342.72 425.333 L
344.972 428.833 L
347.224 432.333 L
349.476 434.667 L
351.728 437 L
353.98 441.083 L
356.232 444 L
358.484 446.333 L
360.736 451 L
362.988 448.667 L
365.24 438.167 L
367.492 414.833 L
369.744 406.667 L
371.996 404.333 L
374.248 403.75 L
376.5 405.5 L
378.752 411.917 L
381.004 416.583 L
383.256 417.75 L
385.508 418.333 L
387.76 418.333 L
390.012 418.917 L
392.264 418.917 L
394.516 418.333 L
396.768 418.917 L
399.02 418.917 L
401.272 418.917 L
403.524 419.5 L
405.776 418.917 L
408.028 418.917 L
410.28 418.333 L
412.532 418.333 L
414.784 420.083 L
417.036 421.25 L
419.288 420.083 L
421.54 414.25 L
423.792 410.167 L
426.044 407.25 L
428.296 403.75 L
430.548 406.667 L
432.8 413.083 L
435.052 417.75 L
437.304 420.083 L
439.556 421.25 L
441.808 421.833 L
444.06 421.833 L
446.312 418.333 L
448.564 412.5 L
450.816 405.5 L
453.068 406.083 L
455.32 406.667 L
457.572 409 L
459.824 410.167 L
462.076 409.583 L
464.328 405.5 L
466.58 400.25 L
468.832 396.167 L
471.084 390.917 L
473.336 389.75 L
475.588 388 L
477.84 383.917 L
480.092 378.083 L
482.344 369.917 L
484.596 365.833 L
486.848 367 L
489.1 364.083 L
491.352 352.417 L
493.604 348.917 L
495.856 346.583 L
498.108 351.833 L
500.36 357.083 L
502.612 358.25 L
504.864 359.417 L
507.116 360.583 L
509.368 361.75 L
511.62 361.167 L
513.872 362.333 L
516.124 362.917 L
518.376 361.75 L
520.628 361.75 L
522.88 367 L
525.132 368.75 L
527.384 369.333 L
529.636 368.167 L
531.888 367.583 L
534.14 369.917 L
536.392 370.5 L
538.644 372.833 L
540.896 378.083 L
543.148 376.917 L
545.4 376.333 L
547.652 377.5 L
549.904 377.5 L
552.156 376.333 L
554.408 374.583 L
556.66 376.333 L
558.912 381 L
561.164 379.833 L
563.416 378.667 L
565.668 378.667 L
567.92 378.083 L
570.172 376.917 L
572.424 376.917 L
574.676 376.917 L
576.928 379.833 L
579.18 381 L
581.432 378.083 L
583.684 373.417 L
585.936 372.833 L
588.188 372.833 L
590.44 375.167 L
592.692 375.75 L
594.944 381.583 L
597.196 391.5 L
599.448 393.25 L
601.7 394.417 L
603.952 397.917 L
606.204 400.25 L
608.456 404.333 L
610.708 404.333 L
612.96 398.5 L
615.212 396.75 L
617.464 395 L
619.716 389.75 L
621.968 386.833 L
624.22 388.583 L
626.472 389.75 L
628.724 388 L
630.976 392.083 L
633.228 392.667 L
635.48 390.333 L
637.732 386.25 L
639.984 384.5 L
642.236 385.667 L
644.488 386.25 L
646.74 393.833 L
648.992 395.583 L
651.244 395 L
653.496 393.833 L
655.748 392.083 L
658 392.667 L
658.067 392.701 L
S
GR
GS
[0.58537 0 0 0.58537 0 0.07315] CT
1 GC
N
466 373 M
466 314 L
641 314 L
641 373 L
cp
f
GR
GS
[0.58537 0 0 0.58537 306.82942 190.31707] CT
/Helvetica 15.375 F
GS
[1 0 0 1 0 0] CT
0 5 moveto 
1 -1 scale
(Measured data) t 
GR
GR
GS
[0.58537 0 0 0.58537 0 0.07315] CT
0 0.447 0.741 RC
1 LJ
0.854 LW
N
469.994 325 M
521.171 325 L
S
GR
GS
[0.58537 0 0 0.58537 306.82942 201.14633] CT
/Helvetica 15.375 F
GS
[1 0 0 1 0 0] CT
0 5 moveto 
1 -1 scale
(8-step) t 
GR
GR
GS
[0.58537 0 0 0.58537 0 0.07315] CT
0.851 0.325 0.098 RC
1 LJ
0.854 LW
N
469.994 343.5 M
521.171 343.5 L
S
GR
GS
[0.58537 0 0 0.58537 306.82942 211.9756] CT
/Helvetica 15.375 F
GS
[1 0 0 1 0 0] CT
0 5 moveto 
1 -1 scale
(benchmark) t 
GR
GR
GS
[0.58537 0 0 0.58537 0 0.07315] CT
0.929 0.694 0.125 RC
1 LJ
0.854 LW
N
469.994 362 M
521.171 362 L
S
GR
GS
[0.58537 0 0 0.58537 0 0.07315] CT
0.149 GC
10.0 ML
0.854 LW
N
466 373 M
466 314 L
641 314 L
641 373 L
cp
S
GR
%%Trailer
%%Pages: 1
%%EOF
