%!PS-Adobe-3.0 EPSF-3.0
%%Creator: (MATLAB, The Mathworks, Inc. Version 9.0.0.370719 \(R2016a\). Operating System: Windows 8)
%%Title: H:/Skolan/GitTogether/tsaproj/Report/Img/BModPred.eps
%%CreationDate: 2018-01-11T23:00:52
%%Pages: (atend)
%%BoundingBox: 0 0 420 315
%%LanguageLevel: 3
%%EndComments
%%BeginProlog
%%BeginResource: procset (Apache XML Graphics Std ProcSet) 1.2 0
%%Version: 1.2 0
%%Copyright: (Copyright 2001-2003,2010 The Apache Software Foundation. License terms: http://www.apache.org/licenses/LICENSE-2.0)
/bd{bind def}bind def
/ld{load def}bd
/GR/grestore ld
/M/moveto ld
/LJ/setlinejoin ld
/C/curveto ld
/f/fill ld
/LW/setlinewidth ld
/GC/setgray ld
/t/show ld
/N/newpath ld
/CT/concat ld
/cp/closepath ld
/S/stroke ld
/L/lineto ld
/CC/setcmykcolor ld
/A/ashow ld
/GS/gsave ld
/RC/setrgbcolor ld
/RM/rmoveto ld
/ML/setmiterlimit ld
/re {4 2 roll M
1 index 0 rlineto
0 exch rlineto
neg 0 rlineto
cp } bd
/_ctm matrix def
/_tm matrix def
/BT { _ctm currentmatrix pop matrix _tm copy pop 0 0 moveto } bd
/ET { _ctm setmatrix } bd
/iTm { _ctm setmatrix _tm concat } bd
/Tm { _tm astore pop iTm 0 0 moveto } bd
/ux 0.0 def
/uy 0.0 def
/F {
  /Tp exch def
  /Tf exch def
  Tf findfont Tp scalefont setfont
  /cf Tf def  /cs Tp def
} bd
/ULS {currentpoint /uy exch def /ux exch def} bd
/ULE {
  /Tcx currentpoint pop def
  gsave
  newpath
  cf findfont cs scalefont dup
  /FontMatrix get 0 get /Ts exch def /FontInfo get dup
  /UnderlinePosition get Ts mul /To exch def
  /UnderlineThickness get Ts mul /Tt exch def
  ux uy To add moveto  Tcx uy To add lineto
  Tt setlinewidth stroke
  grestore
} bd
/OLE {
  /Tcx currentpoint pop def
  gsave
  newpath
  cf findfont cs scalefont dup
  /FontMatrix get 0 get /Ts exch def /FontInfo get dup
  /UnderlinePosition get Ts mul /To exch def
  /UnderlineThickness get Ts mul /Tt exch def
  ux uy To add cs add moveto Tcx uy To add cs add lineto
  Tt setlinewidth stroke
  grestore
} bd
/SOE {
  /Tcx currentpoint pop def
  gsave
  newpath
  cf findfont cs scalefont dup
  /FontMatrix get 0 get /Ts exch def /FontInfo get dup
  /UnderlinePosition get Ts mul /To exch def
  /UnderlineThickness get Ts mul /Tt exch def
  ux uy To add cs 10 mul 26 idiv add moveto Tcx uy To add cs 10 mul 26 idiv add lineto
  Tt setlinewidth stroke
  grestore
} bd
/QT {
/Y22 exch store
/X22 exch store
/Y21 exch store
/X21 exch store
currentpoint
/Y21 load 2 mul add 3 div exch
/X21 load 2 mul add 3 div exch
/X21 load 2 mul /X22 load add 3 div
/Y21 load 2 mul /Y22 load add 3 div
/X22 load /Y22 load curveto
} bd
/SSPD {
dup length /d exch dict def
{
/v exch def
/k exch def
currentpagedevice k known {
/cpdv currentpagedevice k get def
v cpdv ne {
/upd false def
/nullv v type /nulltype eq def
/nullcpdv cpdv type /nulltype eq def
nullv nullcpdv or
{
/upd true def
} {
/sametype v type cpdv type eq def
sametype {
v type /arraytype eq {
/vlen v length def
/cpdvlen cpdv length def
vlen cpdvlen eq {
0 1 vlen 1 sub {
/i exch def
/obj v i get def
/cpdobj cpdv i get def
obj cpdobj ne {
/upd true def
exit
} if
} for
} {
/upd true def
} ifelse
} {
v type /dicttype eq {
v {
/dv exch def
/dk exch def
/cpddv cpdv dk get def
dv cpddv ne {
/upd true def
exit
} if
} forall
} {
/upd true def
} ifelse
} ifelse
} if
} ifelse
upd true eq {
d k v put
} if
} if
} if
} forall
d length 0 gt {
d setpagedevice
} if
} bd
%%EndResource
%%BeginResource: procset (Apache XML Graphics EPS ProcSet) 1.0 0
%%Version: 1.0 0
%%Copyright: (Copyright 2002-2003 The Apache Software Foundation. License terms: http://www.apache.org/licenses/LICENSE-2.0)
/BeginEPSF { %def
/b4_Inc_state save def         % Save state for cleanup
/dict_count countdictstack def % Count objects on dict stack
/op_count count 1 sub def      % Count objects on operand stack
userdict begin                 % Push userdict on dict stack
/showpage { } def              % Redefine showpage, { } = null proc
0 setgray 0 setlinecap         % Prepare graphics state
1 setlinewidth 0 setlinejoin
10 setmiterlimit [ ] 0 setdash newpath
/languagelevel where           % If level not equal to 1 then
{pop languagelevel             % set strokeadjust and
1 ne                           % overprint to their defaults.
{false setstrokeadjust false setoverprint
} if
} if
} bd
/EndEPSF { %def
count op_count sub {pop} repeat            % Clean up stacks
countdictstack dict_count sub {end} repeat
b4_Inc_state restore
} bd
%%EndResource
%FOPBeginFontDict
%%IncludeResource: font Courier-Bold
%%IncludeResource: font Helvetica
%%IncludeResource: font Courier-BoldOblique
%%IncludeResource: font Courier-Oblique
%%IncludeResource: font Times-Roman
%%IncludeResource: font Helvetica-BoldOblique
%%IncludeResource: font Helvetica-Bold
%%IncludeResource: font Helvetica-Oblique
%%IncludeResource: font Times-BoldItalic
%%IncludeResource: font Courier
%%IncludeResource: font Times-Italic
%%IncludeResource: font Times-Bold
%%IncludeResource: font Symbol
%%IncludeResource: font ZapfDingbats
%FOPEndFontDict
%%BeginResource: encoding WinAnsiEncoding
/WinAnsiEncoding [
/.notdef /.notdef /.notdef /.notdef /.notdef
/.notdef /.notdef /.notdef /.notdef /.notdef
/.notdef /.notdef /.notdef /.notdef /.notdef
/.notdef /.notdef /.notdef /.notdef /.notdef
/.notdef /.notdef /.notdef /.notdef /.notdef
/.notdef /.notdef /.notdef /.notdef /.notdef
/.notdef /.notdef /space /exclam /quotedbl
/numbersign /dollar /percent /ampersand /quotesingle
/parenleft /parenright /asterisk /plus /comma
/hyphen /period /slash /zero /one
/two /three /four /five /six
/seven /eight /nine /colon /semicolon
/less /equal /greater /question /at
/A /B /C /D /E
/F /G /H /I /J
/K /L /M /N /O
/P /Q /R /S /T
/U /V /W /X /Y
/Z /bracketleft /backslash /bracketright /asciicircum
/underscore /quoteleft /a /b /c
/d /e /f /g /h
/i /j /k /l /m
/n /o /p /q /r
/s /t /u /v /w
/x /y /z /braceleft /bar
/braceright /asciitilde /bullet /Euro /bullet
/quotesinglbase /florin /quotedblbase /ellipsis /dagger
/daggerdbl /circumflex /perthousand /Scaron /guilsinglleft
/OE /bullet /Zcaron /bullet /bullet
/quoteleft /quoteright /quotedblleft /quotedblright /bullet
/endash /emdash /asciitilde /trademark /scaron
/guilsinglright /oe /bullet /zcaron /Ydieresis
/space /exclamdown /cent /sterling /currency
/yen /brokenbar /section /dieresis /copyright
/ordfeminine /guillemotleft /logicalnot /sfthyphen /registered
/macron /degree /plusminus /twosuperior /threesuperior
/acute /mu /paragraph /middot /cedilla
/onesuperior /ordmasculine /guillemotright /onequarter /onehalf
/threequarters /questiondown /Agrave /Aacute /Acircumflex
/Atilde /Adieresis /Aring /AE /Ccedilla
/Egrave /Eacute /Ecircumflex /Edieresis /Igrave
/Iacute /Icircumflex /Idieresis /Eth /Ntilde
/Ograve /Oacute /Ocircumflex /Otilde /Odieresis
/multiply /Oslash /Ugrave /Uacute /Ucircumflex
/Udieresis /Yacute /Thorn /germandbls /agrave
/aacute /acircumflex /atilde /adieresis /aring
/ae /ccedilla /egrave /eacute /ecircumflex
/edieresis /igrave /iacute /icircumflex /idieresis
/eth /ntilde /ograve /oacute /ocircumflex
/otilde /odieresis /divide /oslash /ugrave
/uacute /ucircumflex /udieresis /yacute /thorn
/ydieresis
] def
%%EndResource
%FOPBeginFontReencode
/Courier-Bold findfont
dup length dict begin
  {1 index /FID ne {def} {pop pop} ifelse} forall
  /Encoding WinAnsiEncoding def
  currentdict
end
/Courier-Bold exch definefont pop
/Helvetica findfont
dup length dict begin
  {1 index /FID ne {def} {pop pop} ifelse} forall
  /Encoding WinAnsiEncoding def
  currentdict
end
/Helvetica exch definefont pop
/Courier-BoldOblique findfont
dup length dict begin
  {1 index /FID ne {def} {pop pop} ifelse} forall
  /Encoding WinAnsiEncoding def
  currentdict
end
/Courier-BoldOblique exch definefont pop
/Courier-Oblique findfont
dup length dict begin
  {1 index /FID ne {def} {pop pop} ifelse} forall
  /Encoding WinAnsiEncoding def
  currentdict
end
/Courier-Oblique exch definefont pop
/Times-Roman findfont
dup length dict begin
  {1 index /FID ne {def} {pop pop} ifelse} forall
  /Encoding WinAnsiEncoding def
  currentdict
end
/Times-Roman exch definefont pop
/Helvetica-BoldOblique findfont
dup length dict begin
  {1 index /FID ne {def} {pop pop} ifelse} forall
  /Encoding WinAnsiEncoding def
  currentdict
end
/Helvetica-BoldOblique exch definefont pop
/Helvetica-Bold findfont
dup length dict begin
  {1 index /FID ne {def} {pop pop} ifelse} forall
  /Encoding WinAnsiEncoding def
  currentdict
end
/Helvetica-Bold exch definefont pop
/Helvetica-Oblique findfont
dup length dict begin
  {1 index /FID ne {def} {pop pop} ifelse} forall
  /Encoding WinAnsiEncoding def
  currentdict
end
/Helvetica-Oblique exch definefont pop
/Times-BoldItalic findfont
dup length dict begin
  {1 index /FID ne {def} {pop pop} ifelse} forall
  /Encoding WinAnsiEncoding def
  currentdict
end
/Times-BoldItalic exch definefont pop
/Courier findfont
dup length dict begin
  {1 index /FID ne {def} {pop pop} ifelse} forall
  /Encoding WinAnsiEncoding def
  currentdict
end
/Courier exch definefont pop
/Times-Italic findfont
dup length dict begin
  {1 index /FID ne {def} {pop pop} ifelse} forall
  /Encoding WinAnsiEncoding def
  currentdict
end
/Times-Italic exch definefont pop
/Times-Bold findfont
dup length dict begin
  {1 index /FID ne {def} {pop pop} ifelse} forall
  /Encoding WinAnsiEncoding def
  currentdict
end
/Times-Bold exch definefont pop
%FOPEndFontReencode
%%EndProlog
%%Page: 1 1
%%PageBoundingBox: 0 0 420 315
%%BeginPageSetup
[1 0 0 -1 0 315] CT
%%EndPageSetup
GS
[0.75 0 0 0.75 0 0] CT
1 GC
N
0 0 560 420 re
f
GR
GS
[0.75 0 0 0.75 0 0] CT
1 GC
N
0 0 560 420 re
f
GR
GS
[0.75 0 0 0.75 0 0] CT
1 GC
N
73 167 M
507 167 L
507 35 L
73 35 L
cp
f
GR
GS
[0.75 0 0 0.75 0 0] CT
0.149 GC
2 setlinecap
1 LJ
0.667 LW
N
73 167 M
507 167 L
S
GR
GS
[0.75 0 0 0.75 0 0] CT
0.149 GC
2 setlinecap
1 LJ
0.667 LW
N
73 35 M
507 35 L
S
GR
GS
[0.75 0 0 0.75 0 0] CT
0.149 GC
2 setlinecap
1 LJ
0.667 LW
N
73 167 M
73 162.66 L
S
GR
GS
[0.75 0 0 0.75 0 0] CT
0.149 GC
2 setlinecap
1 LJ
0.667 LW
N
159.8 167 M
159.8 162.66 L
S
GR
GS
[0.75 0 0 0.75 0 0] CT
0.149 GC
2 setlinecap
1 LJ
0.667 LW
N
246.6 167 M
246.6 162.66 L
S
GR
GS
[0.75 0 0 0.75 0 0] CT
0.149 GC
2 setlinecap
1 LJ
0.667 LW
N
333.4 167 M
333.4 162.66 L
S
GR
GS
[0.75 0 0 0.75 0 0] CT
0.149 GC
2 setlinecap
1 LJ
0.667 LW
N
420.2 167 M
420.2 162.66 L
S
GR
GS
[0.75 0 0 0.75 0 0] CT
0.149 GC
2 setlinecap
1 LJ
0.667 LW
N
507 167 M
507 162.66 L
S
GR
GS
[0.75 0 0 0.75 0 0] CT
0.149 GC
2 setlinecap
1 LJ
0.667 LW
N
73 35 M
73 39.34 L
S
GR
GS
[0.75 0 0 0.75 0 0] CT
0.149 GC
2 setlinecap
1 LJ
0.667 LW
N
159.8 35 M
159.8 39.34 L
S
GR
GS
[0.75 0 0 0.75 0 0] CT
0.149 GC
2 setlinecap
1 LJ
0.667 LW
N
246.6 35 M
246.6 39.34 L
S
GR
GS
[0.75 0 0 0.75 0 0] CT
0.149 GC
2 setlinecap
1 LJ
0.667 LW
N
333.4 35 M
333.4 39.34 L
S
GR
GS
[0.75 0 0 0.75 0 0] CT
0.149 GC
2 setlinecap
1 LJ
0.667 LW
N
420.2 35 M
420.2 39.34 L
S
GR
GS
[0.75 0 0 0.75 0 0] CT
0.149 GC
2 setlinecap
1 LJ
0.667 LW
N
507 35 M
507 39.34 L
S
GR
GS
[0.75 0 0 0.75 54.75 129.25] CT
0.149 GC
/Helvetica 13.333 F
GS
[1 0 0 1 0 0] CT
-11 14 moveto 
1 -1 scale
(750) t 
GR
GR
GS
[0.75 0 0 0.75 119.85 129.25] CT
0.149 GC
/Helvetica 13.333 F
GS
[1 0 0 1 0 0] CT
-11 14 moveto 
1 -1 scale
(800) t 
GR
GR
GS
[0.75 0 0 0.75 184.95 129.25] CT
0.149 GC
/Helvetica 13.333 F
GS
[1 0 0 1 0 0] CT
-11 14 moveto 
1 -1 scale
(850) t 
GR
GR
GS
[0.75 0 0 0.75 250.05 129.25] CT
0.149 GC
/Helvetica 13.333 F
GS
[1 0 0 1 0 0] CT
-11 14 moveto 
1 -1 scale
(900) t 
GR
GR
GS
[0.75 0 0 0.75 315.15001 129.25] CT
0.149 GC
/Helvetica 13.333 F
GS
[1 0 0 1 0 0] CT
-11 14 moveto 
1 -1 scale
(950) t 
GR
GR
GS
[0.75 0 0 0.75 380.25 129.25] CT
0.149 GC
/Helvetica 13.333 F
GS
[1 0 0 1 0 0] CT
-14.5 14 moveto 
1 -1 scale
(1000) t 
GR
GR
GS
[0.75 0 0 0.75 217.50016 143] CT
0.149 GC
/Helvetica 14.667 F
GS
[1 0 0 1 0 0] CT
-13 16 moveto 
1 -1 scale
(t / h) t 
GR
GR
GS
[0.75 0 0 0.75 0 0] CT
0.149 GC
2 setlinecap
1 LJ
0.667 LW
N
73 167 M
73 35 L
S
GR
GS
[0.75 0 0 0.75 0 0] CT
0.149 GC
2 setlinecap
1 LJ
0.667 LW
N
507 167 M
507 35 L
S
GR
GS
[0.75 0 0 0.75 0 0] CT
0.149 GC
2 setlinecap
1 LJ
0.667 LW
N
73 167 M
77.34 167 L
S
GR
GS
[0.75 0 0 0.75 0 0] CT
0.149 GC
2 setlinecap
1 LJ
0.667 LW
N
73 134 M
77.34 134 L
S
GR
GS
[0.75 0 0 0.75 0 0] CT
0.149 GC
2 setlinecap
1 LJ
0.667 LW
N
73 101 M
77.34 101 L
S
GR
GS
[0.75 0 0 0.75 0 0] CT
0.149 GC
2 setlinecap
1 LJ
0.667 LW
N
73 68 M
77.34 68 L
S
GR
GS
[0.75 0 0 0.75 0 0] CT
0.149 GC
2 setlinecap
1 LJ
0.667 LW
N
73 35 M
77.34 35 L
S
GR
GS
[0.75 0 0 0.75 0 0] CT
0.149 GC
2 setlinecap
1 LJ
0.667 LW
N
507 167 M
502.66 167 L
S
GR
GS
[0.75 0 0 0.75 0 0] CT
0.149 GC
2 setlinecap
1 LJ
0.667 LW
N
507 134 M
502.66 134 L
S
GR
GS
[0.75 0 0 0.75 0 0] CT
0.149 GC
2 setlinecap
1 LJ
0.667 LW
N
507 101 M
502.66 101 L
S
GR
GS
[0.75 0 0 0.75 0 0] CT
0.149 GC
2 setlinecap
1 LJ
0.667 LW
N
507 68 M
502.66 68 L
S
GR
GS
[0.75 0 0 0.75 0 0] CT
0.149 GC
2 setlinecap
1 LJ
0.667 LW
N
507 35 M
502.66 35 L
S
GR
GS
[0.75 0 0 0.75 50.74999 125.25] CT
0.149 GC
/Helvetica 13.333 F
GS
[1 0 0 1 0 0] CT
-12 5.5 moveto 
1 -1 scale
(-5) t 
GR
GR
GS
[0.75 0 0 0.75 50.74999 100.5] CT
0.149 GC
/Helvetica 13.333 F
GS
[1 0 0 1 0 0] CT
-8 5.5 moveto 
1 -1 scale
(0) t 
GR
GR
GS
[0.75 0 0 0.75 50.74999 75.75] CT
0.149 GC
/Helvetica 13.333 F
GS
[1 0 0 1 0 0] CT
-8 5.5 moveto 
1 -1 scale
(5) t 
GR
GR
GS
[0.75 0 0 0.75 50.74999 51] CT
0.149 GC
/Helvetica 13.333 F
GS
[1 0 0 1 0 0] CT
-15 5.5 moveto 
1 -1 scale
(10) t 
GR
GR
GS
[0.75 0 0 0.75 50.74999 26.25] CT
0.149 GC
/Helvetica 13.333 F
GS
[1 0 0 1 0 0] CT
-15 5.5 moveto 
1 -1 scale
(15) t 
GR
GR
GS
[0 -0.75 0.75 0 33.75 90] CT
0.149 GC
/Helvetica 14.667 F
GS
[1 0 0 1 0 0] CT
0 0 moveto 
1 -1 scale
(T / ) t 
GR
GR
GS
[0 -0.75 0.75 0 28.5 73.5] CT
0.149 GC
/Courier 10.667 F
GS
[1 0 0 1 0 0] CT
0 0 moveto 
1 -1 scale
(\260) t 
GR
GR
GS
[0 -0.75 0.75 0 33.75 69.75] CT
0.149 GC
/Helvetica 14.667 F
GS
[1 0 0 1 0 0] CT
0 0 moveto 
1 -1 scale
(C) t 
GR
GR
GS
[0.75 0 0 0.75 217.50023 24.1875] CT
/Helvetica-Bold 14.667 F
GS
[1 0 0 1 0 0] CT
-93.5 -4 moveto 
1 -1 scale
(Modelling set: Predictions) t 
GR
GR
GS
[0.75 0 0 0.75 0 0] CT
0 0.447 0.741 RC
1 LJ
0.667 LW
N
72.957 86.959 M
73 86.48 L
74.736 75.26 L
76.472 65.36 L
78.208 58.1 L
79.944 55.46 L
81.68 50.84 L
83.416 50.18 L
85.152 51.5 L
86.888 51.5 L
88.624 55.46 L
90.36 66.02 L
92.096 79.88 L
93.832 95.72 L
95.568 104.3 L
97.304 112.22 L
99.04 123.44 L
100.776 134.66 L
102.512 140.6 L
104.248 140.6 L
105.984 141.26 L
107.72 141.92 L
109.456 141.92 L
111.192 129.38 L
112.928 101 L
114.664 81.86 L
116.4 65.36 L
118.136 52.82 L
119.872 48.2 L
121.608 42.92 L
123.344 42.92 L
125.08 41.6 L
126.816 44.24 L
128.552 44.24 L
130.288 51.5 L
132.024 62.72 L
133.76 77.24 L
135.496 85.82 L
137.232 92.42 L
138.968 98.36 L
140.704 102.98 L
142.44 107.6 L
144.176 111.56 L
145.912 111.56 L
147.648 112.88 L
149.384 112.88 L
151.12 111.56 L
152.856 107.6 L
154.592 101.66 L
156.328 92.42 L
158.064 81.86 L
159.8 66.68 L
161.536 64.7 L
163.272 69.98 L
165.008 78.56 L
166.744 81.86 L
168.48 83.84 L
170.216 85.82 L
171.952 87.8 L
173.688 90.44 L
175.424 94.4 L
177.16 97.7 L
178.896 97.7 L
180.632 99.02 L
182.368 100.01 L
184.104 101 L
185.84 102.98 L
187.576 106.28 L
189.312 106.94 L
191.048 106.28 L
192.784 106.28 L
194.52 105.62 L
196.256 103.64 L
197.992 99.68 L
199.728 94.4 L
201.464 91.76 L
203.2 86.48 L
204.936 81.2 L
206.672 81.86 L
208.408 83.18 L
210.144 85.16 L
211.88 87.8 L
213.616 87.8 L
215.352 93.74 L
217.088 95.72 L
218.824 99.68 L
220.56 103.64 L
222.296 106.28 L
224.032 107.93 L
225.768 109.58 L
227.504 111.56 L
229.24 112.88 L
230.976 114.86 L
232.712 115.52 L
234.448 114.86 L
236.184 113.54 L
237.92 111.56 L
239.656 110.9 L
241.392 110.24 L
243.128 107.6 L
244.864 107.6 L
246.6 106.94 L
248.336 104.3 L
250.072 102.32 L
251.808 101 L
253.544 102.98 L
255.28 102.98 L
257.016 105.62 L
258.752 106.94 L
260.488 110.24 L
262.224 111.56 L
263.96 114.2 L
265.696 120.8 L
267.432 127.4 L
269.168 127.4 L
270.904 130.04 L
272.64 136.64 L
274.376 141.92 L
276.112 144.56 L
277.848 134 L
279.584 116.84 L
281.32 98.36 L
283.056 90.44 L
284.792 83.18 L
286.528 78.56 L
288.264 75.26 L
290 71.96 L
291.736 68 L
293.472 73.94 L
295.208 73.94 L
296.944 75.26 L
298.68 79.88 L
300.416 93.74 L
302.152 102.98 L
303.888 110.9 L
305.624 116.84 L
307.36 117.83 L
309.096 118.82 L
310.832 112.22 L
312.568 110.9 L
314.304 110.24 L
316.04 110.9 L
317.776 112.22 L
319.512 110.9 L
321.248 104.96 L
322.984 102.32 L
324.72 100.34 L
326.456 97.7 L
328.192 91.76 L
329.928 85.16 L
331.664 83.84 L
333.4 81.86 L
335.136 83.84 L
336.872 84.5 L
338.608 86.48 L
340.344 98.36 L
342.08 106.28 L
343.816 113.54 L
345.552 124.1 L
347.288 128.72 L
349.024 134.99 L
350.76 141.26 L
352.496 143.24 L
354.232 147.86 L
355.968 148.52 L
357.704 148.52 L
359.44 149.18 L
361.176 139.28 L
362.912 126.74 L
364.648 114.86 L
366.384 109.58 L
368.12 107.6 L
369.856 104.3 L
371.592 101.66 L
373.328 97.7 L
375.064 93.74 L
376.8 92.42 L
378.536 91.1 L
380.272 94.4 L
382.008 97.7 L
383.744 111.56 L
385.48 128.72 L
387.216 135.32 L
388.952 145.22 L
390.688 147.86 L
392.424 150.5 L
394.16 151.16 L
395.896 153.14 L
397.632 155.78 L
399.368 156.44 L
401.104 151.82 L
402.84 143.9 L
404.576 129.38 L
406.312 115.52 L
408.048 100.34 L
409.784 98.36 L
411.52 98.36 L
413.256 96.38 L
414.992 92.42 L
416.728 91.76 L
418.464 90.44 L
420.2 96.38 L
421.936 94.4 L
423.672 99.02 L
425.408 104.96 L
427.144 110.9 L
428.88 116.84 L
430.616 122.12 L
432.352 125.75 L
434.088 129.38 L
435.824 131.36 L
437.56 130.7 L
439.296 132.68 L
441.032 134 L
442.768 133.34 L
444.504 125.42 L
446.24 111.56 L
447.976 108.26 L
449.712 102.98 L
451.448 102.32 L
453.184 99.02 L
454.92 99.68 L
456.656 102.32 L
458.392 95.72 L
460.128 94.4 L
461.864 94.4 L
463.6 94.4 L
465.336 96.38 L
467.072 101 L
468.808 103.64 L
470.544 106.28 L
472.28 108.92 L
474.016 111.89 L
475.752 114.86 L
477.488 118.82 L
479.224 126.08 L
480.96 126.74 L
482.696 126.08 L
484.432 122.78 L
486.168 117.5 L
487.904 107.6 L
489.64 93.08 L
491.376 80.54 L
493.112 64.7 L
494.848 55.46 L
496.584 56.12 L
498.32 52.82 L
500.056 54.8 L
501.792 50.84 L
503.528 52.16 L
505.264 58.1 L
507 65.36 L
507.043 65.624 L
S
GR
GS
[0.75 0 0 0.75 0 0] CT
0.851 0.325 0.098 RC
1 LJ
0.667 LW
N
72.957 92.475 M
73 92.005 L
74.736 73.35 L
76.472 69.134 L
78.208 59.753 L
79.944 54.254 L
81.68 55.178 L
83.416 50.788 L
85.152 50.317 L
86.888 55.613 L
88.624 55.759 L
90.36 65.282 L
92.096 77.321 L
93.832 90.496 L
95.568 106.77 L
97.304 111.221 L
99.04 117.751 L
100.776 130.91 L
102.512 140.83 L
104.248 145.37 L
105.984 139.576 L
107.72 140.743 L
109.456 140.468 L
111.192 136.534 L
112.928 112.65 L
114.664 81.117 L
116.4 68.215 L
118.136 55.772 L
119.872 45.526 L
121.608 45.43 L
123.344 40.843 L
125.08 44.838 L
126.816 40.715 L
128.552 48.987 L
130.288 48.979 L
132.024 62.915 L
133.76 75.593 L
135.496 89.302 L
137.232 93.787 L
138.968 99.461 L
140.704 105 L
142.44 109.315 L
144.176 110.94 L
145.912 116.092 L
147.648 112.231 L
149.384 114.852 L
151.12 113.088 L
152.856 105.286 L
154.592 96.308 L
156.328 92.635 L
158.064 82.602 L
159.8 73.389 L
161.536 56.71 L
163.272 62.395 L
165.008 72.986 L
166.744 83.284 L
168.48 81.743 L
170.216 84.278 L
171.952 89.089 L
173.688 93.942 L
175.424 95.85 L
177.16 98.809 L
178.896 101.035 L
180.632 99.127 L
182.368 101.076 L
184.104 102.8 L
185.84 101.871 L
187.576 105.644 L
189.312 107.454 L
191.048 107.62 L
192.784 106.554 L
194.52 103.676 L
196.256 98.247 L
197.992 97.75 L
199.728 92.143 L
201.464 88.918 L
203.2 90.062 L
204.936 84.515 L
206.672 79.559 L
208.408 83.039 L
210.144 83.83 L
211.88 86.984 L
213.616 91.197 L
215.352 92.408 L
217.088 100.176 L
218.824 98.512 L
220.56 102.576 L
222.296 106.348 L
224.032 108.011 L
225.768 110.047 L
227.504 110.75 L
229.24 113.689 L
230.976 112.454 L
232.712 115.735 L
234.448 116.367 L
236.184 112.252 L
237.92 106.168 L
239.656 105.95 L
241.392 106.621 L
243.128 107.251 L
244.864 103.747 L
246.6 105.911 L
248.336 106.687 L
250.072 102.8 L
251.808 100.825 L
253.544 99.2 L
255.28 105.285 L
257.016 106.267 L
258.752 109.612 L
260.488 109.514 L
262.224 112.684 L
263.96 113.969 L
265.696 116.484 L
267.432 125.619 L
269.168 130.493 L
270.904 128.47 L
272.64 130.715 L
274.376 138.669 L
276.112 143.883 L
277.848 142.641 L
279.584 121.379 L
281.32 104.743 L
283.056 86.511 L
284.792 86.114 L
286.528 79.98 L
288.264 76.32 L
290 74.291 L
291.736 71.201 L
293.472 66.935 L
295.208 79.535 L
296.944 76.608 L
298.68 81.253 L
300.416 87.17 L
302.152 103.869 L
303.888 109.285 L
305.624 116.18 L
307.36 121.3 L
309.096 119.822 L
310.832 119.944 L
312.568 111.863 L
314.304 112.425 L
316.04 111.279 L
317.776 111.453 L
319.512 108.806 L
321.248 102.405 L
322.984 97.449 L
324.72 97.622 L
326.456 97.057 L
328.192 94.976 L
329.928 87.561 L
331.664 81.216 L
333.4 84.112 L
335.136 81.256 L
336.872 84.525 L
338.608 86.123 L
340.344 92.775 L
342.08 109.095 L
343.816 112.787 L
345.552 118.857 L
347.288 130.129 L
349.024 131.015 L
350.76 137.466 L
352.496 142.138 L
354.232 143.87 L
355.968 148.59 L
357.704 147.428 L
359.44 147.404 L
361.176 144.917 L
362.912 127.156 L
364.648 116.611 L
366.384 106.423 L
368.12 102.676 L
369.856 103.206 L
371.592 100.22 L
373.328 100.018 L
375.064 94.837 L
376.8 91.91 L
378.536 92.28 L
380.272 93.191 L
382.008 101.673 L
383.744 103.8 L
385.48 121.806 L
387.216 138.912 L
388.952 139.78 L
390.688 151 L
392.424 150.225 L
394.16 150.429 L
395.896 151.944 L
397.632 153.078 L
399.368 156.712 L
401.104 155.038 L
402.84 143.928 L
404.576 130.354 L
406.312 116.921 L
408.048 106.104 L
409.784 91.913 L
411.52 96.353 L
413.256 97.177 L
414.992 94.398 L
416.728 89.732 L
418.464 91.274 L
420.2 89.985 L
421.936 100.282 L
423.672 98.818 L
425.408 108.297 L
427.144 111.912 L
428.88 117.153 L
430.616 122.411 L
432.352 126.348 L
434.088 130.004 L
435.824 131.327 L
437.56 134.877 L
439.296 131.318 L
441.032 133.421 L
442.768 134.306 L
444.504 128.148 L
446.24 113.338 L
447.976 99.268 L
449.712 103.659 L
451.448 100.115 L
453.184 100.821 L
454.92 95.937 L
456.656 99.221 L
458.392 102.51 L
460.128 93.44 L
461.864 93.959 L
463.6 95.599 L
465.336 98.937 L
467.072 101.729 L
468.808 106.848 L
470.544 107.056 L
472.28 110.485 L
474.016 112.061 L
475.752 116.135 L
477.488 116.299 L
479.224 122.852 L
480.96 130.538 L
482.696 127.173 L
484.432 125.294 L
486.168 116.158 L
487.904 107.445 L
489.64 99.142 L
491.376 83.715 L
493.112 75.481 L
494.848 58.051 L
496.584 53.51 L
498.32 57.233 L
500.056 52.15 L
501.792 58.053 L
503.528 52.63 L
505.264 55.864 L
507 67.554 L
507.043 67.732 L
S
GR
GS
[0.75 0 0 0.75 0 0] CT
1 GC
N
350 72 M
350 35 L
474 35 L
474 72 L
cp
f
GR
GS
[0.75 0 0 0.75 290.25 33.85274] CT
/Helvetica 12 F
GS
[1 0 0 1 0 0] CT
0 5 moveto 
1 -1 scale
(Measured Data) t 
GR
GR
GS
[0.75 0 0 0.75 0 0] CT
0 0.447 0.741 RC
1 LJ
0.667 LW
N
354 45.137 M
384 45.137 L
S
GR
GS
[0.75 0 0 0.75 290.25 46.39726] CT
/Helvetica 12 F
GS
[1 0 0 1 0 0] CT
0 5 moveto 
1 -1 scale
(1-step) t 
GR
GR
GS
[0.75 0 0 0.75 0 0] CT
0.851 0.325 0.098 RC
1 LJ
0.667 LW
N
354 61.863 M
384 61.863 L
S
GR
GS
[0.75 0 0 0.75 0 0] CT
0.149 GC
10.0 ML
0.667 LW
N
350 72 M
350 35 L
474 35 L
474 72 L
cp
S
GR
GS
[0.75 0 0 0.75 0 0] CT
1 GC
N
73 366 M
507 366 L
507 234 L
73 234 L
cp
f
GR
GS
[0.75 0 0 0.75 0 0] CT
0.149 GC
2 setlinecap
1 LJ
0.667 LW
N
73 366 M
507 366 L
S
GR
GS
[0.75 0 0 0.75 0 0] CT
0.149 GC
2 setlinecap
1 LJ
0.667 LW
N
73 234 M
507 234 L
S
GR
GS
[0.75 0 0 0.75 0 0] CT
0.149 GC
2 setlinecap
1 LJ
0.667 LW
N
73 366 M
73 361.66 L
S
GR
GS
[0.75 0 0 0.75 0 0] CT
0.149 GC
2 setlinecap
1 LJ
0.667 LW
N
159.8 366 M
159.8 361.66 L
S
GR
GS
[0.75 0 0 0.75 0 0] CT
0.149 GC
2 setlinecap
1 LJ
0.667 LW
N
246.6 366 M
246.6 361.66 L
S
GR
GS
[0.75 0 0 0.75 0 0] CT
0.149 GC
2 setlinecap
1 LJ
0.667 LW
N
333.4 366 M
333.4 361.66 L
S
GR
GS
[0.75 0 0 0.75 0 0] CT
0.149 GC
2 setlinecap
1 LJ
0.667 LW
N
420.2 366 M
420.2 361.66 L
S
GR
GS
[0.75 0 0 0.75 0 0] CT
0.149 GC
2 setlinecap
1 LJ
0.667 LW
N
507 366 M
507 361.66 L
S
GR
GS
[0.75 0 0 0.75 0 0] CT
0.149 GC
2 setlinecap
1 LJ
0.667 LW
N
73 234 M
73 238.34 L
S
GR
GS
[0.75 0 0 0.75 0 0] CT
0.149 GC
2 setlinecap
1 LJ
0.667 LW
N
159.8 234 M
159.8 238.34 L
S
GR
GS
[0.75 0 0 0.75 0 0] CT
0.149 GC
2 setlinecap
1 LJ
0.667 LW
N
246.6 234 M
246.6 238.34 L
S
GR
GS
[0.75 0 0 0.75 0 0] CT
0.149 GC
2 setlinecap
1 LJ
0.667 LW
N
333.4 234 M
333.4 238.34 L
S
GR
GS
[0.75 0 0 0.75 0 0] CT
0.149 GC
2 setlinecap
1 LJ
0.667 LW
N
420.2 234 M
420.2 238.34 L
S
GR
GS
[0.75 0 0 0.75 0 0] CT
0.149 GC
2 setlinecap
1 LJ
0.667 LW
N
507 234 M
507 238.34 L
S
GR
GS
[0.75 0 0 0.75 54.75 278.50001] CT
0.149 GC
/Helvetica 13.333 F
GS
[1 0 0 1 0 0] CT
-11 14 moveto 
1 -1 scale
(750) t 
GR
GR
GS
[0.75 0 0 0.75 119.85 278.50001] CT
0.149 GC
/Helvetica 13.333 F
GS
[1 0 0 1 0 0] CT
-11 14 moveto 
1 -1 scale
(800) t 
GR
GR
GS
[0.75 0 0 0.75 184.95 278.50001] CT
0.149 GC
/Helvetica 13.333 F
GS
[1 0 0 1 0 0] CT
-11 14 moveto 
1 -1 scale
(850) t 
GR
GR
GS
[0.75 0 0 0.75 250.05 278.50001] CT
0.149 GC
/Helvetica 13.333 F
GS
[1 0 0 1 0 0] CT
-11 14 moveto 
1 -1 scale
(900) t 
GR
GR
GS
[0.75 0 0 0.75 315.15001 278.50001] CT
0.149 GC
/Helvetica 13.333 F
GS
[1 0 0 1 0 0] CT
-11 14 moveto 
1 -1 scale
(950) t 
GR
GR
GS
[0.75 0 0 0.75 380.25 278.50001] CT
0.149 GC
/Helvetica 13.333 F
GS
[1 0 0 1 0 0] CT
-14.5 14 moveto 
1 -1 scale
(1000) t 
GR
GR
GS
[0.75 0 0 0.75 217.50016 292.24999] CT
0.149 GC
/Helvetica 14.667 F
GS
[1 0 0 1 0 0] CT
-13 16 moveto 
1 -1 scale
(t / h) t 
GR
GR
GS
[0.75 0 0 0.75 0 0] CT
0.149 GC
2 setlinecap
1 LJ
0.667 LW
N
73 366 M
73 234 L
S
GR
GS
[0.75 0 0 0.75 0 0] CT
0.149 GC
2 setlinecap
1 LJ
0.667 LW
N
507 366 M
507 234 L
S
GR
GS
[0.75 0 0 0.75 0 0] CT
0.149 GC
2 setlinecap
1 LJ
0.667 LW
N
73 366 M
77.34 366 L
S
GR
GS
[0.75 0 0 0.75 0 0] CT
0.149 GC
2 setlinecap
1 LJ
0.667 LW
N
73 333 M
77.34 333 L
S
GR
GS
[0.75 0 0 0.75 0 0] CT
0.149 GC
2 setlinecap
1 LJ
0.667 LW
N
73 300 M
77.34 300 L
S
GR
GS
[0.75 0 0 0.75 0 0] CT
0.149 GC
2 setlinecap
1 LJ
0.667 LW
N
73 267 M
77.34 267 L
S
GR
GS
[0.75 0 0 0.75 0 0] CT
0.149 GC
2 setlinecap
1 LJ
0.667 LW
N
73 234 M
77.34 234 L
S
GR
GS
[0.75 0 0 0.75 0 0] CT
0.149 GC
2 setlinecap
1 LJ
0.667 LW
N
507 366 M
502.66 366 L
S
GR
GS
[0.75 0 0 0.75 0 0] CT
0.149 GC
2 setlinecap
1 LJ
0.667 LW
N
507 333 M
502.66 333 L
S
GR
GS
[0.75 0 0 0.75 0 0] CT
0.149 GC
2 setlinecap
1 LJ
0.667 LW
N
507 300 M
502.66 300 L
S
GR
GS
[0.75 0 0 0.75 0 0] CT
0.149 GC
2 setlinecap
1 LJ
0.667 LW
N
507 267 M
502.66 267 L
S
GR
GS
[0.75 0 0 0.75 0 0] CT
0.149 GC
2 setlinecap
1 LJ
0.667 LW
N
507 234 M
502.66 234 L
S
GR
GS
[0.75 0 0 0.75 50.74999 274.5] CT
0.149 GC
/Helvetica 13.333 F
GS
[1 0 0 1 0 0] CT
-12 5.5 moveto 
1 -1 scale
(-5) t 
GR
GR
GS
[0.75 0 0 0.75 50.74999 249.75] CT
0.149 GC
/Helvetica 13.333 F
GS
[1 0 0 1 0 0] CT
-8 5.5 moveto 
1 -1 scale
(0) t 
GR
GR
GS
[0.75 0 0 0.75 50.74999 225] CT
0.149 GC
/Helvetica 13.333 F
GS
[1 0 0 1 0 0] CT
-8 5.5 moveto 
1 -1 scale
(5) t 
GR
GR
GS
[0.75 0 0 0.75 50.74999 200.25] CT
0.149 GC
/Helvetica 13.333 F
GS
[1 0 0 1 0 0] CT
-15 5.5 moveto 
1 -1 scale
(10) t 
GR
GR
GS
[0.75 0 0 0.75 50.74999 175.5] CT
0.149 GC
/Helvetica 13.333 F
GS
[1 0 0 1 0 0] CT
-15 5.5 moveto 
1 -1 scale
(15) t 
GR
GR
GS
[0 -0.75 0.75 0 33.75 239.25] CT
0.149 GC
/Helvetica 14.667 F
GS
[1 0 0 1 0 0] CT
0 0 moveto 
1 -1 scale
(T / ) t 
GR
GR
GS
[0 -0.75 0.75 0 28.5 222.75] CT
0.149 GC
/Courier 10.667 F
GS
[1 0 0 1 0 0] CT
0 0 moveto 
1 -1 scale
(\260) t 
GR
GR
GS
[0 -0.75 0.75 0 33.75 219] CT
0.149 GC
/Helvetica 14.667 F
GS
[1 0 0 1 0 0] CT
0 0 moveto 
1 -1 scale
(C) t 
GR
GR
GS
[0.75 0 0 0.75 217.50023 173.4375] CT
/Helvetica-Bold 14.667 F
GS
[1 0 0 1 0 0] CT
-93.5 -4 moveto 
1 -1 scale
(Modelling set: Predictions) t 
GR
GR
GS
[0.75 0 0 0.75 0 0] CT
0 0.447 0.741 RC
1 LJ
0.667 LW
N
72.957 285.959 M
73 285.48 L
74.736 274.26 L
76.472 264.36 L
78.208 257.1 L
79.944 254.46 L
81.68 249.84 L
83.416 249.18 L
85.152 250.5 L
86.888 250.5 L
88.624 254.46 L
90.36 265.02 L
92.096 278.88 L
93.832 294.72 L
95.568 303.3 L
97.304 311.22 L
99.04 322.44 L
100.776 333.66 L
102.512 339.6 L
104.248 339.6 L
105.984 340.26 L
107.72 340.92 L
109.456 340.92 L
111.192 328.38 L
112.928 300 L
114.664 280.86 L
116.4 264.36 L
118.136 251.82 L
119.872 247.2 L
121.608 241.92 L
123.344 241.92 L
125.08 240.6 L
126.816 243.24 L
128.552 243.24 L
130.288 250.5 L
132.024 261.72 L
133.76 276.24 L
135.496 284.82 L
137.232 291.42 L
138.968 297.36 L
140.704 301.98 L
142.44 306.6 L
144.176 310.56 L
145.912 310.56 L
147.648 311.88 L
149.384 311.88 L
151.12 310.56 L
152.856 306.6 L
154.592 300.66 L
156.328 291.42 L
158.064 280.86 L
159.8 265.68 L
161.536 263.7 L
163.272 268.98 L
165.008 277.56 L
166.744 280.86 L
168.48 282.84 L
170.216 284.82 L
171.952 286.8 L
173.688 289.44 L
175.424 293.4 L
177.16 296.7 L
178.896 296.7 L
180.632 298.02 L
182.368 299.01 L
184.104 300 L
185.84 301.98 L
187.576 305.28 L
189.312 305.94 L
191.048 305.28 L
192.784 305.28 L
194.52 304.62 L
196.256 302.64 L
197.992 298.68 L
199.728 293.4 L
201.464 290.76 L
203.2 285.48 L
204.936 280.2 L
206.672 280.86 L
208.408 282.18 L
210.144 284.16 L
211.88 286.8 L
213.616 286.8 L
215.352 292.74 L
217.088 294.72 L
218.824 298.68 L
220.56 302.64 L
222.296 305.28 L
224.032 306.93 L
225.768 308.58 L
227.504 310.56 L
229.24 311.88 L
230.976 313.86 L
232.712 314.52 L
234.448 313.86 L
236.184 312.54 L
237.92 310.56 L
239.656 309.9 L
241.392 309.24 L
243.128 306.6 L
244.864 306.6 L
246.6 305.94 L
248.336 303.3 L
250.072 301.32 L
251.808 300 L
253.544 301.98 L
255.28 301.98 L
257.016 304.62 L
258.752 305.94 L
260.488 309.24 L
262.224 310.56 L
263.96 313.2 L
265.696 319.8 L
267.432 326.4 L
269.168 326.4 L
270.904 329.04 L
272.64 335.64 L
274.376 340.92 L
276.112 343.56 L
277.848 333 L
279.584 315.84 L
281.32 297.36 L
283.056 289.44 L
284.792 282.18 L
286.528 277.56 L
288.264 274.26 L
290 270.96 L
291.736 267 L
293.472 272.94 L
295.208 272.94 L
296.944 274.26 L
298.68 278.88 L
300.416 292.74 L
302.152 301.98 L
303.888 309.9 L
305.624 315.84 L
307.36 316.83 L
309.096 317.82 L
310.832 311.22 L
312.568 309.9 L
314.304 309.24 L
316.04 309.9 L
317.776 311.22 L
319.512 309.9 L
321.248 303.96 L
322.984 301.32 L
324.72 299.34 L
326.456 296.7 L
328.192 290.76 L
329.928 284.16 L
331.664 282.84 L
333.4 280.86 L
335.136 282.84 L
336.872 283.5 L
338.608 285.48 L
340.344 297.36 L
342.08 305.28 L
343.816 312.54 L
345.552 323.1 L
347.288 327.72 L
349.024 333.99 L
350.76 340.26 L
352.496 342.24 L
354.232 346.86 L
355.968 347.52 L
357.704 347.52 L
359.44 348.18 L
361.176 338.28 L
362.912 325.74 L
364.648 313.86 L
366.384 308.58 L
368.12 306.6 L
369.856 303.3 L
371.592 300.66 L
373.328 296.7 L
375.064 292.74 L
376.8 291.42 L
378.536 290.1 L
380.272 293.4 L
382.008 296.7 L
383.744 310.56 L
385.48 327.72 L
387.216 334.32 L
388.952 344.22 L
390.688 346.86 L
392.424 349.5 L
394.16 350.16 L
395.896 352.14 L
397.632 354.78 L
399.368 355.44 L
401.104 350.82 L
402.84 342.9 L
404.576 328.38 L
406.312 314.52 L
408.048 299.34 L
409.784 297.36 L
411.52 297.36 L
413.256 295.38 L
414.992 291.42 L
416.728 290.76 L
418.464 289.44 L
420.2 295.38 L
421.936 293.4 L
423.672 298.02 L
425.408 303.96 L
427.144 309.9 L
428.88 315.84 L
430.616 321.12 L
432.352 324.75 L
434.088 328.38 L
435.824 330.36 L
437.56 329.7 L
439.296 331.68 L
441.032 333 L
442.768 332.34 L
444.504 324.42 L
446.24 310.56 L
447.976 307.26 L
449.712 301.98 L
451.448 301.32 L
453.184 298.02 L
454.92 298.68 L
456.656 301.32 L
458.392 294.72 L
460.128 293.4 L
461.864 293.4 L
463.6 293.4 L
465.336 295.38 L
467.072 300 L
468.808 302.64 L
470.544 305.28 L
472.28 307.92 L
474.016 310.89 L
475.752 313.86 L
477.488 317.82 L
479.224 325.08 L
480.96 325.74 L
482.696 325.08 L
484.432 321.78 L
486.168 316.5 L
487.904 306.6 L
489.64 292.08 L
491.376 279.54 L
493.112 263.7 L
494.848 254.46 L
496.584 255.12 L
498.32 251.82 L
500.056 253.8 L
501.792 249.84 L
503.528 251.16 L
505.264 257.1 L
507 264.36 L
507.043 264.624 L
S
GR
GS
[0.75 0 0 0.75 0 0] CT
0.851 0.325 0.098 RC
1 LJ
0.667 LW
N
72.957 307.425 M
73 307.218 L
74.736 297.889 L
76.472 295.64 L
78.208 289.235 L
79.944 284.419 L
81.68 279.404 L
83.416 270.745 L
85.152 265.503 L
86.888 263.293 L
88.624 269.874 L
90.36 275.995 L
92.096 284.819 L
93.832 294.299 L
95.568 297.995 L
97.304 304.396 L
99.04 310.867 L
100.776 312.712 L
102.512 317.239 L
104.248 323.485 L
105.984 328.41 L
107.72 333.87 L
109.456 330.725 L
111.192 326.427 L
112.928 318.195 L
114.664 307.665 L
116.4 294.641 L
118.136 281.052 L
119.872 275.057 L
121.608 269.945 L
123.344 266.771 L
125.08 258.886 L
126.816 247.396 L
128.552 251.005 L
130.288 254.362 L
132.024 262.512 L
133.76 277.418 L
135.496 286.23 L
137.232 297.158 L
138.968 302.345 L
140.704 312.763 L
142.44 315.716 L
144.176 322.015 L
145.912 325.605 L
147.648 328.577 L
149.384 326.644 L
151.12 325.494 L
152.856 318.106 L
154.592 303.21 L
156.328 289.055 L
158.064 278.245 L
159.8 265.784 L
161.536 259.929 L
163.272 253.963 L
165.008 251.94 L
166.744 255.588 L
168.48 260.551 L
170.216 261.15 L
171.952 264.735 L
173.688 267.951 L
175.424 284.881 L
177.16 298.76 L
178.896 308.214 L
180.632 309.802 L
182.368 313.656 L
184.104 317.201 L
185.84 316.447 L
187.576 314.541 L
189.312 312.994 L
191.048 311.895 L
192.784 309.317 L
194.52 306.685 L
196.256 297.354 L
197.992 287.117 L
199.728 278.934 L
201.464 272.895 L
203.2 269.891 L
204.936 269.23 L
206.672 271.064 L
208.408 275.201 L
210.144 281.22 L
211.88 284.239 L
213.616 288.91 L
215.352 296.988 L
217.088 299.902 L
218.824 301.851 L
220.56 307.033 L
222.296 309.072 L
224.032 311.28 L
225.768 313.423 L
227.504 311.338 L
229.24 314.108 L
230.976 309.957 L
232.712 311.11 L
234.448 312.732 L
236.184 310.779 L
237.92 303.167 L
239.656 294.833 L
241.392 288.528 L
243.128 282.952 L
244.864 281.507 L
246.6 279.351 L
248.336 278.915 L
250.072 281.896 L
251.808 287.974 L
253.544 292.144 L
255.28 296.757 L
257.016 301.241 L
258.752 309.386 L
260.488 314.166 L
262.224 314.577 L
263.96 317.035 L
265.696 319.359 L
267.432 325.065 L
269.168 324.051 L
270.904 325.349 L
272.64 323.697 L
274.376 324.213 L
276.112 323.559 L
277.848 321.995 L
279.584 318.08 L
281.32 311.913 L
283.056 301.955 L
284.792 298.591 L
286.528 300.419 L
288.264 299.764 L
290 297.465 L
291.736 288.067 L
293.472 283.367 L
295.208 279.858 L
296.944 286.647 L
298.68 290.285 L
300.416 296.606 L
302.152 302.485 L
303.888 305.654 L
305.624 307.301 L
307.36 317.46 L
309.096 316.038 L
310.832 317.673 L
312.568 320.601 L
314.304 329.666 L
316.04 330.386 L
317.776 331.412 L
319.512 326.306 L
321.248 311.66 L
322.984 300.108 L
324.72 285.103 L
326.456 279.108 L
328.192 274.487 L
329.928 272.756 L
331.664 272.83 L
333.4 275.802 L
335.136 279.115 L
336.872 283.479 L
338.608 286.843 L
340.344 292.956 L
342.08 298.092 L
343.816 303.241 L
345.552 311.416 L
347.288 313.857 L
349.024 319.164 L
350.76 320.825 L
352.496 320.924 L
354.232 326.395 L
355.968 323.835 L
357.704 324.627 L
359.44 329.333 L
361.176 324.618 L
362.912 319.959 L
364.648 315.38 L
366.384 309.604 L
368.12 305.129 L
369.856 297.563 L
371.592 292.623 L
373.328 291.262 L
375.064 284.561 L
376.8 284.274 L
378.536 283.879 L
380.272 290.29 L
382.008 301.854 L
383.744 310.31 L
385.48 318.485 L
387.216 322.109 L
388.952 326.074 L
390.688 330.968 L
392.424 334.278 L
394.16 337.096 L
395.896 335.955 L
397.632 343.676 L
399.368 349.805 L
401.104 345.21 L
402.84 343.921 L
404.576 328.434 L
406.312 317.238 L
408.048 309.465 L
409.784 304.769 L
411.52 302.549 L
413.256 298.366 L
414.992 292.559 L
416.728 290.408 L
418.464 288.4 L
420.2 286.986 L
421.936 283.641 L
423.672 296.11 L
425.408 307.997 L
427.144 316.068 L
428.88 321.765 L
430.616 329.464 L
432.352 332.707 L
434.088 341.922 L
435.824 337.87 L
437.56 340.881 L
439.296 339.795 L
441.032 339.254 L
442.768 338.45 L
444.504 332.705 L
446.24 320.842 L
447.976 308.678 L
449.712 299.825 L
451.448 291.834 L
453.184 290.387 L
454.92 288.547 L
456.656 286.396 L
458.392 283.344 L
460.128 283.46 L
461.864 292.654 L
463.6 293.619 L
465.336 300.776 L
467.072 305.844 L
468.808 315.502 L
470.544 322.372 L
472.28 320.523 L
474.016 324.678 L
475.752 328.53 L
477.488 328.271 L
479.224 327.973 L
480.96 329.06 L
482.696 327.211 L
484.432 326.61 L
486.168 320.136 L
487.904 309.864 L
489.64 300.041 L
491.376 295.241 L
493.112 294.522 L
494.848 288.854 L
496.584 287.452 L
498.32 283.903 L
500.056 283.372 L
501.792 282.924 L
503.528 279.3 L
505.264 279.028 L
507 276.599 L
507.043 276.767 L
S
GR
GS
[0.75 0 0 0.75 0 0] CT
1 GC
N
354 272 M
354 235 L
478 235 L
478 272 L
cp
f
GR
GS
[0.75 0 0 0.75 293.25 183.85275] CT
/Helvetica 12 F
GS
[1 0 0 1 0 0] CT
0 5 moveto 
1 -1 scale
(Measured Data) t 
GR
GR
GS
[0.75 0 0 0.75 0 0] CT
0 0.447 0.741 RC
1 LJ
0.667 LW
N
358 245.137 M
388 245.137 L
S
GR
GS
[0.75 0 0 0.75 293.25 196.39725] CT
/Helvetica 12 F
GS
[1 0 0 1 0 0] CT
0 5 moveto 
1 -1 scale
(8-step) t 
GR
GR
GS
[0.75 0 0 0.75 0 0] CT
0.851 0.325 0.098 RC
1 LJ
0.667 LW
N
358 261.863 M
388 261.863 L
S
GR
GS
[0.75 0 0 0.75 0 0] CT
0.149 GC
10.0 ML
0.667 LW
N
354 272 M
354 235 L
478 235 L
478 272 L
cp
S
GR
%%Trailer
%%Pages: 1
%%EOF
