%!PS-Adobe-3.0 EPSF-3.0
%%Creator: (MATLAB, The Mathworks, Inc. Version 9.0.0.370719 \(R2016a\). Operating System: Windows 8)
%%Title: H:/Skolan/GitTogether/tsaproj/Report/Img/BTestPred.eps
%%CreationDate: 2018-01-11T23:01:24
%%Pages: (atend)
%%BoundingBox: 0 0 420 315
%%LanguageLevel: 3
%%EndComments
%%BeginProlog
%%BeginResource: procset (Apache XML Graphics Std ProcSet) 1.2 0
%%Version: 1.2 0
%%Copyright: (Copyright 2001-2003,2010 The Apache Software Foundation. License terms: http://www.apache.org/licenses/LICENSE-2.0)
/bd{bind def}bind def
/ld{load def}bd
/GR/grestore ld
/M/moveto ld
/LJ/setlinejoin ld
/C/curveto ld
/f/fill ld
/LW/setlinewidth ld
/GC/setgray ld
/t/show ld
/N/newpath ld
/CT/concat ld
/cp/closepath ld
/S/stroke ld
/L/lineto ld
/CC/setcmykcolor ld
/A/ashow ld
/GS/gsave ld
/RC/setrgbcolor ld
/RM/rmoveto ld
/ML/setmiterlimit ld
/re {4 2 roll M
1 index 0 rlineto
0 exch rlineto
neg 0 rlineto
cp } bd
/_ctm matrix def
/_tm matrix def
/BT { _ctm currentmatrix pop matrix _tm copy pop 0 0 moveto } bd
/ET { _ctm setmatrix } bd
/iTm { _ctm setmatrix _tm concat } bd
/Tm { _tm astore pop iTm 0 0 moveto } bd
/ux 0.0 def
/uy 0.0 def
/F {
  /Tp exch def
  /Tf exch def
  Tf findfont Tp scalefont setfont
  /cf Tf def  /cs Tp def
} bd
/ULS {currentpoint /uy exch def /ux exch def} bd
/ULE {
  /Tcx currentpoint pop def
  gsave
  newpath
  cf findfont cs scalefont dup
  /FontMatrix get 0 get /Ts exch def /FontInfo get dup
  /UnderlinePosition get Ts mul /To exch def
  /UnderlineThickness get Ts mul /Tt exch def
  ux uy To add moveto  Tcx uy To add lineto
  Tt setlinewidth stroke
  grestore
} bd
/OLE {
  /Tcx currentpoint pop def
  gsave
  newpath
  cf findfont cs scalefont dup
  /FontMatrix get 0 get /Ts exch def /FontInfo get dup
  /UnderlinePosition get Ts mul /To exch def
  /UnderlineThickness get Ts mul /Tt exch def
  ux uy To add cs add moveto Tcx uy To add cs add lineto
  Tt setlinewidth stroke
  grestore
} bd
/SOE {
  /Tcx currentpoint pop def
  gsave
  newpath
  cf findfont cs scalefont dup
  /FontMatrix get 0 get /Ts exch def /FontInfo get dup
  /UnderlinePosition get Ts mul /To exch def
  /UnderlineThickness get Ts mul /Tt exch def
  ux uy To add cs 10 mul 26 idiv add moveto Tcx uy To add cs 10 mul 26 idiv add lineto
  Tt setlinewidth stroke
  grestore
} bd
/QT {
/Y22 exch store
/X22 exch store
/Y21 exch store
/X21 exch store
currentpoint
/Y21 load 2 mul add 3 div exch
/X21 load 2 mul add 3 div exch
/X21 load 2 mul /X22 load add 3 div
/Y21 load 2 mul /Y22 load add 3 div
/X22 load /Y22 load curveto
} bd
/SSPD {
dup length /d exch dict def
{
/v exch def
/k exch def
currentpagedevice k known {
/cpdv currentpagedevice k get def
v cpdv ne {
/upd false def
/nullv v type /nulltype eq def
/nullcpdv cpdv type /nulltype eq def
nullv nullcpdv or
{
/upd true def
} {
/sametype v type cpdv type eq def
sametype {
v type /arraytype eq {
/vlen v length def
/cpdvlen cpdv length def
vlen cpdvlen eq {
0 1 vlen 1 sub {
/i exch def
/obj v i get def
/cpdobj cpdv i get def
obj cpdobj ne {
/upd true def
exit
} if
} for
} {
/upd true def
} ifelse
} {
v type /dicttype eq {
v {
/dv exch def
/dk exch def
/cpddv cpdv dk get def
dv cpddv ne {
/upd true def
exit
} if
} forall
} {
/upd true def
} ifelse
} ifelse
} if
} ifelse
upd true eq {
d k v put
} if
} if
} if
} forall
d length 0 gt {
d setpagedevice
} if
} bd
%%EndResource
%%BeginResource: procset (Apache XML Graphics EPS ProcSet) 1.0 0
%%Version: 1.0 0
%%Copyright: (Copyright 2002-2003 The Apache Software Foundation. License terms: http://www.apache.org/licenses/LICENSE-2.0)
/BeginEPSF { %def
/b4_Inc_state save def         % Save state for cleanup
/dict_count countdictstack def % Count objects on dict stack
/op_count count 1 sub def      % Count objects on operand stack
userdict begin                 % Push userdict on dict stack
/showpage { } def              % Redefine showpage, { } = null proc
0 setgray 0 setlinecap         % Prepare graphics state
1 setlinewidth 0 setlinejoin
10 setmiterlimit [ ] 0 setdash newpath
/languagelevel where           % If level not equal to 1 then
{pop languagelevel             % set strokeadjust and
1 ne                           % overprint to their defaults.
{false setstrokeadjust false setoverprint
} if
} if
} bd
/EndEPSF { %def
count op_count sub {pop} repeat            % Clean up stacks
countdictstack dict_count sub {end} repeat
b4_Inc_state restore
} bd
%%EndResource
%FOPBeginFontDict
%%IncludeResource: font Courier-Bold
%%IncludeResource: font Helvetica
%%IncludeResource: font Courier-BoldOblique
%%IncludeResource: font Courier-Oblique
%%IncludeResource: font Times-Roman
%%IncludeResource: font Helvetica-BoldOblique
%%IncludeResource: font Helvetica-Bold
%%IncludeResource: font Helvetica-Oblique
%%IncludeResource: font Times-BoldItalic
%%IncludeResource: font Courier
%%IncludeResource: font Times-Italic
%%IncludeResource: font Times-Bold
%%IncludeResource: font Symbol
%%IncludeResource: font ZapfDingbats
%FOPEndFontDict
%%BeginResource: encoding WinAnsiEncoding
/WinAnsiEncoding [
/.notdef /.notdef /.notdef /.notdef /.notdef
/.notdef /.notdef /.notdef /.notdef /.notdef
/.notdef /.notdef /.notdef /.notdef /.notdef
/.notdef /.notdef /.notdef /.notdef /.notdef
/.notdef /.notdef /.notdef /.notdef /.notdef
/.notdef /.notdef /.notdef /.notdef /.notdef
/.notdef /.notdef /space /exclam /quotedbl
/numbersign /dollar /percent /ampersand /quotesingle
/parenleft /parenright /asterisk /plus /comma
/hyphen /period /slash /zero /one
/two /three /four /five /six
/seven /eight /nine /colon /semicolon
/less /equal /greater /question /at
/A /B /C /D /E
/F /G /H /I /J
/K /L /M /N /O
/P /Q /R /S /T
/U /V /W /X /Y
/Z /bracketleft /backslash /bracketright /asciicircum
/underscore /quoteleft /a /b /c
/d /e /f /g /h
/i /j /k /l /m
/n /o /p /q /r
/s /t /u /v /w
/x /y /z /braceleft /bar
/braceright /asciitilde /bullet /Euro /bullet
/quotesinglbase /florin /quotedblbase /ellipsis /dagger
/daggerdbl /circumflex /perthousand /Scaron /guilsinglleft
/OE /bullet /Zcaron /bullet /bullet
/quoteleft /quoteright /quotedblleft /quotedblright /bullet
/endash /emdash /asciitilde /trademark /scaron
/guilsinglright /oe /bullet /zcaron /Ydieresis
/space /exclamdown /cent /sterling /currency
/yen /brokenbar /section /dieresis /copyright
/ordfeminine /guillemotleft /logicalnot /sfthyphen /registered
/macron /degree /plusminus /twosuperior /threesuperior
/acute /mu /paragraph /middot /cedilla
/onesuperior /ordmasculine /guillemotright /onequarter /onehalf
/threequarters /questiondown /Agrave /Aacute /Acircumflex
/Atilde /Adieresis /Aring /AE /Ccedilla
/Egrave /Eacute /Ecircumflex /Edieresis /Igrave
/Iacute /Icircumflex /Idieresis /Eth /Ntilde
/Ograve /Oacute /Ocircumflex /Otilde /Odieresis
/multiply /Oslash /Ugrave /Uacute /Ucircumflex
/Udieresis /Yacute /Thorn /germandbls /agrave
/aacute /acircumflex /atilde /adieresis /aring
/ae /ccedilla /egrave /eacute /ecircumflex
/edieresis /igrave /iacute /icircumflex /idieresis
/eth /ntilde /ograve /oacute /ocircumflex
/otilde /odieresis /divide /oslash /ugrave
/uacute /ucircumflex /udieresis /yacute /thorn
/ydieresis
] def
%%EndResource
%FOPBeginFontReencode
/Courier-Bold findfont
dup length dict begin
  {1 index /FID ne {def} {pop pop} ifelse} forall
  /Encoding WinAnsiEncoding def
  currentdict
end
/Courier-Bold exch definefont pop
/Helvetica findfont
dup length dict begin
  {1 index /FID ne {def} {pop pop} ifelse} forall
  /Encoding WinAnsiEncoding def
  currentdict
end
/Helvetica exch definefont pop
/Courier-BoldOblique findfont
dup length dict begin
  {1 index /FID ne {def} {pop pop} ifelse} forall
  /Encoding WinAnsiEncoding def
  currentdict
end
/Courier-BoldOblique exch definefont pop
/Courier-Oblique findfont
dup length dict begin
  {1 index /FID ne {def} {pop pop} ifelse} forall
  /Encoding WinAnsiEncoding def
  currentdict
end
/Courier-Oblique exch definefont pop
/Times-Roman findfont
dup length dict begin
  {1 index /FID ne {def} {pop pop} ifelse} forall
  /Encoding WinAnsiEncoding def
  currentdict
end
/Times-Roman exch definefont pop
/Helvetica-BoldOblique findfont
dup length dict begin
  {1 index /FID ne {def} {pop pop} ifelse} forall
  /Encoding WinAnsiEncoding def
  currentdict
end
/Helvetica-BoldOblique exch definefont pop
/Helvetica-Bold findfont
dup length dict begin
  {1 index /FID ne {def} {pop pop} ifelse} forall
  /Encoding WinAnsiEncoding def
  currentdict
end
/Helvetica-Bold exch definefont pop
/Helvetica-Oblique findfont
dup length dict begin
  {1 index /FID ne {def} {pop pop} ifelse} forall
  /Encoding WinAnsiEncoding def
  currentdict
end
/Helvetica-Oblique exch definefont pop
/Times-BoldItalic findfont
dup length dict begin
  {1 index /FID ne {def} {pop pop} ifelse} forall
  /Encoding WinAnsiEncoding def
  currentdict
end
/Times-BoldItalic exch definefont pop
/Courier findfont
dup length dict begin
  {1 index /FID ne {def} {pop pop} ifelse} forall
  /Encoding WinAnsiEncoding def
  currentdict
end
/Courier exch definefont pop
/Times-Italic findfont
dup length dict begin
  {1 index /FID ne {def} {pop pop} ifelse} forall
  /Encoding WinAnsiEncoding def
  currentdict
end
/Times-Italic exch definefont pop
/Times-Bold findfont
dup length dict begin
  {1 index /FID ne {def} {pop pop} ifelse} forall
  /Encoding WinAnsiEncoding def
  currentdict
end
/Times-Bold exch definefont pop
%FOPEndFontReencode
%%EndProlog
%%Page: 1 1
%%PageBoundingBox: 0 0 420 315
%%BeginPageSetup
[1 0 0 -1 0 315] CT
%%EndPageSetup
GS
[0.75 0 0 0.75 0 0] CT
1 GC
N
0 0 560 420 re
f
GR
GS
[0.75 0 0 0.75 0 0] CT
1 GC
N
0 0 560 420 re
f
GR
GS
[0.75 0 0 0.75 0 0] CT
1 GC
N
73 167 M
507 167 L
507 35 L
73 35 L
cp
f
GR
GS
[0.75 0 0 0.75 0 0] CT
0.149 GC
2 setlinecap
1 LJ
0.667 LW
N
73 167 M
507 167 L
S
GR
GS
[0.75 0 0 0.75 0 0] CT
0.149 GC
2 setlinecap
1 LJ
0.667 LW
N
73 35 M
507 35 L
S
GR
GS
[0.75 0 0 0.75 0 0] CT
0.149 GC
2 setlinecap
1 LJ
0.667 LW
N
73 167 M
73 162.66 L
S
GR
GS
[0.75 0 0 0.75 0 0] CT
0.149 GC
2 setlinecap
1 LJ
0.667 LW
N
159.8 167 M
159.8 162.66 L
S
GR
GS
[0.75 0 0 0.75 0 0] CT
0.149 GC
2 setlinecap
1 LJ
0.667 LW
N
246.6 167 M
246.6 162.66 L
S
GR
GS
[0.75 0 0 0.75 0 0] CT
0.149 GC
2 setlinecap
1 LJ
0.667 LW
N
333.4 167 M
333.4 162.66 L
S
GR
GS
[0.75 0 0 0.75 0 0] CT
0.149 GC
2 setlinecap
1 LJ
0.667 LW
N
420.2 167 M
420.2 162.66 L
S
GR
GS
[0.75 0 0 0.75 0 0] CT
0.149 GC
2 setlinecap
1 LJ
0.667 LW
N
507 167 M
507 162.66 L
S
GR
GS
[0.75 0 0 0.75 0 0] CT
0.149 GC
2 setlinecap
1 LJ
0.667 LW
N
73 35 M
73 39.34 L
S
GR
GS
[0.75 0 0 0.75 0 0] CT
0.149 GC
2 setlinecap
1 LJ
0.667 LW
N
159.8 35 M
159.8 39.34 L
S
GR
GS
[0.75 0 0 0.75 0 0] CT
0.149 GC
2 setlinecap
1 LJ
0.667 LW
N
246.6 35 M
246.6 39.34 L
S
GR
GS
[0.75 0 0 0.75 0 0] CT
0.149 GC
2 setlinecap
1 LJ
0.667 LW
N
333.4 35 M
333.4 39.34 L
S
GR
GS
[0.75 0 0 0.75 0 0] CT
0.149 GC
2 setlinecap
1 LJ
0.667 LW
N
420.2 35 M
420.2 39.34 L
S
GR
GS
[0.75 0 0 0.75 0 0] CT
0.149 GC
2 setlinecap
1 LJ
0.667 LW
N
507 35 M
507 39.34 L
S
GR
GS
[0.75 0 0 0.75 54.75 129.25] CT
0.149 GC
/Helvetica 13.333 F
GS
[1 0 0 1 0 0] CT
-11 14 moveto 
1 -1 scale
(750) t 
GR
GR
GS
[0.75 0 0 0.75 119.85 129.25] CT
0.149 GC
/Helvetica 13.333 F
GS
[1 0 0 1 0 0] CT
-11 14 moveto 
1 -1 scale
(800) t 
GR
GR
GS
[0.75 0 0 0.75 184.95 129.25] CT
0.149 GC
/Helvetica 13.333 F
GS
[1 0 0 1 0 0] CT
-11 14 moveto 
1 -1 scale
(850) t 
GR
GR
GS
[0.75 0 0 0.75 250.05 129.25] CT
0.149 GC
/Helvetica 13.333 F
GS
[1 0 0 1 0 0] CT
-11 14 moveto 
1 -1 scale
(900) t 
GR
GR
GS
[0.75 0 0 0.75 315.15001 129.25] CT
0.149 GC
/Helvetica 13.333 F
GS
[1 0 0 1 0 0] CT
-11 14 moveto 
1 -1 scale
(950) t 
GR
GR
GS
[0.75 0 0 0.75 380.25 129.25] CT
0.149 GC
/Helvetica 13.333 F
GS
[1 0 0 1 0 0] CT
-14.5 14 moveto 
1 -1 scale
(1000) t 
GR
GR
GS
[0.75 0 0 0.75 217.50016 143] CT
0.149 GC
/Helvetica 14.667 F
GS
[1 0 0 1 0 0] CT
-13 16 moveto 
1 -1 scale
(t / h) t 
GR
GR
GS
[0.75 0 0 0.75 0 0] CT
0.149 GC
2 setlinecap
1 LJ
0.667 LW
N
73 167 M
73 35 L
S
GR
GS
[0.75 0 0 0.75 0 0] CT
0.149 GC
2 setlinecap
1 LJ
0.667 LW
N
507 167 M
507 35 L
S
GR
GS
[0.75 0 0 0.75 0 0] CT
0.149 GC
2 setlinecap
1 LJ
0.667 LW
N
73 153.8 M
77.34 153.8 L
S
GR
GS
[0.75 0 0 0.75 0 0] CT
0.149 GC
2 setlinecap
1 LJ
0.667 LW
N
73 120.8 M
77.34 120.8 L
S
GR
GS
[0.75 0 0 0.75 0 0] CT
0.149 GC
2 setlinecap
1 LJ
0.667 LW
N
73 87.8 M
77.34 87.8 L
S
GR
GS
[0.75 0 0 0.75 0 0] CT
0.149 GC
2 setlinecap
1 LJ
0.667 LW
N
73 54.8 M
77.34 54.8 L
S
GR
GS
[0.75 0 0 0.75 0 0] CT
0.149 GC
2 setlinecap
1 LJ
0.667 LW
N
507 153.8 M
502.66 153.8 L
S
GR
GS
[0.75 0 0 0.75 0 0] CT
0.149 GC
2 setlinecap
1 LJ
0.667 LW
N
507 120.8 M
502.66 120.8 L
S
GR
GS
[0.75 0 0 0.75 0 0] CT
0.149 GC
2 setlinecap
1 LJ
0.667 LW
N
507 87.8 M
502.66 87.8 L
S
GR
GS
[0.75 0 0 0.75 0 0] CT
0.149 GC
2 setlinecap
1 LJ
0.667 LW
N
507 54.8 M
502.66 54.8 L
S
GR
GS
[0.75 0 0 0.75 50.74999 115.35] CT
0.149 GC
/Helvetica 13.333 F
GS
[1 0 0 1 0 0] CT
-12 5.5 moveto 
1 -1 scale
(-5) t 
GR
GR
GS
[0.75 0 0 0.75 50.74999 90.6] CT
0.149 GC
/Helvetica 13.333 F
GS
[1 0 0 1 0 0] CT
-8 5.5 moveto 
1 -1 scale
(0) t 
GR
GR
GS
[0.75 0 0 0.75 50.74999 65.85] CT
0.149 GC
/Helvetica 13.333 F
GS
[1 0 0 1 0 0] CT
-8 5.5 moveto 
1 -1 scale
(5) t 
GR
GR
GS
[0.75 0 0 0.75 50.74999 41.1] CT
0.149 GC
/Helvetica 13.333 F
GS
[1 0 0 1 0 0] CT
-15 5.5 moveto 
1 -1 scale
(10) t 
GR
GR
GS
[0 -0.75 0.75 0 33.75 90] CT
0.149 GC
/Helvetica 14.667 F
GS
[1 0 0 1 0 0] CT
0 0 moveto 
1 -1 scale
(T / ) t 
GR
GR
GS
[0 -0.75 0.75 0 28.5 73.5] CT
0.149 GC
/Courier 10.667 F
GS
[1 0 0 1 0 0] CT
0 0 moveto 
1 -1 scale
(\260) t 
GR
GR
GS
[0 -0.75 0.75 0 33.75 69.75] CT
0.149 GC
/Helvetica 14.667 F
GS
[1 0 0 1 0 0] CT
0 0 moveto 
1 -1 scale
(C) t 
GR
GR
GS
[0.75 0 0 0.75 217.50023 24.1875] CT
/Helvetica-Bold 14.667 F
GS
[1 0 0 1 0 0] CT
-74 -4 moveto 
1 -1 scale
(Test set: Predictions) t 
GR
GR
GS
[0.75 0 0 0.75 0 0] CT
0 0.447 0.741 RC
1 LJ
0.667 LW
N
72.957 87.85 M
73 87.8 L
74.736 86.48 L
76.472 84.5 L
78.208 83.84 L
79.944 83.18 L
81.68 85.82 L
83.416 87.8 L
85.152 89.78 L
86.888 91.76 L
88.624 92.42 L
90.36 93.74 L
92.096 94.4 L
93.832 95.06 L
95.568 95.06 L
97.304 96.38 L
99.04 96.38 L
100.776 96.38 L
102.512 97.04 L
104.248 97.04 L
105.984 97.7 L
107.72 97.7 L
109.456 98.36 L
111.192 98.36 L
112.928 98.36 L
114.664 97.04 L
116.4 95.06 L
118.136 93.08 L
119.872 91.1 L
121.608 90.44 L
123.344 90.44 L
125.08 92.42 L
126.816 93.08 L
128.552 93.74 L
130.288 93.74 L
132.024 95.06 L
133.76 95.06 L
135.496 95.06 L
137.232 95.72 L
138.968 95.72 L
140.704 96.38 L
142.44 97.04 L
144.176 97.7 L
145.912 98.36 L
147.648 98.36 L
149.384 99.02 L
151.12 100.34 L
152.856 99.68 L
154.592 98.36 L
156.328 95.72 L
158.064 93.74 L
159.8 93.08 L
161.536 91.1 L
163.272 90.44 L
165.008 89.78 L
166.744 90.44 L
168.48 91.76 L
170.216 93.74 L
171.952 95.06 L
173.688 98.36 L
175.424 98.36 L
177.16 99.68 L
178.896 101.66 L
180.632 102.32 L
182.368 103.64 L
184.104 104.96 L
185.84 107.6 L
187.576 108.92 L
189.312 107.6 L
191.048 108.26 L
192.784 108.26 L
194.52 107.6 L
196.256 106.28 L
197.992 105.62 L
199.728 105.62 L
201.464 104.3 L
203.2 102.98 L
204.936 102.32 L
206.672 102.98 L
208.408 103.64 L
210.144 106.28 L
211.88 109.58 L
213.616 108.92 L
215.352 108.26 L
217.088 108.26 L
218.824 110.24 L
220.56 112.22 L
222.296 113.54 L
224.032 114.53 L
225.768 115.52 L
227.504 117.5 L
229.24 118.16 L
230.976 116.84 L
232.712 116.18 L
234.448 116.84 L
236.184 116.18 L
237.92 115.52 L
239.656 115.52 L
241.392 112.88 L
243.128 109.58 L
244.864 108.26 L
246.6 107.6 L
248.336 108.92 L
250.072 112.88 L
251.808 114.86 L
253.544 116.18 L
255.28 118.82 L
257.016 120.8 L
258.752 124.1 L
260.488 128.06 L
262.224 131.36 L
263.96 134 L
265.696 137.96 L
267.432 141.92 L
269.168 144.56 L
270.904 147.2 L
272.64 151.82 L
274.376 155.12 L
276.112 157.76 L
277.848 163.04 L
279.584 160.4 L
281.32 148.52 L
283.056 122.12 L
284.792 112.88 L
286.528 110.24 L
288.264 109.58 L
290 111.56 L
291.736 118.82 L
293.472 124.1 L
295.208 125.42 L
296.944 126.08 L
298.68 126.08 L
300.416 126.74 L
302.152 126.74 L
303.888 126.08 L
305.624 126.74 L
307.36 126.74 L
309.096 126.74 L
310.832 127.4 L
312.568 126.74 L
314.304 126.74 L
316.04 126.08 L
317.776 126.08 L
319.512 128.06 L
321.248 129.38 L
322.984 128.06 L
324.72 121.46 L
326.456 116.84 L
328.192 113.54 L
329.928 109.58 L
331.664 112.88 L
333.4 120.14 L
335.136 125.42 L
336.872 128.06 L
338.608 129.38 L
340.344 130.04 L
342.08 130.04 L
343.816 126.08 L
345.552 119.48 L
347.288 111.56 L
349.024 112.22 L
350.76 112.88 L
352.496 115.52 L
354.232 116.84 L
355.968 116.18 L
357.704 111.56 L
359.44 105.62 L
361.176 101 L
362.912 95.06 L
364.648 93.74 L
366.384 91.76 L
368.12 87.14 L
369.856 80.54 L
371.592 71.3 L
373.328 66.68 L
375.064 68 L
376.8 64.7 L
378.536 51.5 L
380.272 47.54 L
382.008 44.9 L
383.744 50.84 L
385.48 56.78 L
387.216 58.1 L
388.952 59.42 L
390.688 60.74 L
392.424 62.06 L
394.16 61.4 L
395.896 62.72 L
397.632 63.38 L
399.368 62.06 L
401.104 62.06 L
402.84 68 L
404.576 69.98 L
406.312 70.64 L
408.048 69.32 L
409.784 68.66 L
411.52 71.3 L
413.256 71.96 L
414.992 74.6 L
416.728 80.54 L
418.464 79.22 L
420.2 78.56 L
421.936 79.88 L
423.672 79.88 L
425.408 78.56 L
427.144 76.58 L
428.88 78.56 L
430.616 83.84 L
432.352 82.52 L
434.088 81.2 L
435.824 81.2 L
437.56 80.54 L
439.296 79.22 L
441.032 79.22 L
442.768 79.22 L
444.504 82.52 L
446.24 83.84 L
447.976 80.54 L
449.712 75.26 L
451.448 74.6 L
453.184 74.6 L
454.92 77.24 L
456.656 77.9 L
458.392 84.5 L
460.128 95.72 L
461.864 97.7 L
463.6 99.02 L
465.336 102.98 L
467.072 105.62 L
468.808 110.24 L
470.544 110.24 L
472.28 103.64 L
474.016 101.66 L
475.752 99.68 L
477.488 93.74 L
479.224 90.44 L
480.96 92.42 L
482.696 93.74 L
484.432 91.76 L
486.168 96.38 L
487.904 97.04 L
489.64 94.4 L
491.376 89.78 L
493.112 87.8 L
494.848 89.12 L
496.584 89.78 L
498.32 98.36 L
500.056 100.34 L
501.792 99.68 L
503.528 98.36 L
505.264 96.38 L
507 97.04 L
507.043 97.073 L
S
GR
GS
[0.75 0 0 0.75 0 0] CT
0.851 0.325 0.098 RC
1 LJ
0.667 LW
N
72.957 84.788 M
73 84.699 L
74.736 82.892 L
76.472 84.168 L
78.208 83.157 L
79.944 82.716 L
81.68 83.618 L
83.416 90.631 L
85.152 90.809 L
86.888 91.608 L
88.624 93.113 L
90.36 92.373 L
92.096 94.27 L
93.832 95.037 L
95.568 95.139 L
97.304 94.571 L
99.04 97.154 L
100.776 96.249 L
102.512 96.774 L
104.248 97.68 L
105.984 96.131 L
107.72 98.025 L
109.456 96.422 L
111.192 98.869 L
112.928 96.187 L
114.664 95.347 L
116.4 92.872 L
118.136 92.691 L
119.872 91.348 L
121.608 90.174 L
123.344 90.369 L
125.08 92.552 L
126.816 95.084 L
128.552 94.211 L
130.288 94.488 L
132.024 93.502 L
133.76 95.616 L
135.496 95.493 L
137.232 95.019 L
138.968 95.787 L
140.704 95.999 L
142.44 97.194 L
144.176 97.809 L
145.912 98.506 L
147.648 98.15 L
149.384 98.888 L
151.12 98.431 L
152.856 101.694 L
154.592 97.845 L
156.328 95.274 L
158.064 91.866 L
159.8 91.762 L
161.536 92.672 L
163.272 89.081 L
165.008 90.279 L
166.744 91.106 L
168.48 92.652 L
170.216 93.193 L
171.952 95.092 L
173.688 95.457 L
175.424 99.532 L
177.16 98.655 L
178.896 99.937 L
180.632 102.128 L
182.368 102.649 L
184.104 104.331 L
185.84 105.672 L
187.576 108.704 L
189.312 108.514 L
191.048 107.031 L
192.784 107.174 L
194.52 108 L
196.256 105.013 L
197.992 102.562 L
199.728 102.718 L
201.464 104.172 L
203.2 102.89 L
204.936 101.312 L
206.672 101.618 L
208.408 104.717 L
210.144 104.89 L
211.88 107.929 L
213.616 111.161 L
215.352 108.043 L
217.088 107.229 L
218.824 108.617 L
220.56 110.864 L
222.296 112.599 L
224.032 114.172 L
225.768 114.897 L
227.504 115.957 L
229.24 117.899 L
230.976 117.75 L
232.712 116.386 L
234.448 114.626 L
236.184 116.323 L
237.92 113.683 L
239.656 112.519 L
241.392 113.513 L
243.128 110.533 L
244.864 107.421 L
246.6 106.062 L
248.336 106.845 L
250.072 110.749 L
251.808 116.788 L
253.544 116.312 L
255.28 116.123 L
257.016 119.673 L
258.752 120.918 L
260.488 126.066 L
262.224 128.683 L
263.96 131.419 L
265.696 134.357 L
267.432 139.298 L
269.168 142.987 L
270.904 144.093 L
272.64 146.311 L
274.376 152.583 L
276.112 154.134 L
277.848 156.387 L
279.584 161.72 L
281.32 154.067 L
283.056 136.799 L
284.792 106.496 L
286.528 107.265 L
288.264 107.844 L
290 109.149 L
291.736 113.648 L
293.472 124.451 L
295.208 127.208 L
296.944 125.966 L
298.68 126.875 L
300.416 126.491 L
302.152 128.514 L
303.888 126.718 L
305.624 126.36 L
307.36 128.418 L
309.096 126.86 L
310.832 127.66 L
312.568 128.655 L
314.304 128.35 L
316.04 128.557 L
317.776 127.538 L
319.512 125.73 L
321.248 125.798 L
322.984 123.161 L
324.72 121.921 L
326.456 116.583 L
328.192 113.602 L
329.928 112.509 L
331.664 109.482 L
333.4 117.576 L
335.136 124.399 L
336.872 128.066 L
338.608 128.564 L
340.344 129.551 L
342.08 129.247 L
343.816 129.959 L
345.552 123.555 L
347.288 115.998 L
349.024 108.569 L
350.76 113.47 L
352.496 114.165 L
354.232 117.273 L
355.968 116.821 L
357.704 115.965 L
359.44 109.624 L
361.176 103.784 L
362.912 98.106 L
364.648 90.081 L
366.384 90.792 L
368.12 91.097 L
369.856 85.417 L
371.592 78.094 L
373.328 70.268 L
375.064 69.807 L
376.8 72.419 L
378.536 66.5 L
380.272 48.396 L
382.008 49.649 L
383.744 46.807 L
385.48 56.555 L
387.216 61.231 L
388.952 60.809 L
390.688 63.506 L
392.424 64.758 L
394.16 66.11 L
395.896 63.89 L
397.632 65.738 L
399.368 65.504 L
401.104 62.902 L
402.84 63.797 L
404.576 71.261 L
406.312 70.675 L
408.048 68.362 L
409.784 68.165 L
411.52 67.576 L
413.256 71.282 L
414.992 72.984 L
416.728 77.86 L
418.464 82.047 L
420.2 76.786 L
421.936 77.331 L
423.672 80.086 L
425.408 80.646 L
427.144 78.094 L
428.88 75.32 L
430.616 79.162 L
432.352 86.945 L
434.088 81.526 L
435.824 80.788 L
437.56 81.221 L
439.296 79.624 L
441.032 78.362 L
442.768 79.46 L
444.504 80.305 L
446.24 82.562 L
447.976 82.628 L
449.712 75.38 L
451.448 72.671 L
453.184 74.412 L
454.92 75.23 L
456.656 80.718 L
458.392 81.18 L
460.128 87.616 L
461.864 100.219 L
463.6 98.3 L
465.336 98.229 L
467.072 103.774 L
468.808 106.022 L
470.544 113.22 L
472.28 109.563 L
474.016 100.22 L
475.752 99.686 L
477.488 98.729 L
479.224 90.679 L
480.96 88.472 L
482.696 93.49 L
484.432 94.299 L
486.168 91.292 L
487.904 96.293 L
489.64 94.083 L
491.376 89.576 L
493.112 86.901 L
494.848 86.702 L
496.584 89.656 L
498.32 91.502 L
500.056 107.006 L
501.792 102.163 L
503.528 98.642 L
505.264 98.873 L
507 95.902 L
507.043 95.971 L
S
GR
GS
[0.75 0 0 0.75 0 0] CT
1 GC
N
72 73 M
72 36 L
196 36 L
196 73 L
cp
f
GR
GS
[0.75 0 0 0.75 81.75 34.60274] CT
/Helvetica 12 F
GS
[1 0 0 1 0 0] CT
0 5 moveto 
1 -1 scale
(Measured Data) t 
GR
GR
GS
[0.75 0 0 0.75 0 0] CT
0 0.447 0.741 RC
1 LJ
0.667 LW
N
76 46.137 M
106 46.137 L
S
GR
GS
[0.75 0 0 0.75 81.75 47.14726] CT
/Helvetica 12 F
GS
[1 0 0 1 0 0] CT
0 5 moveto 
1 -1 scale
(1-step) t 
GR
GR
GS
[0.75 0 0 0.75 0 0] CT
0.851 0.325 0.098 RC
1 LJ
0.667 LW
N
76 62.863 M
106 62.863 L
S
GR
GS
[0.75 0 0 0.75 0 0] CT
0.149 GC
10.0 ML
0.667 LW
N
72 73 M
72 36 L
196 36 L
196 73 L
cp
S
GR
GS
[0.75 0 0 0.75 0 0] CT
1 GC
N
73 366 M
507 366 L
507 234 L
73 234 L
cp
f
GR
GS
[0.75 0 0 0.75 0 0] CT
0.149 GC
2 setlinecap
1 LJ
0.667 LW
N
73 366 M
507 366 L
S
GR
GS
[0.75 0 0 0.75 0 0] CT
0.149 GC
2 setlinecap
1 LJ
0.667 LW
N
73 234 M
507 234 L
S
GR
GS
[0.75 0 0 0.75 0 0] CT
0.149 GC
2 setlinecap
1 LJ
0.667 LW
N
73 366 M
73 361.66 L
S
GR
GS
[0.75 0 0 0.75 0 0] CT
0.149 GC
2 setlinecap
1 LJ
0.667 LW
N
159.8 366 M
159.8 361.66 L
S
GR
GS
[0.75 0 0 0.75 0 0] CT
0.149 GC
2 setlinecap
1 LJ
0.667 LW
N
246.6 366 M
246.6 361.66 L
S
GR
GS
[0.75 0 0 0.75 0 0] CT
0.149 GC
2 setlinecap
1 LJ
0.667 LW
N
333.4 366 M
333.4 361.66 L
S
GR
GS
[0.75 0 0 0.75 0 0] CT
0.149 GC
2 setlinecap
1 LJ
0.667 LW
N
420.2 366 M
420.2 361.66 L
S
GR
GS
[0.75 0 0 0.75 0 0] CT
0.149 GC
2 setlinecap
1 LJ
0.667 LW
N
507 366 M
507 361.66 L
S
GR
GS
[0.75 0 0 0.75 0 0] CT
0.149 GC
2 setlinecap
1 LJ
0.667 LW
N
73 234 M
73 238.34 L
S
GR
GS
[0.75 0 0 0.75 0 0] CT
0.149 GC
2 setlinecap
1 LJ
0.667 LW
N
159.8 234 M
159.8 238.34 L
S
GR
GS
[0.75 0 0 0.75 0 0] CT
0.149 GC
2 setlinecap
1 LJ
0.667 LW
N
246.6 234 M
246.6 238.34 L
S
GR
GS
[0.75 0 0 0.75 0 0] CT
0.149 GC
2 setlinecap
1 LJ
0.667 LW
N
333.4 234 M
333.4 238.34 L
S
GR
GS
[0.75 0 0 0.75 0 0] CT
0.149 GC
2 setlinecap
1 LJ
0.667 LW
N
420.2 234 M
420.2 238.34 L
S
GR
GS
[0.75 0 0 0.75 0 0] CT
0.149 GC
2 setlinecap
1 LJ
0.667 LW
N
507 234 M
507 238.34 L
S
GR
GS
[0.75 0 0 0.75 54.75 278.50001] CT
0.149 GC
/Helvetica 13.333 F
GS
[1 0 0 1 0 0] CT
-11 14 moveto 
1 -1 scale
(750) t 
GR
GR
GS
[0.75 0 0 0.75 119.85 278.50001] CT
0.149 GC
/Helvetica 13.333 F
GS
[1 0 0 1 0 0] CT
-11 14 moveto 
1 -1 scale
(800) t 
GR
GR
GS
[0.75 0 0 0.75 184.95 278.50001] CT
0.149 GC
/Helvetica 13.333 F
GS
[1 0 0 1 0 0] CT
-11 14 moveto 
1 -1 scale
(850) t 
GR
GR
GS
[0.75 0 0 0.75 250.05 278.50001] CT
0.149 GC
/Helvetica 13.333 F
GS
[1 0 0 1 0 0] CT
-11 14 moveto 
1 -1 scale
(900) t 
GR
GR
GS
[0.75 0 0 0.75 315.15001 278.50001] CT
0.149 GC
/Helvetica 13.333 F
GS
[1 0 0 1 0 0] CT
-11 14 moveto 
1 -1 scale
(950) t 
GR
GR
GS
[0.75 0 0 0.75 380.25 278.50001] CT
0.149 GC
/Helvetica 13.333 F
GS
[1 0 0 1 0 0] CT
-14.5 14 moveto 
1 -1 scale
(1000) t 
GR
GR
GS
[0.75 0 0 0.75 217.50016 292.24999] CT
0.149 GC
/Helvetica 14.667 F
GS
[1 0 0 1 0 0] CT
-13 16 moveto 
1 -1 scale
(t / h) t 
GR
GR
GS
[0.75 0 0 0.75 0 0] CT
0.149 GC
2 setlinecap
1 LJ
0.667 LW
N
73 366 M
73 234 L
S
GR
GS
[0.75 0 0 0.75 0 0] CT
0.149 GC
2 setlinecap
1 LJ
0.667 LW
N
507 366 M
507 234 L
S
GR
GS
[0.75 0 0 0.75 0 0] CT
0.149 GC
2 setlinecap
1 LJ
0.667 LW
N
73 352.8 M
77.34 352.8 L
S
GR
GS
[0.75 0 0 0.75 0 0] CT
0.149 GC
2 setlinecap
1 LJ
0.667 LW
N
73 319.8 M
77.34 319.8 L
S
GR
GS
[0.75 0 0 0.75 0 0] CT
0.149 GC
2 setlinecap
1 LJ
0.667 LW
N
73 286.8 M
77.34 286.8 L
S
GR
GS
[0.75 0 0 0.75 0 0] CT
0.149 GC
2 setlinecap
1 LJ
0.667 LW
N
73 253.8 M
77.34 253.8 L
S
GR
GS
[0.75 0 0 0.75 0 0] CT
0.149 GC
2 setlinecap
1 LJ
0.667 LW
N
507 352.8 M
502.66 352.8 L
S
GR
GS
[0.75 0 0 0.75 0 0] CT
0.149 GC
2 setlinecap
1 LJ
0.667 LW
N
507 319.8 M
502.66 319.8 L
S
GR
GS
[0.75 0 0 0.75 0 0] CT
0.149 GC
2 setlinecap
1 LJ
0.667 LW
N
507 286.8 M
502.66 286.8 L
S
GR
GS
[0.75 0 0 0.75 0 0] CT
0.149 GC
2 setlinecap
1 LJ
0.667 LW
N
507 253.8 M
502.66 253.8 L
S
GR
GS
[0.75 0 0 0.75 50.74999 264.59999] CT
0.149 GC
/Helvetica 13.333 F
GS
[1 0 0 1 0 0] CT
-12 5.5 moveto 
1 -1 scale
(-5) t 
GR
GR
GS
[0.75 0 0 0.75 50.74999 239.84999] CT
0.149 GC
/Helvetica 13.333 F
GS
[1 0 0 1 0 0] CT
-8 5.5 moveto 
1 -1 scale
(0) t 
GR
GR
GS
[0.75 0 0 0.75 50.74999 215.09999] CT
0.149 GC
/Helvetica 13.333 F
GS
[1 0 0 1 0 0] CT
-8 5.5 moveto 
1 -1 scale
(5) t 
GR
GR
GS
[0.75 0 0 0.75 50.74999 190.35] CT
0.149 GC
/Helvetica 13.333 F
GS
[1 0 0 1 0 0] CT
-15 5.5 moveto 
1 -1 scale
(10) t 
GR
GR
GS
[0 -0.75 0.75 0 33.75 239.25] CT
0.149 GC
/Helvetica 14.667 F
GS
[1 0 0 1 0 0] CT
0 0 moveto 
1 -1 scale
(T / ) t 
GR
GR
GS
[0 -0.75 0.75 0 28.5 222.75] CT
0.149 GC
/Courier 10.667 F
GS
[1 0 0 1 0 0] CT
0 0 moveto 
1 -1 scale
(\260) t 
GR
GR
GS
[0 -0.75 0.75 0 33.75 219] CT
0.149 GC
/Helvetica 14.667 F
GS
[1 0 0 1 0 0] CT
0 0 moveto 
1 -1 scale
(C) t 
GR
GR
GS
[0.75 0 0 0.75 217.50023 173.4375] CT
/Helvetica-Bold 14.667 F
GS
[1 0 0 1 0 0] CT
-74 -4 moveto 
1 -1 scale
(Test set: Predictions) t 
GR
GR
GS
[0.75 0 0 0.75 0 0] CT
0 0.447 0.741 RC
1 LJ
0.667 LW
N
72.957 286.85 M
73 286.8 L
74.736 285.48 L
76.472 283.5 L
78.208 282.84 L
79.944 282.18 L
81.68 284.82 L
83.416 286.8 L
85.152 288.78 L
86.888 290.76 L
88.624 291.42 L
90.36 292.74 L
92.096 293.4 L
93.832 294.06 L
95.568 294.06 L
97.304 295.38 L
99.04 295.38 L
100.776 295.38 L
102.512 296.04 L
104.248 296.04 L
105.984 296.7 L
107.72 296.7 L
109.456 297.36 L
111.192 297.36 L
112.928 297.36 L
114.664 296.04 L
116.4 294.06 L
118.136 292.08 L
119.872 290.1 L
121.608 289.44 L
123.344 289.44 L
125.08 291.42 L
126.816 292.08 L
128.552 292.74 L
130.288 292.74 L
132.024 294.06 L
133.76 294.06 L
135.496 294.06 L
137.232 294.72 L
138.968 294.72 L
140.704 295.38 L
142.44 296.04 L
144.176 296.7 L
145.912 297.36 L
147.648 297.36 L
149.384 298.02 L
151.12 299.34 L
152.856 298.68 L
154.592 297.36 L
156.328 294.72 L
158.064 292.74 L
159.8 292.08 L
161.536 290.1 L
163.272 289.44 L
165.008 288.78 L
166.744 289.44 L
168.48 290.76 L
170.216 292.74 L
171.952 294.06 L
173.688 297.36 L
175.424 297.36 L
177.16 298.68 L
178.896 300.66 L
180.632 301.32 L
182.368 302.64 L
184.104 303.96 L
185.84 306.6 L
187.576 307.92 L
189.312 306.6 L
191.048 307.26 L
192.784 307.26 L
194.52 306.6 L
196.256 305.28 L
197.992 304.62 L
199.728 304.62 L
201.464 303.3 L
203.2 301.98 L
204.936 301.32 L
206.672 301.98 L
208.408 302.64 L
210.144 305.28 L
211.88 308.58 L
213.616 307.92 L
215.352 307.26 L
217.088 307.26 L
218.824 309.24 L
220.56 311.22 L
222.296 312.54 L
224.032 313.53 L
225.768 314.52 L
227.504 316.5 L
229.24 317.16 L
230.976 315.84 L
232.712 315.18 L
234.448 315.84 L
236.184 315.18 L
237.92 314.52 L
239.656 314.52 L
241.392 311.88 L
243.128 308.58 L
244.864 307.26 L
246.6 306.6 L
248.336 307.92 L
250.072 311.88 L
251.808 313.86 L
253.544 315.18 L
255.28 317.82 L
257.016 319.8 L
258.752 323.1 L
260.488 327.06 L
262.224 330.36 L
263.96 333 L
265.696 336.96 L
267.432 340.92 L
269.168 343.56 L
270.904 346.2 L
272.64 350.82 L
274.376 354.12 L
276.112 356.76 L
277.848 362.04 L
279.584 359.4 L
281.32 347.52 L
283.056 321.12 L
284.792 311.88 L
286.528 309.24 L
288.264 308.58 L
290 310.56 L
291.736 317.82 L
293.472 323.1 L
295.208 324.42 L
296.944 325.08 L
298.68 325.08 L
300.416 325.74 L
302.152 325.74 L
303.888 325.08 L
305.624 325.74 L
307.36 325.74 L
309.096 325.74 L
310.832 326.4 L
312.568 325.74 L
314.304 325.74 L
316.04 325.08 L
317.776 325.08 L
319.512 327.06 L
321.248 328.38 L
322.984 327.06 L
324.72 320.46 L
326.456 315.84 L
328.192 312.54 L
329.928 308.58 L
331.664 311.88 L
333.4 319.14 L
335.136 324.42 L
336.872 327.06 L
338.608 328.38 L
340.344 329.04 L
342.08 329.04 L
343.816 325.08 L
345.552 318.48 L
347.288 310.56 L
349.024 311.22 L
350.76 311.88 L
352.496 314.52 L
354.232 315.84 L
355.968 315.18 L
357.704 310.56 L
359.44 304.62 L
361.176 300 L
362.912 294.06 L
364.648 292.74 L
366.384 290.76 L
368.12 286.14 L
369.856 279.54 L
371.592 270.3 L
373.328 265.68 L
375.064 267 L
376.8 263.7 L
378.536 250.5 L
380.272 246.54 L
382.008 243.9 L
383.744 249.84 L
385.48 255.78 L
387.216 257.1 L
388.952 258.42 L
390.688 259.74 L
392.424 261.06 L
394.16 260.4 L
395.896 261.72 L
397.632 262.38 L
399.368 261.06 L
401.104 261.06 L
402.84 267 L
404.576 268.98 L
406.312 269.64 L
408.048 268.32 L
409.784 267.66 L
411.52 270.3 L
413.256 270.96 L
414.992 273.6 L
416.728 279.54 L
418.464 278.22 L
420.2 277.56 L
421.936 278.88 L
423.672 278.88 L
425.408 277.56 L
427.144 275.58 L
428.88 277.56 L
430.616 282.84 L
432.352 281.52 L
434.088 280.2 L
435.824 280.2 L
437.56 279.54 L
439.296 278.22 L
441.032 278.22 L
442.768 278.22 L
444.504 281.52 L
446.24 282.84 L
447.976 279.54 L
449.712 274.26 L
451.448 273.6 L
453.184 273.6 L
454.92 276.24 L
456.656 276.9 L
458.392 283.5 L
460.128 294.72 L
461.864 296.7 L
463.6 298.02 L
465.336 301.98 L
467.072 304.62 L
468.808 309.24 L
470.544 309.24 L
472.28 302.64 L
474.016 300.66 L
475.752 298.68 L
477.488 292.74 L
479.224 289.44 L
480.96 291.42 L
482.696 292.74 L
484.432 290.76 L
486.168 295.38 L
487.904 296.04 L
489.64 293.4 L
491.376 288.78 L
493.112 286.8 L
494.848 288.12 L
496.584 288.78 L
498.32 297.36 L
500.056 299.34 L
501.792 298.68 L
503.528 297.36 L
505.264 295.38 L
507 296.04 L
507.043 296.073 L
S
GR
GS
[0.75 0 0 0.75 0 0] CT
0.851 0.325 0.098 RC
1 LJ
0.667 LW
N
72.957 296.372 M
73 296.16 L
74.736 286.226 L
76.472 280.239 L
78.208 275.26 L
79.944 272.431 L
81.68 270.758 L
83.416 274.735 L
85.152 281.34 L
86.888 287.808 L
88.624 293.068 L
90.36 293.77 L
92.096 294.321 L
93.832 294.893 L
95.568 296.459 L
97.304 293.207 L
99.04 292.337 L
100.776 292.587 L
102.512 292.643 L
104.248 294.659 L
105.984 294.3 L
107.72 294.22 L
109.456 292.984 L
111.192 294.341 L
112.928 291.531 L
114.664 287.955 L
116.4 283.319 L
118.136 279.639 L
119.872 279.449 L
121.608 279.083 L
123.344 281.581 L
125.08 284.101 L
126.816 289.546 L
128.552 293.599 L
130.288 296.987 L
132.024 297.446 L
133.76 296.955 L
135.496 297.292 L
137.232 297.143 L
138.968 296.502 L
140.704 294.756 L
142.44 294.98 L
144.176 295.21 L
145.912 297.541 L
147.648 296.949 L
149.384 297.119 L
151.12 297.128 L
152.856 297.562 L
154.592 296.7 L
156.328 293.577 L
158.064 289.536 L
159.8 286.653 L
161.536 285.711 L
163.272 284.506 L
165.008 285.893 L
166.744 285.854 L
168.48 289.349 L
170.216 292.09 L
171.952 295.195 L
173.688 296.595 L
175.424 294.918 L
177.16 296.404 L
178.896 295.819 L
180.632 294.993 L
182.368 294.567 L
184.104 295.777 L
185.84 296.667 L
187.576 299.929 L
189.312 298.64 L
191.048 300.015 L
192.784 300.675 L
194.52 300.492 L
196.256 299.262 L
197.992 296.011 L
199.728 293.63 L
201.464 290.92 L
203.2 288.746 L
204.936 288.954 L
206.672 289.782 L
208.408 291.531 L
210.144 295.286 L
211.88 300.042 L
213.616 303.808 L
215.352 304.13 L
217.088 303.81 L
218.824 305.012 L
220.56 306.143 L
222.296 304.869 L
224.032 306.348 L
225.768 308.107 L
227.504 306.698 L
229.24 307.28 L
230.976 308.209 L
232.712 310.218 L
234.448 310.662 L
236.184 310.482 L
237.92 308.366 L
239.656 305.361 L
241.392 303.387 L
243.128 301.387 L
244.864 299.474 L
246.6 297.75 L
248.336 298.947 L
250.072 300.095 L
251.808 304.917 L
253.544 309.96 L
255.28 310.142 L
257.016 309.768 L
258.752 310.493 L
260.488 312.822 L
262.224 314.494 L
263.96 315.49 L
265.696 313.516 L
267.432 314.187 L
269.168 317.591 L
270.904 318.795 L
272.64 321.012 L
274.376 322.566 L
276.112 323.956 L
277.848 324.88 L
279.584 325.451 L
281.32 323.331 L
283.056 318.13 L
284.792 315.232 L
286.528 315.634 L
288.264 313.77 L
290 314.143 L
291.736 318.894 L
293.472 318.854 L
295.208 315.618 L
296.944 305.044 L
298.68 313.845 L
300.416 318.775 L
302.152 323.14 L
303.888 326.635 L
305.624 332.002 L
307.36 332.853 L
309.096 331.646 L
310.832 332.539 L
312.568 332.808 L
314.304 335.026 L
316.04 335.788 L
317.776 337.617 L
319.512 338.011 L
321.248 332.675 L
322.984 323.525 L
324.72 313.49 L
326.456 305.872 L
328.192 301.364 L
329.928 299.187 L
331.664 300.605 L
333.4 307.7 L
335.136 314.424 L
336.872 320.731 L
338.608 320.734 L
340.344 321.165 L
342.08 320.587 L
343.816 318.377 L
345.552 321.394 L
347.288 323.053 L
349.024 323.703 L
350.76 323.642 L
352.496 324.479 L
354.232 324.682 L
355.968 323.942 L
357.704 319.544 L
359.44 315.68 L
361.176 312.517 L
362.912 314.724 L
364.648 310.279 L
366.384 306.022 L
368.12 302.205 L
369.856 299.539 L
371.592 294.487 L
373.328 292.872 L
375.064 295.433 L
376.8 297.501 L
378.536 304.343 L
380.272 306.944 L
382.008 304.762 L
383.744 300.9 L
385.48 295.148 L
387.216 291.499 L
388.952 289.739 L
390.688 284.776 L
392.424 275.416 L
394.16 279.738 L
395.896 280.017 L
397.632 286.964 L
399.368 288.911 L
401.104 286.931 L
402.84 286.382 L
404.576 283.508 L
406.312 279.937 L
408.048 272.29 L
409.784 269.006 L
411.52 265.135 L
413.256 260.466 L
414.992 260.45 L
416.728 267.079 L
418.464 266.634 L
420.2 265.985 L
421.936 266.312 L
423.672 266.764 L
425.408 271.362 L
427.144 273.036 L
428.88 274.792 L
430.616 276.876 L
432.352 275.114 L
434.088 277.145 L
435.824 279.861 L
437.56 279.868 L
439.296 277.653 L
441.032 276.148 L
442.768 279.163 L
444.504 283.986 L
446.24 278.719 L
447.976 276.322 L
449.712 272.326 L
451.448 269.75 L
453.184 268.839 L
454.92 270.216 L
456.656 272.825 L
458.392 279.296 L
460.128 282.589 L
461.864 281.51 L
463.6 282.456 L
465.336 284.124 L
467.072 284.119 L
468.808 286.062 L
470.544 285.879 L
472.28 290.718 L
474.016 298.914 L
475.752 296.185 L
477.488 296.836 L
479.224 300.41 L
480.96 300.423 L
482.696 302.489 L
484.432 298.289 L
486.168 292.789 L
487.904 291.813 L
489.64 287.592 L
491.376 278.238 L
493.112 275.874 L
494.848 278.65 L
496.584 278.815 L
498.32 278.716 L
500.056 289.59 L
501.792 294.681 L
503.528 296.712 L
505.264 298.978 L
507 301.061 L
507.043 301.15 L
S
GR
GS
[0.75 0 0 0.75 0 0] CT
1 GC
N
72 271 M
72 234 L
196 234 L
196 271 L
cp
f
GR
GS
[0.75 0 0 0.75 81.75 183.10275] CT
/Helvetica 12 F
GS
[1 0 0 1 0 0] CT
0 5 moveto 
1 -1 scale
(Measured Data) t 
GR
GR
GS
[0.75 0 0 0.75 0 0] CT
0 0.447 0.741 RC
1 LJ
0.667 LW
N
76 244.137 M
106 244.137 L
S
GR
GS
[0.75 0 0 0.75 81.75 195.64725] CT
/Helvetica 12 F
GS
[1 0 0 1 0 0] CT
0 5 moveto 
1 -1 scale
(8-step) t 
GR
GR
GS
[0.75 0 0 0.75 0 0] CT
0.851 0.325 0.098 RC
1 LJ
0.667 LW
N
76 260.863 M
106 260.863 L
S
GR
GS
[0.75 0 0 0.75 0 0] CT
0.149 GC
10.0 ML
0.667 LW
N
72 271 M
72 234 L
196 234 L
196 271 L
cp
S
GR
%%Trailer
%%Pages: 1
%%EOF
