%!PS-Adobe-3.0 EPSF-3.0
%%Creator: (MATLAB, The Mathworks, Inc. Version 9.0.0.370719 \(R2016a\). Operating System: Windows 8)
%%Title: H:/Skolan/GitTogether/tsaproj/Report/Img/CModPred.eps
%%CreationDate: 2018-01-11T22:37:05
%%Pages: (atend)
%%BoundingBox: 0 0 420 315
%%LanguageLevel: 3
%%EndComments
%%BeginProlog
%%BeginResource: procset (Apache XML Graphics Std ProcSet) 1.2 0
%%Version: 1.2 0
%%Copyright: (Copyright 2001-2003,2010 The Apache Software Foundation. License terms: http://www.apache.org/licenses/LICENSE-2.0)
/bd{bind def}bind def
/ld{load def}bd
/GR/grestore ld
/M/moveto ld
/LJ/setlinejoin ld
/C/curveto ld
/f/fill ld
/LW/setlinewidth ld
/GC/setgray ld
/t/show ld
/N/newpath ld
/CT/concat ld
/cp/closepath ld
/S/stroke ld
/L/lineto ld
/CC/setcmykcolor ld
/A/ashow ld
/GS/gsave ld
/RC/setrgbcolor ld
/RM/rmoveto ld
/ML/setmiterlimit ld
/re {4 2 roll M
1 index 0 rlineto
0 exch rlineto
neg 0 rlineto
cp } bd
/_ctm matrix def
/_tm matrix def
/BT { _ctm currentmatrix pop matrix _tm copy pop 0 0 moveto } bd
/ET { _ctm setmatrix } bd
/iTm { _ctm setmatrix _tm concat } bd
/Tm { _tm astore pop iTm 0 0 moveto } bd
/ux 0.0 def
/uy 0.0 def
/F {
  /Tp exch def
  /Tf exch def
  Tf findfont Tp scalefont setfont
  /cf Tf def  /cs Tp def
} bd
/ULS {currentpoint /uy exch def /ux exch def} bd
/ULE {
  /Tcx currentpoint pop def
  gsave
  newpath
  cf findfont cs scalefont dup
  /FontMatrix get 0 get /Ts exch def /FontInfo get dup
  /UnderlinePosition get Ts mul /To exch def
  /UnderlineThickness get Ts mul /Tt exch def
  ux uy To add moveto  Tcx uy To add lineto
  Tt setlinewidth stroke
  grestore
} bd
/OLE {
  /Tcx currentpoint pop def
  gsave
  newpath
  cf findfont cs scalefont dup
  /FontMatrix get 0 get /Ts exch def /FontInfo get dup
  /UnderlinePosition get Ts mul /To exch def
  /UnderlineThickness get Ts mul /Tt exch def
  ux uy To add cs add moveto Tcx uy To add cs add lineto
  Tt setlinewidth stroke
  grestore
} bd
/SOE {
  /Tcx currentpoint pop def
  gsave
  newpath
  cf findfont cs scalefont dup
  /FontMatrix get 0 get /Ts exch def /FontInfo get dup
  /UnderlinePosition get Ts mul /To exch def
  /UnderlineThickness get Ts mul /Tt exch def
  ux uy To add cs 10 mul 26 idiv add moveto Tcx uy To add cs 10 mul 26 idiv add lineto
  Tt setlinewidth stroke
  grestore
} bd
/QT {
/Y22 exch store
/X22 exch store
/Y21 exch store
/X21 exch store
currentpoint
/Y21 load 2 mul add 3 div exch
/X21 load 2 mul add 3 div exch
/X21 load 2 mul /X22 load add 3 div
/Y21 load 2 mul /Y22 load add 3 div
/X22 load /Y22 load curveto
} bd
/SSPD {
dup length /d exch dict def
{
/v exch def
/k exch def
currentpagedevice k known {
/cpdv currentpagedevice k get def
v cpdv ne {
/upd false def
/nullv v type /nulltype eq def
/nullcpdv cpdv type /nulltype eq def
nullv nullcpdv or
{
/upd true def
} {
/sametype v type cpdv type eq def
sametype {
v type /arraytype eq {
/vlen v length def
/cpdvlen cpdv length def
vlen cpdvlen eq {
0 1 vlen 1 sub {
/i exch def
/obj v i get def
/cpdobj cpdv i get def
obj cpdobj ne {
/upd true def
exit
} if
} for
} {
/upd true def
} ifelse
} {
v type /dicttype eq {
v {
/dv exch def
/dk exch def
/cpddv cpdv dk get def
dv cpddv ne {
/upd true def
exit
} if
} forall
} {
/upd true def
} ifelse
} ifelse
} if
} ifelse
upd true eq {
d k v put
} if
} if
} if
} forall
d length 0 gt {
d setpagedevice
} if
} bd
%%EndResource
%%BeginResource: procset (Apache XML Graphics EPS ProcSet) 1.0 0
%%Version: 1.0 0
%%Copyright: (Copyright 2002-2003 The Apache Software Foundation. License terms: http://www.apache.org/licenses/LICENSE-2.0)
/BeginEPSF { %def
/b4_Inc_state save def         % Save state for cleanup
/dict_count countdictstack def % Count objects on dict stack
/op_count count 1 sub def      % Count objects on operand stack
userdict begin                 % Push userdict on dict stack
/showpage { } def              % Redefine showpage, { } = null proc
0 setgray 0 setlinecap         % Prepare graphics state
1 setlinewidth 0 setlinejoin
10 setmiterlimit [ ] 0 setdash newpath
/languagelevel where           % If level not equal to 1 then
{pop languagelevel             % set strokeadjust and
1 ne                           % overprint to their defaults.
{false setstrokeadjust false setoverprint
} if
} if
} bd
/EndEPSF { %def
count op_count sub {pop} repeat            % Clean up stacks
countdictstack dict_count sub {end} repeat
b4_Inc_state restore
} bd
%%EndResource
%FOPBeginFontDict
%%IncludeResource: font Courier-Bold
%%IncludeResource: font Helvetica
%%IncludeResource: font Courier-BoldOblique
%%IncludeResource: font Courier-Oblique
%%IncludeResource: font Times-Roman
%%IncludeResource: font Helvetica-BoldOblique
%%IncludeResource: font Helvetica-Bold
%%IncludeResource: font Helvetica-Oblique
%%IncludeResource: font Times-BoldItalic
%%IncludeResource: font Courier
%%IncludeResource: font Times-Italic
%%IncludeResource: font Times-Bold
%%IncludeResource: font Symbol
%%IncludeResource: font ZapfDingbats
%FOPEndFontDict
%%BeginResource: encoding WinAnsiEncoding
/WinAnsiEncoding [
/.notdef /.notdef /.notdef /.notdef /.notdef
/.notdef /.notdef /.notdef /.notdef /.notdef
/.notdef /.notdef /.notdef /.notdef /.notdef
/.notdef /.notdef /.notdef /.notdef /.notdef
/.notdef /.notdef /.notdef /.notdef /.notdef
/.notdef /.notdef /.notdef /.notdef /.notdef
/.notdef /.notdef /space /exclam /quotedbl
/numbersign /dollar /percent /ampersand /quotesingle
/parenleft /parenright /asterisk /plus /comma
/hyphen /period /slash /zero /one
/two /three /four /five /six
/seven /eight /nine /colon /semicolon
/less /equal /greater /question /at
/A /B /C /D /E
/F /G /H /I /J
/K /L /M /N /O
/P /Q /R /S /T
/U /V /W /X /Y
/Z /bracketleft /backslash /bracketright /asciicircum
/underscore /quoteleft /a /b /c
/d /e /f /g /h
/i /j /k /l /m
/n /o /p /q /r
/s /t /u /v /w
/x /y /z /braceleft /bar
/braceright /asciitilde /bullet /Euro /bullet
/quotesinglbase /florin /quotedblbase /ellipsis /dagger
/daggerdbl /circumflex /perthousand /Scaron /guilsinglleft
/OE /bullet /Zcaron /bullet /bullet
/quoteleft /quoteright /quotedblleft /quotedblright /bullet
/endash /emdash /asciitilde /trademark /scaron
/guilsinglright /oe /bullet /zcaron /Ydieresis
/space /exclamdown /cent /sterling /currency
/yen /brokenbar /section /dieresis /copyright
/ordfeminine /guillemotleft /logicalnot /sfthyphen /registered
/macron /degree /plusminus /twosuperior /threesuperior
/acute /mu /paragraph /middot /cedilla
/onesuperior /ordmasculine /guillemotright /onequarter /onehalf
/threequarters /questiondown /Agrave /Aacute /Acircumflex
/Atilde /Adieresis /Aring /AE /Ccedilla
/Egrave /Eacute /Ecircumflex /Edieresis /Igrave
/Iacute /Icircumflex /Idieresis /Eth /Ntilde
/Ograve /Oacute /Ocircumflex /Otilde /Odieresis
/multiply /Oslash /Ugrave /Uacute /Ucircumflex
/Udieresis /Yacute /Thorn /germandbls /agrave
/aacute /acircumflex /atilde /adieresis /aring
/ae /ccedilla /egrave /eacute /ecircumflex
/edieresis /igrave /iacute /icircumflex /idieresis
/eth /ntilde /ograve /oacute /ocircumflex
/otilde /odieresis /divide /oslash /ugrave
/uacute /ucircumflex /udieresis /yacute /thorn
/ydieresis
] def
%%EndResource
%FOPBeginFontReencode
/Courier-Bold findfont
dup length dict begin
  {1 index /FID ne {def} {pop pop} ifelse} forall
  /Encoding WinAnsiEncoding def
  currentdict
end
/Courier-Bold exch definefont pop
/Helvetica findfont
dup length dict begin
  {1 index /FID ne {def} {pop pop} ifelse} forall
  /Encoding WinAnsiEncoding def
  currentdict
end
/Helvetica exch definefont pop
/Courier-BoldOblique findfont
dup length dict begin
  {1 index /FID ne {def} {pop pop} ifelse} forall
  /Encoding WinAnsiEncoding def
  currentdict
end
/Courier-BoldOblique exch definefont pop
/Courier-Oblique findfont
dup length dict begin
  {1 index /FID ne {def} {pop pop} ifelse} forall
  /Encoding WinAnsiEncoding def
  currentdict
end
/Courier-Oblique exch definefont pop
/Times-Roman findfont
dup length dict begin
  {1 index /FID ne {def} {pop pop} ifelse} forall
  /Encoding WinAnsiEncoding def
  currentdict
end
/Times-Roman exch definefont pop
/Helvetica-BoldOblique findfont
dup length dict begin
  {1 index /FID ne {def} {pop pop} ifelse} forall
  /Encoding WinAnsiEncoding def
  currentdict
end
/Helvetica-BoldOblique exch definefont pop
/Helvetica-Bold findfont
dup length dict begin
  {1 index /FID ne {def} {pop pop} ifelse} forall
  /Encoding WinAnsiEncoding def
  currentdict
end
/Helvetica-Bold exch definefont pop
/Helvetica-Oblique findfont
dup length dict begin
  {1 index /FID ne {def} {pop pop} ifelse} forall
  /Encoding WinAnsiEncoding def
  currentdict
end
/Helvetica-Oblique exch definefont pop
/Times-BoldItalic findfont
dup length dict begin
  {1 index /FID ne {def} {pop pop} ifelse} forall
  /Encoding WinAnsiEncoding def
  currentdict
end
/Times-BoldItalic exch definefont pop
/Courier findfont
dup length dict begin
  {1 index /FID ne {def} {pop pop} ifelse} forall
  /Encoding WinAnsiEncoding def
  currentdict
end
/Courier exch definefont pop
/Times-Italic findfont
dup length dict begin
  {1 index /FID ne {def} {pop pop} ifelse} forall
  /Encoding WinAnsiEncoding def
  currentdict
end
/Times-Italic exch definefont pop
/Times-Bold findfont
dup length dict begin
  {1 index /FID ne {def} {pop pop} ifelse} forall
  /Encoding WinAnsiEncoding def
  currentdict
end
/Times-Bold exch definefont pop
%FOPEndFontReencode
%%EndProlog
%%Page: 1 1
%%PageBoundingBox: 0 0 420 315
%%BeginPageSetup
[1 0 0 -1 0 315] CT
%%EndPageSetup
GS
[0.75 0 0 0.75 0 0] CT
1 GC
N
0 0 560 420 re
f
GR
GS
[0.75 0 0 0.75 0 0] CT
1 GC
N
0 0 560 420 re
f
GR
GS
[0.75 0 0 0.75 0 0] CT
1 GC
N
73 167 M
507 167 L
507 35 L
73 35 L
cp
f
GR
GS
[0.75 0 0 0.75 0 0] CT
0.149 GC
2 setlinecap
1 LJ
0.667 LW
N
73 167 M
507 167 L
S
GR
GS
[0.75 0 0 0.75 0 0] CT
0.149 GC
2 setlinecap
1 LJ
0.667 LW
N
73 35 M
507 35 L
S
GR
GS
[0.75 0 0 0.75 0 0] CT
0.149 GC
2 setlinecap
1 LJ
0.667 LW
N
73 167 M
73 162.66 L
S
GR
GS
[0.75 0 0 0.75 0 0] CT
0.149 GC
2 setlinecap
1 LJ
0.667 LW
N
159.8 167 M
159.8 162.66 L
S
GR
GS
[0.75 0 0 0.75 0 0] CT
0.149 GC
2 setlinecap
1 LJ
0.667 LW
N
246.6 167 M
246.6 162.66 L
S
GR
GS
[0.75 0 0 0.75 0 0] CT
0.149 GC
2 setlinecap
1 LJ
0.667 LW
N
333.4 167 M
333.4 162.66 L
S
GR
GS
[0.75 0 0 0.75 0 0] CT
0.149 GC
2 setlinecap
1 LJ
0.667 LW
N
420.2 167 M
420.2 162.66 L
S
GR
GS
[0.75 0 0 0.75 0 0] CT
0.149 GC
2 setlinecap
1 LJ
0.667 LW
N
507 167 M
507 162.66 L
S
GR
GS
[0.75 0 0 0.75 0 0] CT
0.149 GC
2 setlinecap
1 LJ
0.667 LW
N
73 35 M
73 39.34 L
S
GR
GS
[0.75 0 0 0.75 0 0] CT
0.149 GC
2 setlinecap
1 LJ
0.667 LW
N
159.8 35 M
159.8 39.34 L
S
GR
GS
[0.75 0 0 0.75 0 0] CT
0.149 GC
2 setlinecap
1 LJ
0.667 LW
N
246.6 35 M
246.6 39.34 L
S
GR
GS
[0.75 0 0 0.75 0 0] CT
0.149 GC
2 setlinecap
1 LJ
0.667 LW
N
333.4 35 M
333.4 39.34 L
S
GR
GS
[0.75 0 0 0.75 0 0] CT
0.149 GC
2 setlinecap
1 LJ
0.667 LW
N
420.2 35 M
420.2 39.34 L
S
GR
GS
[0.75 0 0 0.75 0 0] CT
0.149 GC
2 setlinecap
1 LJ
0.667 LW
N
507 35 M
507 39.34 L
S
GR
GS
[0.75 0 0 0.75 54.75 129.25] CT
0.149 GC
/Helvetica 13.333 F
GS
[1 0 0 1 0 0] CT
-11 14 moveto 
1 -1 scale
(750) t 
GR
GR
GS
[0.75 0 0 0.75 119.85 129.25] CT
0.149 GC
/Helvetica 13.333 F
GS
[1 0 0 1 0 0] CT
-11 14 moveto 
1 -1 scale
(800) t 
GR
GR
GS
[0.75 0 0 0.75 184.95 129.25] CT
0.149 GC
/Helvetica 13.333 F
GS
[1 0 0 1 0 0] CT
-11 14 moveto 
1 -1 scale
(850) t 
GR
GR
GS
[0.75 0 0 0.75 250.05 129.25] CT
0.149 GC
/Helvetica 13.333 F
GS
[1 0 0 1 0 0] CT
-11 14 moveto 
1 -1 scale
(900) t 
GR
GR
GS
[0.75 0 0 0.75 315.15001 129.25] CT
0.149 GC
/Helvetica 13.333 F
GS
[1 0 0 1 0 0] CT
-11 14 moveto 
1 -1 scale
(950) t 
GR
GR
GS
[0.75 0 0 0.75 380.25 129.25] CT
0.149 GC
/Helvetica 13.333 F
GS
[1 0 0 1 0 0] CT
-14.5 14 moveto 
1 -1 scale
(1000) t 
GR
GR
GS
[0.75 0 0 0.75 217.50016 143] CT
0.149 GC
/Helvetica 14.667 F
GS
[1 0 0 1 0 0] CT
-13 16 moveto 
1 -1 scale
(t / h) t 
GR
GR
GS
[0.75 0 0 0.75 0 0] CT
0.149 GC
2 setlinecap
1 LJ
0.667 LW
N
73 167 M
73 35 L
S
GR
GS
[0.75 0 0 0.75 0 0] CT
0.149 GC
2 setlinecap
1 LJ
0.667 LW
N
507 167 M
507 35 L
S
GR
GS
[0.75 0 0 0.75 0 0] CT
0.149 GC
2 setlinecap
1 LJ
0.667 LW
N
73 142.027 M
77.34 142.027 L
S
GR
GS
[0.75 0 0 0.75 0 0] CT
0.149 GC
2 setlinecap
1 LJ
0.667 LW
N
73 106.351 M
77.34 106.351 L
S
GR
GS
[0.75 0 0 0.75 0 0] CT
0.149 GC
2 setlinecap
1 LJ
0.667 LW
N
73 70.676 M
77.34 70.676 L
S
GR
GS
[0.75 0 0 0.75 0 0] CT
0.149 GC
2 setlinecap
1 LJ
0.667 LW
N
73 35 M
77.34 35 L
S
GR
GS
[0.75 0 0 0.75 0 0] CT
0.149 GC
2 setlinecap
1 LJ
0.667 LW
N
507 142.027 M
502.66 142.027 L
S
GR
GS
[0.75 0 0 0.75 0 0] CT
0.149 GC
2 setlinecap
1 LJ
0.667 LW
N
507 106.351 M
502.66 106.351 L
S
GR
GS
[0.75 0 0 0.75 0 0] CT
0.149 GC
2 setlinecap
1 LJ
0.667 LW
N
507 70.676 M
502.66 70.676 L
S
GR
GS
[0.75 0 0 0.75 0 0] CT
0.149 GC
2 setlinecap
1 LJ
0.667 LW
N
507 35 M
502.66 35 L
S
GR
GS
[0.75 0 0 0.75 50.74999 106.52027] CT
0.149 GC
/Helvetica 13.333 F
GS
[1 0 0 1 0 0] CT
-8 5.5 moveto 
1 -1 scale
(0) t 
GR
GR
GS
[0.75 0 0 0.75 50.74999 79.76351] CT
0.149 GC
/Helvetica 13.333 F
GS
[1 0 0 1 0 0] CT
-8 5.5 moveto 
1 -1 scale
(5) t 
GR
GR
GS
[0.75 0 0 0.75 50.74999 53.00676] CT
0.149 GC
/Helvetica 13.333 F
GS
[1 0 0 1 0 0] CT
-15 5.5 moveto 
1 -1 scale
(10) t 
GR
GR
GS
[0.75 0 0 0.75 50.74999 26.25] CT
0.149 GC
/Helvetica 13.333 F
GS
[1 0 0 1 0 0] CT
-15 5.5 moveto 
1 -1 scale
(15) t 
GR
GR
GS
[0 -0.75 0.75 0 33.75 90] CT
0.149 GC
/Helvetica 14.667 F
GS
[1 0 0 1 0 0] CT
0 0 moveto 
1 -1 scale
(T / ) t 
GR
GR
GS
[0 -0.75 0.75 0 28.5 73.5] CT
0.149 GC
/Courier 10.667 F
GS
[1 0 0 1 0 0] CT
0 0 moveto 
1 -1 scale
(\260) t 
GR
GR
GS
[0 -0.75 0.75 0 33.75 69.75] CT
0.149 GC
/Helvetica 14.667 F
GS
[1 0 0 1 0 0] CT
0 0 moveto 
1 -1 scale
(C) t 
GR
GR
GS
[0.75 0 0 0.75 217.50023 24.1875] CT
/Helvetica-Bold 14.667 F
GS
[1 0 0 1 0 0] CT
-93.5 -4 moveto 
1 -1 scale
(Modelling set: Predictions) t 
GR
GR
GS
[0.75 0 0 0.75 0 0] CT
0 0.447 0.741 RC
1 LJ
0.667 LW
N
72.957 91.172 M
73 90.654 L
74.736 78.524 L
76.472 67.822 L
78.208 59.973 L
79.944 57.119 L
81.68 52.124 L
83.416 51.411 L
85.152 52.838 L
86.888 52.838 L
88.624 57.119 L
90.36 68.535 L
92.096 83.519 L
93.832 100.643 L
95.568 109.919 L
97.304 118.481 L
99.04 130.611 L
100.776 142.741 L
102.512 149.162 L
104.248 149.162 L
105.984 149.876 L
107.72 150.589 L
109.456 150.589 L
111.192 137.032 L
112.928 106.351 L
114.664 85.659 L
116.4 67.822 L
118.136 54.265 L
119.872 49.27 L
121.608 43.562 L
123.344 43.562 L
125.08 42.135 L
126.816 44.989 L
128.552 44.989 L
130.288 52.838 L
132.024 64.968 L
133.76 80.665 L
135.496 89.941 L
137.232 97.076 L
138.968 103.497 L
140.704 108.492 L
142.44 113.486 L
144.176 117.768 L
145.912 117.768 L
147.648 119.195 L
149.384 119.195 L
151.12 117.768 L
152.856 113.486 L
154.592 107.065 L
156.328 97.076 L
158.064 85.659 L
159.8 69.249 L
161.536 67.108 L
163.272 72.816 L
165.008 82.092 L
166.744 85.659 L
168.48 87.8 L
170.216 89.941 L
171.952 92.081 L
173.688 94.935 L
175.424 99.216 L
177.16 102.784 L
178.896 102.784 L
180.632 104.211 L
182.368 105.281 L
184.104 106.351 L
185.84 108.492 L
187.576 112.059 L
189.312 112.773 L
191.048 112.059 L
192.784 112.059 L
194.52 111.346 L
196.256 109.205 L
197.992 104.924 L
199.728 99.216 L
201.464 96.362 L
203.2 90.654 L
204.936 84.946 L
206.672 85.659 L
208.408 87.086 L
210.144 89.227 L
211.88 92.081 L
213.616 92.081 L
215.352 98.503 L
217.088 100.643 L
218.824 104.924 L
220.56 109.205 L
222.296 112.059 L
224.032 113.843 L
225.768 115.627 L
227.504 117.768 L
229.24 119.195 L
230.976 121.335 L
232.712 122.049 L
234.448 121.335 L
236.184 119.908 L
237.92 117.768 L
239.656 117.054 L
241.392 116.341 L
243.128 113.486 L
244.864 113.486 L
246.6 112.773 L
248.336 109.919 L
250.072 107.778 L
251.808 106.351 L
253.544 108.492 L
255.28 108.492 L
257.016 111.346 L
258.752 112.773 L
260.488 116.341 L
262.224 117.768 L
263.96 120.622 L
265.696 127.757 L
267.432 134.892 L
269.168 134.892 L
270.904 137.746 L
272.64 144.881 L
274.376 150.589 L
276.112 153.443 L
277.848 142.027 L
279.584 123.476 L
281.32 103.497 L
283.056 94.935 L
284.792 87.086 L
286.528 82.092 L
288.264 78.524 L
290 74.957 L
291.736 70.676 L
293.472 77.097 L
295.208 77.097 L
296.944 78.524 L
298.68 83.519 L
300.416 98.503 L
302.152 108.492 L
303.888 117.054 L
305.624 123.476 L
307.36 124.546 L
309.096 125.616 L
310.832 118.481 L
312.568 117.054 L
314.304 116.341 L
316.04 117.054 L
317.776 118.481 L
319.512 117.054 L
321.248 110.632 L
322.984 107.778 L
324.72 105.638 L
326.456 102.784 L
328.192 96.362 L
329.928 89.227 L
331.664 87.8 L
333.4 85.659 L
335.136 87.8 L
336.872 88.514 L
338.608 90.654 L
340.344 103.497 L
342.08 112.059 L
343.816 119.908 L
345.552 131.324 L
347.288 136.319 L
349.024 143.097 L
350.76 149.876 L
352.496 152.016 L
354.232 157.011 L
355.968 157.724 L
357.704 157.724 L
359.44 158.438 L
361.176 147.735 L
362.912 134.178 L
364.648 121.335 L
366.384 115.627 L
368.12 113.486 L
369.856 109.919 L
371.592 107.065 L
373.328 102.784 L
375.064 98.503 L
376.8 97.076 L
378.536 95.649 L
380.272 99.216 L
382.008 102.784 L
383.744 117.768 L
385.48 136.319 L
387.216 143.454 L
388.952 154.157 L
390.688 157.011 L
392.424 159.865 L
394.16 160.578 L
395.896 162.719 L
397.632 165.573 L
399.368 166.286 L
401.104 161.292 L
402.84 152.73 L
404.576 137.032 L
406.312 122.049 L
408.048 105.638 L
409.784 103.497 L
411.52 103.497 L
413.256 101.357 L
414.992 97.076 L
416.728 96.362 L
418.464 94.935 L
420.2 101.357 L
421.936 99.216 L
423.672 104.211 L
425.408 110.632 L
427.144 117.054 L
428.88 123.476 L
430.616 129.184 L
432.352 133.108 L
434.088 137.032 L
435.824 139.173 L
437.56 138.459 L
439.296 140.6 L
441.032 142.027 L
442.768 141.314 L
444.504 132.751 L
446.24 117.768 L
447.976 114.2 L
449.712 108.492 L
451.448 107.778 L
453.184 104.211 L
454.92 104.924 L
456.656 107.778 L
458.392 100.643 L
460.128 99.216 L
461.864 99.216 L
463.6 99.216 L
465.336 101.357 L
467.072 106.351 L
468.808 109.205 L
470.544 112.059 L
472.28 114.914 L
474.016 118.124 L
475.752 121.335 L
477.488 125.616 L
479.224 133.465 L
480.96 134.178 L
482.696 133.465 L
484.432 129.897 L
486.168 124.189 L
487.904 113.486 L
489.64 97.789 L
491.376 84.232 L
493.112 67.108 L
494.848 57.119 L
496.584 57.832 L
498.32 54.265 L
500.056 56.405 L
501.792 52.124 L
503.528 53.551 L
505.264 59.973 L
507 67.822 L
507.043 68.107 L
S
GR
GS
[0.75 0 0 0.75 0 0] CT
0.851 0.325 0.098 RC
1 LJ
0.667 LW
N
72.957 98.197 M
73 97.669 L
74.736 76.941 L
76.472 72.268 L
78.208 61.902 L
79.944 55.885 L
81.68 56.773 L
83.416 52.431 L
85.152 51.818 L
86.888 56.797 L
88.624 57.421 L
90.36 66.958 L
92.096 79.578 L
93.832 94.713 L
95.568 112.501 L
97.304 117.065 L
99.04 124.158 L
100.776 138.053 L
102.512 149.769 L
104.248 154.555 L
105.984 148.021 L
107.72 149.905 L
109.456 149.174 L
111.192 145.066 L
112.928 121.079 L
114.664 86.594 L
116.4 71.653 L
118.136 58.334 L
119.872 47.073 L
121.608 46.651 L
123.344 42.32 L
125.08 46.457 L
126.816 42.214 L
128.552 49.072 L
130.288 50.116 L
132.024 64.57 L
133.76 77.943 L
135.496 93.312 L
137.232 98.824 L
138.968 105.291 L
140.704 111.036 L
142.44 115.001 L
144.176 117.551 L
145.912 123.144 L
147.648 118.664 L
149.384 121.669 L
151.12 119.566 L
152.856 111.113 L
154.592 101.747 L
156.328 97.912 L
158.064 86.57 L
159.8 78.01 L
161.536 59.386 L
163.272 64.814 L
165.008 75.152 L
166.744 86.951 L
168.48 85.954 L
170.216 89.271 L
171.952 94.061 L
173.688 99.059 L
175.424 100.702 L
177.16 104.356 L
178.896 107.359 L
180.632 105.559 L
182.368 107.33 L
184.104 108.822 L
185.84 108.098 L
187.576 112.034 L
189.312 114.146 L
191.048 113.909 L
192.784 112.884 L
194.52 109.982 L
196.256 103.839 L
197.992 103.27 L
199.728 96.73 L
201.464 93.652 L
203.2 94.817 L
204.936 88.469 L
206.672 83.565 L
208.408 87.096 L
210.144 88.089 L
211.88 91.116 L
213.616 95.878 L
215.352 96.576 L
217.088 105.232 L
218.824 103.752 L
220.56 108.612 L
222.296 112.932 L
224.032 114.472 L
225.768 116.405 L
227.504 117.533 L
229.24 120.46 L
230.976 119.36 L
232.712 122.451 L
234.448 123.311 L
236.184 119.153 L
237.92 113.005 L
239.656 112.57 L
241.392 112.726 L
243.128 112.704 L
244.864 109.296 L
246.6 111.273 L
248.336 112.276 L
250.072 108.292 L
251.808 106.145 L
253.544 105.325 L
255.28 111.155 L
257.016 112.04 L
258.752 115.342 L
260.488 115.757 L
262.224 119.513 L
263.96 119.921 L
265.696 122.873 L
267.432 132.317 L
269.168 138.27 L
270.904 135.958 L
272.64 138.229 L
274.376 147.246 L
276.112 152.754 L
277.848 151.661 L
279.584 130.372 L
281.32 111.541 L
283.056 91.429 L
284.792 90.357 L
286.528 84.103 L
288.264 79.804 L
290 78.664 L
291.736 75.055 L
293.472 70.502 L
295.208 82.452 L
296.944 80.211 L
298.68 84.673 L
300.416 90.128 L
302.152 108.869 L
303.888 115.407 L
305.624 123.943 L
307.36 129.014 L
309.096 126.745 L
310.832 126.949 L
312.568 118.495 L
314.304 118.618 L
316.04 118.037 L
317.776 117.882 L
319.512 114.934 L
321.248 108.192 L
322.984 103.19 L
324.72 103.073 L
326.456 101.983 L
328.192 100.072 L
329.928 91.535 L
331.664 85.407 L
333.4 88.122 L
335.136 85.366 L
336.872 89.309 L
338.608 90.799 L
340.344 97.8 L
342.08 114.263 L
343.816 119.301 L
345.552 125.702 L
347.288 137.742 L
349.024 138.938 L
350.76 145.548 L
352.496 150.812 L
354.232 152.886 L
355.968 157.934 L
357.704 156.837 L
359.44 156.872 L
361.176 153.953 L
362.912 135.098 L
364.648 123.233 L
366.384 111.99 L
368.12 109.673 L
369.856 109.788 L
371.592 105.981 L
373.328 105.115 L
375.064 100.165 L
376.8 96.913 L
378.536 96.469 L
380.272 97.831 L
382.008 106.433 L
383.744 108.705 L
385.48 128.451 L
387.216 146.912 L
388.952 148.06 L
390.688 160.128 L
392.424 159.022 L
394.16 160.067 L
395.896 161.714 L
397.632 162.658 L
399.368 166.228 L
401.104 164.968 L
402.84 152.746 L
404.576 139.705 L
406.312 124.435 L
408.048 112.267 L
409.784 96.027 L
411.52 101.291 L
413.256 101.712 L
414.992 99.893 L
416.728 94.392 L
418.464 96.514 L
420.2 94.783 L
421.936 105.818 L
423.672 104.409 L
425.408 113.322 L
427.144 117.875 L
428.88 123.721 L
430.616 129.223 L
432.352 133.606 L
434.088 137.18 L
435.824 138.937 L
437.56 142.887 L
439.296 139.071 L
441.032 141.659 L
442.768 142.554 L
444.504 135.846 L
446.24 120.432 L
447.976 104.792 L
449.712 109.688 L
451.448 104.969 L
453.184 106.15 L
454.92 100.517 L
456.656 104.808 L
458.392 108.031 L
460.128 98.554 L
461.864 98.501 L
463.6 100.335 L
465.336 104.153 L
467.072 107.028 L
468.808 112.626 L
470.544 113.44 L
472.28 116.416 L
474.016 118.431 L
475.752 122.474 L
477.488 122.941 L
479.224 130.174 L
480.96 138.317 L
482.696 135.184 L
484.432 132.939 L
486.168 123.152 L
487.904 114.931 L
489.64 105.199 L
491.376 88.605 L
493.112 78.088 L
494.848 60.067 L
496.584 54.245 L
498.32 59.704 L
500.056 53.665 L
501.792 60.264 L
503.528 52.592 L
505.264 56.903 L
507 69.393 L
507.043 69.587 L
S
GR
GS
[0.75 0 0 0.75 0 0] CT
1 GC
N
365 72 M
365 35 L
489 35 L
489 72 L
cp
f
GR
GS
[0.75 0 0 0.75 301.5 33.85274] CT
/Helvetica 12 F
GS
[1 0 0 1 0 0] CT
0 5 moveto 
1 -1 scale
(Measured Data) t 
GR
GR
GS
[0.75 0 0 0.75 0 0] CT
0 0.447 0.741 RC
1 LJ
0.667 LW
N
369 45.137 M
399 45.137 L
S
GR
GS
[0.75 0 0 0.75 301.5 46.39726] CT
/Helvetica 12 F
GS
[1 0 0 1 0 0] CT
0 5 moveto 
1 -1 scale
(1-step) t 
GR
GR
GS
[0.75 0 0 0.75 0 0] CT
0.851 0.325 0.098 RC
1 LJ
0.667 LW
N
369 61.863 M
399 61.863 L
S
GR
GS
[0.75 0 0 0.75 0 0] CT
0.149 GC
10.0 ML
0.667 LW
N
365 72 M
365 35 L
489 35 L
489 72 L
cp
S
GR
GS
[0.75 0 0 0.75 0 0] CT
1 GC
N
73 366 M
507 366 L
507 234 L
73 234 L
cp
f
GR
GS
[0.75 0 0 0.75 0 0] CT
0.149 GC
2 setlinecap
1 LJ
0.667 LW
N
73 366 M
507 366 L
S
GR
GS
[0.75 0 0 0.75 0 0] CT
0.149 GC
2 setlinecap
1 LJ
0.667 LW
N
73 234 M
507 234 L
S
GR
GS
[0.75 0 0 0.75 0 0] CT
0.149 GC
2 setlinecap
1 LJ
0.667 LW
N
73 366 M
73 361.66 L
S
GR
GS
[0.75 0 0 0.75 0 0] CT
0.149 GC
2 setlinecap
1 LJ
0.667 LW
N
159.8 366 M
159.8 361.66 L
S
GR
GS
[0.75 0 0 0.75 0 0] CT
0.149 GC
2 setlinecap
1 LJ
0.667 LW
N
246.6 366 M
246.6 361.66 L
S
GR
GS
[0.75 0 0 0.75 0 0] CT
0.149 GC
2 setlinecap
1 LJ
0.667 LW
N
333.4 366 M
333.4 361.66 L
S
GR
GS
[0.75 0 0 0.75 0 0] CT
0.149 GC
2 setlinecap
1 LJ
0.667 LW
N
420.2 366 M
420.2 361.66 L
S
GR
GS
[0.75 0 0 0.75 0 0] CT
0.149 GC
2 setlinecap
1 LJ
0.667 LW
N
507 366 M
507 361.66 L
S
GR
GS
[0.75 0 0 0.75 0 0] CT
0.149 GC
2 setlinecap
1 LJ
0.667 LW
N
73 234 M
73 238.34 L
S
GR
GS
[0.75 0 0 0.75 0 0] CT
0.149 GC
2 setlinecap
1 LJ
0.667 LW
N
159.8 234 M
159.8 238.34 L
S
GR
GS
[0.75 0 0 0.75 0 0] CT
0.149 GC
2 setlinecap
1 LJ
0.667 LW
N
246.6 234 M
246.6 238.34 L
S
GR
GS
[0.75 0 0 0.75 0 0] CT
0.149 GC
2 setlinecap
1 LJ
0.667 LW
N
333.4 234 M
333.4 238.34 L
S
GR
GS
[0.75 0 0 0.75 0 0] CT
0.149 GC
2 setlinecap
1 LJ
0.667 LW
N
420.2 234 M
420.2 238.34 L
S
GR
GS
[0.75 0 0 0.75 0 0] CT
0.149 GC
2 setlinecap
1 LJ
0.667 LW
N
507 234 M
507 238.34 L
S
GR
GS
[0.75 0 0 0.75 54.75 278.50001] CT
0.149 GC
/Helvetica 13.333 F
GS
[1 0 0 1 0 0] CT
-11 14 moveto 
1 -1 scale
(750) t 
GR
GR
GS
[0.75 0 0 0.75 119.85 278.50001] CT
0.149 GC
/Helvetica 13.333 F
GS
[1 0 0 1 0 0] CT
-11 14 moveto 
1 -1 scale
(800) t 
GR
GR
GS
[0.75 0 0 0.75 184.95 278.50001] CT
0.149 GC
/Helvetica 13.333 F
GS
[1 0 0 1 0 0] CT
-11 14 moveto 
1 -1 scale
(850) t 
GR
GR
GS
[0.75 0 0 0.75 250.05 278.50001] CT
0.149 GC
/Helvetica 13.333 F
GS
[1 0 0 1 0 0] CT
-11 14 moveto 
1 -1 scale
(900) t 
GR
GR
GS
[0.75 0 0 0.75 315.15001 278.50001] CT
0.149 GC
/Helvetica 13.333 F
GS
[1 0 0 1 0 0] CT
-11 14 moveto 
1 -1 scale
(950) t 
GR
GR
GS
[0.75 0 0 0.75 380.25 278.50001] CT
0.149 GC
/Helvetica 13.333 F
GS
[1 0 0 1 0 0] CT
-14.5 14 moveto 
1 -1 scale
(1000) t 
GR
GR
GS
[0.75 0 0 0.75 217.50016 292.24999] CT
0.149 GC
/Helvetica 14.667 F
GS
[1 0 0 1 0 0] CT
-13 16 moveto 
1 -1 scale
(t / h) t 
GR
GR
GS
[0.75 0 0 0.75 0 0] CT
0.149 GC
2 setlinecap
1 LJ
0.667 LW
N
73 366 M
73 234 L
S
GR
GS
[0.75 0 0 0.75 0 0] CT
0.149 GC
2 setlinecap
1 LJ
0.667 LW
N
507 366 M
507 234 L
S
GR
GS
[0.75 0 0 0.75 0 0] CT
0.149 GC
2 setlinecap
1 LJ
0.667 LW
N
73 341.027 M
77.34 341.027 L
S
GR
GS
[0.75 0 0 0.75 0 0] CT
0.149 GC
2 setlinecap
1 LJ
0.667 LW
N
73 305.351 M
77.34 305.351 L
S
GR
GS
[0.75 0 0 0.75 0 0] CT
0.149 GC
2 setlinecap
1 LJ
0.667 LW
N
73 269.676 M
77.34 269.676 L
S
GR
GS
[0.75 0 0 0.75 0 0] CT
0.149 GC
2 setlinecap
1 LJ
0.667 LW
N
73 234 M
77.34 234 L
S
GR
GS
[0.75 0 0 0.75 0 0] CT
0.149 GC
2 setlinecap
1 LJ
0.667 LW
N
507 341.027 M
502.66 341.027 L
S
GR
GS
[0.75 0 0 0.75 0 0] CT
0.149 GC
2 setlinecap
1 LJ
0.667 LW
N
507 305.351 M
502.66 305.351 L
S
GR
GS
[0.75 0 0 0.75 0 0] CT
0.149 GC
2 setlinecap
1 LJ
0.667 LW
N
507 269.676 M
502.66 269.676 L
S
GR
GS
[0.75 0 0 0.75 0 0] CT
0.149 GC
2 setlinecap
1 LJ
0.667 LW
N
507 234 M
502.66 234 L
S
GR
GS
[0.75 0 0 0.75 50.74999 255.77028] CT
0.149 GC
/Helvetica 13.333 F
GS
[1 0 0 1 0 0] CT
-8 5.5 moveto 
1 -1 scale
(0) t 
GR
GR
GS
[0.75 0 0 0.75 50.74999 229.01351] CT
0.149 GC
/Helvetica 13.333 F
GS
[1 0 0 1 0 0] CT
-8 5.5 moveto 
1 -1 scale
(5) t 
GR
GR
GS
[0.75 0 0 0.75 50.74999 202.25677] CT
0.149 GC
/Helvetica 13.333 F
GS
[1 0 0 1 0 0] CT
-15 5.5 moveto 
1 -1 scale
(10) t 
GR
GR
GS
[0.75 0 0 0.75 50.74999 175.5] CT
0.149 GC
/Helvetica 13.333 F
GS
[1 0 0 1 0 0] CT
-15 5.5 moveto 
1 -1 scale
(15) t 
GR
GR
GS
[0 -0.75 0.75 0 33.75 239.25] CT
0.149 GC
/Helvetica 14.667 F
GS
[1 0 0 1 0 0] CT
0 0 moveto 
1 -1 scale
(T / ) t 
GR
GR
GS
[0 -0.75 0.75 0 28.5 222.75] CT
0.149 GC
/Courier 10.667 F
GS
[1 0 0 1 0 0] CT
0 0 moveto 
1 -1 scale
(\260) t 
GR
GR
GS
[0 -0.75 0.75 0 33.75 219] CT
0.149 GC
/Helvetica 14.667 F
GS
[1 0 0 1 0 0] CT
0 0 moveto 
1 -1 scale
(C) t 
GR
GR
GS
[0.75 0 0 0.75 217.50023 173.4375] CT
/Helvetica-Bold 14.667 F
GS
[1 0 0 1 0 0] CT
-93.5 -4 moveto 
1 -1 scale
(Modelling set: Predictions) t 
GR
GR
GS
[0.75 0 0 0.75 0 0] CT
0 0.447 0.741 RC
1 LJ
0.667 LW
N
72.957 290.172 M
73 289.654 L
74.736 277.524 L
76.472 266.822 L
78.208 258.973 L
79.944 256.119 L
81.68 251.124 L
83.416 250.411 L
85.152 251.838 L
86.888 251.838 L
88.624 256.119 L
90.36 267.535 L
92.096 282.519 L
93.832 299.643 L
95.568 308.919 L
97.304 317.481 L
99.04 329.611 L
100.776 341.741 L
102.512 348.162 L
104.248 348.162 L
105.984 348.876 L
107.72 349.589 L
109.456 349.589 L
111.192 336.032 L
112.928 305.351 L
114.664 284.659 L
116.4 266.822 L
118.136 253.265 L
119.872 248.27 L
121.608 242.562 L
123.344 242.562 L
125.08 241.135 L
126.816 243.989 L
128.552 243.989 L
130.288 251.838 L
132.024 263.968 L
133.76 279.665 L
135.496 288.941 L
137.232 296.076 L
138.968 302.497 L
140.704 307.492 L
142.44 312.486 L
144.176 316.768 L
145.912 316.768 L
147.648 318.195 L
149.384 318.195 L
151.12 316.768 L
152.856 312.486 L
154.592 306.065 L
156.328 296.076 L
158.064 284.659 L
159.8 268.249 L
161.536 266.108 L
163.272 271.816 L
165.008 281.092 L
166.744 284.659 L
168.48 286.8 L
170.216 288.941 L
171.952 291.081 L
173.688 293.935 L
175.424 298.216 L
177.16 301.784 L
178.896 301.784 L
180.632 303.211 L
182.368 304.281 L
184.104 305.351 L
185.84 307.492 L
187.576 311.059 L
189.312 311.773 L
191.048 311.059 L
192.784 311.059 L
194.52 310.346 L
196.256 308.205 L
197.992 303.924 L
199.728 298.216 L
201.464 295.362 L
203.2 289.654 L
204.936 283.946 L
206.672 284.659 L
208.408 286.086 L
210.144 288.227 L
211.88 291.081 L
213.616 291.081 L
215.352 297.503 L
217.088 299.643 L
218.824 303.924 L
220.56 308.205 L
222.296 311.059 L
224.032 312.843 L
225.768 314.627 L
227.504 316.768 L
229.24 318.195 L
230.976 320.335 L
232.712 321.049 L
234.448 320.335 L
236.184 318.908 L
237.92 316.768 L
239.656 316.054 L
241.392 315.341 L
243.128 312.486 L
244.864 312.486 L
246.6 311.773 L
248.336 308.919 L
250.072 306.778 L
251.808 305.351 L
253.544 307.492 L
255.28 307.492 L
257.016 310.346 L
258.752 311.773 L
260.488 315.341 L
262.224 316.768 L
263.96 319.622 L
265.696 326.757 L
267.432 333.892 L
269.168 333.892 L
270.904 336.746 L
272.64 343.881 L
274.376 349.589 L
276.112 352.443 L
277.848 341.027 L
279.584 322.476 L
281.32 302.497 L
283.056 293.935 L
284.792 286.086 L
286.528 281.092 L
288.264 277.524 L
290 273.957 L
291.736 269.676 L
293.472 276.097 L
295.208 276.097 L
296.944 277.524 L
298.68 282.519 L
300.416 297.503 L
302.152 307.492 L
303.888 316.054 L
305.624 322.476 L
307.36 323.546 L
309.096 324.616 L
310.832 317.481 L
312.568 316.054 L
314.304 315.341 L
316.04 316.054 L
317.776 317.481 L
319.512 316.054 L
321.248 309.632 L
322.984 306.778 L
324.72 304.638 L
326.456 301.784 L
328.192 295.362 L
329.928 288.227 L
331.664 286.8 L
333.4 284.659 L
335.136 286.8 L
336.872 287.514 L
338.608 289.654 L
340.344 302.497 L
342.08 311.059 L
343.816 318.908 L
345.552 330.324 L
347.288 335.319 L
349.024 342.097 L
350.76 348.876 L
352.496 351.016 L
354.232 356.011 L
355.968 356.724 L
357.704 356.724 L
359.44 357.438 L
361.176 346.735 L
362.912 333.178 L
364.648 320.335 L
366.384 314.627 L
368.12 312.486 L
369.856 308.919 L
371.592 306.065 L
373.328 301.784 L
375.064 297.503 L
376.8 296.076 L
378.536 294.649 L
380.272 298.216 L
382.008 301.784 L
383.744 316.768 L
385.48 335.319 L
387.216 342.454 L
388.952 353.157 L
390.688 356.011 L
392.424 358.865 L
394.16 359.578 L
395.896 361.719 L
397.632 364.573 L
399.368 365.286 L
401.104 360.292 L
402.84 351.73 L
404.576 336.032 L
406.312 321.049 L
408.048 304.638 L
409.784 302.497 L
411.52 302.497 L
413.256 300.357 L
414.992 296.076 L
416.728 295.362 L
418.464 293.935 L
420.2 300.357 L
421.936 298.216 L
423.672 303.211 L
425.408 309.632 L
427.144 316.054 L
428.88 322.476 L
430.616 328.184 L
432.352 332.108 L
434.088 336.032 L
435.824 338.173 L
437.56 337.459 L
439.296 339.6 L
441.032 341.027 L
442.768 340.314 L
444.504 331.751 L
446.24 316.768 L
447.976 313.2 L
449.712 307.492 L
451.448 306.778 L
453.184 303.211 L
454.92 303.924 L
456.656 306.778 L
458.392 299.643 L
460.128 298.216 L
461.864 298.216 L
463.6 298.216 L
465.336 300.357 L
467.072 305.351 L
468.808 308.205 L
470.544 311.059 L
472.28 313.914 L
474.016 317.124 L
475.752 320.335 L
477.488 324.616 L
479.224 332.465 L
480.96 333.178 L
482.696 332.465 L
484.432 328.897 L
486.168 323.189 L
487.904 312.486 L
489.64 296.789 L
491.376 283.232 L
493.112 266.108 L
494.848 256.119 L
496.584 256.832 L
498.32 253.265 L
500.056 255.405 L
501.792 251.124 L
503.528 252.551 L
505.264 258.973 L
507 266.822 L
507.043 267.107 L
S
GR
GS
[0.75 0 0 0.75 0 0] CT
0.851 0.325 0.098 RC
1 LJ
0.667 LW
N
72.957 318.599 M
73 318.397 L
74.736 309.166 L
76.472 307.788 L
78.208 300.968 L
79.944 294.502 L
81.68 288.285 L
83.416 277.81 L
85.152 270.704 L
86.888 267.203 L
88.624 273.601 L
90.36 278.935 L
92.096 286.811 L
93.832 296.425 L
95.568 300.118 L
97.304 306.342 L
99.04 312.999 L
100.776 314.696 L
102.512 319.957 L
104.248 327.968 L
105.984 334.599 L
107.72 341.597 L
109.456 338.586 L
111.192 334.765 L
112.928 328.468 L
114.664 320.038 L
116.4 307.007 L
118.136 293.127 L
119.872 287.493 L
121.608 281.94 L
123.344 279.248 L
125.08 271.307 L
126.816 257.648 L
128.552 259.137 L
130.288 261.101 L
132.024 267.655 L
133.76 281.778 L
135.496 289.643 L
137.232 300.402 L
138.968 305.662 L
140.704 316.967 L
142.44 321.133 L
144.176 328.577 L
145.912 333.862 L
147.648 338.421 L
149.384 337.297 L
151.12 336.197 L
152.856 327.961 L
154.592 312.109 L
156.328 297.932 L
158.064 286.201 L
159.8 272.874 L
161.536 267.634 L
163.272 261.324 L
165.008 258.187 L
166.744 261.355 L
168.48 265.845 L
170.216 266.202 L
171.952 270.036 L
173.688 271.198 L
175.424 288.82 L
177.16 304.896 L
178.896 318.74 L
180.632 321.773 L
182.368 327.835 L
184.104 332.286 L
185.84 331.59 L
187.576 329.352 L
189.312 328.607 L
191.048 327.473 L
192.784 323.673 L
194.52 320.158 L
196.256 309.362 L
197.992 297.805 L
199.728 288.136 L
201.464 280.988 L
203.2 276.852 L
204.936 275.268 L
206.672 276.718 L
208.408 280.56 L
210.144 287.328 L
211.88 290.434 L
213.616 296.003 L
215.352 304.4 L
217.088 305.696 L
218.824 306.636 L
220.56 312.867 L
222.296 316.042 L
224.032 319.405 L
225.768 322.598 L
227.504 320.826 L
229.24 324.915 L
230.976 321.148 L
232.712 322.531 L
234.448 323.971 L
236.184 321.57 L
237.92 313.919 L
239.656 305.885 L
241.392 299.167 L
243.128 292.332 L
244.864 289.617 L
246.6 286.136 L
248.336 284.271 L
250.072 286.074 L
251.808 291.289 L
253.544 295.999 L
255.28 301.661 L
257.016 307.16 L
258.752 316.243 L
260.488 321.968 L
262.224 322.693 L
263.96 324.937 L
265.696 327.074 L
267.432 332.158 L
269.168 330.449 L
270.904 331.588 L
272.64 329.535 L
274.376 330.083 L
276.112 328.867 L
277.848 327.812 L
279.584 326.017 L
281.32 322.076 L
283.056 312.211 L
284.792 309.374 L
286.528 313.056 L
288.264 313.041 L
290 311.708 L
291.736 300.858 L
293.472 295.153 L
295.208 290.235 L
296.944 297.16 L
298.68 300.157 L
300.416 304.62 L
302.152 309.299 L
303.888 310.307 L
305.624 311.168 L
307.36 324.162 L
309.096 323.002 L
310.832 324.558 L
312.568 328.154 L
314.304 340.244 L
316.04 342.16 L
317.776 343.872 L
319.512 337.754 L
321.248 321.385 L
322.984 309.462 L
324.72 292.926 L
326.456 285.81 L
328.192 280.584 L
329.928 277.563 L
331.664 277.486 L
333.4 280.621 L
335.136 284.361 L
336.872 289.849 L
338.608 294.438 L
340.344 301.987 L
342.08 305.964 L
343.816 311.049 L
345.552 319.541 L
347.288 321.684 L
349.024 327.163 L
350.76 328.001 L
352.496 327.501 L
354.232 333.317 L
355.968 331.204 L
357.704 331.798 L
359.44 336.952 L
361.176 331.753 L
362.912 327.177 L
364.648 323.088 L
366.384 316.867 L
368.12 314.22 L
369.856 307.528 L
371.592 303.179 L
373.328 301.769 L
375.064 293.495 L
376.8 292.756 L
378.536 291.44 L
380.272 298.13 L
382.008 308.592 L
383.744 315.649 L
385.48 323.514 L
387.216 326.78 L
388.952 330.052 L
390.688 334.699 L
392.424 337.946 L
394.16 341.156 L
395.896 340.467 L
397.632 350.172 L
399.368 357.75 L
401.104 352.628 L
402.84 352.406 L
404.576 336.8 L
406.312 326.873 L
408.048 319.278 L
409.784 313.875 L
411.52 311.923 L
413.256 307.051 L
414.992 300.206 L
416.728 297.99 L
418.464 294.853 L
420.2 293.039 L
421.936 289.362 L
423.672 304.025 L
425.408 316.067 L
427.144 324.277 L
428.88 329.031 L
430.616 336.64 L
432.352 339.156 L
434.088 348.507 L
435.824 343.596 L
437.56 346.5 L
439.296 346.138 L
441.032 346.206 L
442.768 345.964 L
444.504 340.494 L
446.24 328.739 L
447.976 316.781 L
449.712 308.333 L
451.448 299.195 L
453.184 297.607 L
454.92 294.732 L
456.656 292.174 L
458.392 288.493 L
460.128 287.76 L
461.864 297.78 L
463.6 298.138 L
465.336 306.192 L
467.072 311.391 L
468.808 322.053 L
470.544 329.691 L
472.28 327.627 L
474.016 332.025 L
475.752 336.407 L
477.488 336.432 L
479.224 336.431 L
480.96 337.969 L
482.696 336.201 L
484.432 335.39 L
486.168 328.861 L
487.904 319.408 L
489.64 310.373 L
491.376 306.676 L
493.112 305.475 L
494.848 298.702 L
496.584 295.805 L
498.32 292.077 L
500.056 291.894 L
501.792 291.075 L
503.528 285.618 L
505.264 283.87 L
507 278.903 L
507.043 279.035 L
S
GR
GS
[0.75 0 0 0.75 0 0] CT
1 GC
N
364 271 M
364 234 L
488 234 L
488 271 L
cp
f
GR
GS
[0.75 0 0 0.75 300.75 183.10275] CT
/Helvetica 12 F
GS
[1 0 0 1 0 0] CT
0 5 moveto 
1 -1 scale
(Measured Data) t 
GR
GR
GS
[0.75 0 0 0.75 0 0] CT
0 0.447 0.741 RC
1 LJ
0.667 LW
N
368 244.137 M
398 244.137 L
S
GR
GS
[0.75 0 0 0.75 300.75 195.64725] CT
/Helvetica 12 F
GS
[1 0 0 1 0 0] CT
0 5 moveto 
1 -1 scale
(8-step) t 
GR
GR
GS
[0.75 0 0 0.75 0 0] CT
0.851 0.325 0.098 RC
1 LJ
0.667 LW
N
368 260.863 M
398 260.863 L
S
GR
GS
[0.75 0 0 0.75 0 0] CT
0.149 GC
10.0 ML
0.667 LW
N
364 271 M
364 234 L
488 234 L
488 271 L
cp
S
GR
%%Trailer
%%Pages: 1
%%EOF
