%!PS-Adobe-3.0 EPSF-3.0
%%Creator: (MATLAB, The Mathworks, Inc. Version 9.0.0.370719 \(R2016a\). Operating System: Windows 8)
%%Title: H:/Skolan/GitTogether/tsaproj/Report/Img/CModPred2.eps
%%CreationDate: 2018-01-11T22:40:01
%%Pages: (atend)
%%BoundingBox: 0 0 420 315
%%LanguageLevel: 3
%%EndComments
%%BeginProlog
%%BeginResource: procset (Apache XML Graphics Std ProcSet) 1.2 0
%%Version: 1.2 0
%%Copyright: (Copyright 2001-2003,2010 The Apache Software Foundation. License terms: http://www.apache.org/licenses/LICENSE-2.0)
/bd{bind def}bind def
/ld{load def}bd
/GR/grestore ld
/M/moveto ld
/LJ/setlinejoin ld
/C/curveto ld
/f/fill ld
/LW/setlinewidth ld
/GC/setgray ld
/t/show ld
/N/newpath ld
/CT/concat ld
/cp/closepath ld
/S/stroke ld
/L/lineto ld
/CC/setcmykcolor ld
/A/ashow ld
/GS/gsave ld
/RC/setrgbcolor ld
/RM/rmoveto ld
/ML/setmiterlimit ld
/re {4 2 roll M
1 index 0 rlineto
0 exch rlineto
neg 0 rlineto
cp } bd
/_ctm matrix def
/_tm matrix def
/BT { _ctm currentmatrix pop matrix _tm copy pop 0 0 moveto } bd
/ET { _ctm setmatrix } bd
/iTm { _ctm setmatrix _tm concat } bd
/Tm { _tm astore pop iTm 0 0 moveto } bd
/ux 0.0 def
/uy 0.0 def
/F {
  /Tp exch def
  /Tf exch def
  Tf findfont Tp scalefont setfont
  /cf Tf def  /cs Tp def
} bd
/ULS {currentpoint /uy exch def /ux exch def} bd
/ULE {
  /Tcx currentpoint pop def
  gsave
  newpath
  cf findfont cs scalefont dup
  /FontMatrix get 0 get /Ts exch def /FontInfo get dup
  /UnderlinePosition get Ts mul /To exch def
  /UnderlineThickness get Ts mul /Tt exch def
  ux uy To add moveto  Tcx uy To add lineto
  Tt setlinewidth stroke
  grestore
} bd
/OLE {
  /Tcx currentpoint pop def
  gsave
  newpath
  cf findfont cs scalefont dup
  /FontMatrix get 0 get /Ts exch def /FontInfo get dup
  /UnderlinePosition get Ts mul /To exch def
  /UnderlineThickness get Ts mul /Tt exch def
  ux uy To add cs add moveto Tcx uy To add cs add lineto
  Tt setlinewidth stroke
  grestore
} bd
/SOE {
  /Tcx currentpoint pop def
  gsave
  newpath
  cf findfont cs scalefont dup
  /FontMatrix get 0 get /Ts exch def /FontInfo get dup
  /UnderlinePosition get Ts mul /To exch def
  /UnderlineThickness get Ts mul /Tt exch def
  ux uy To add cs 10 mul 26 idiv add moveto Tcx uy To add cs 10 mul 26 idiv add lineto
  Tt setlinewidth stroke
  grestore
} bd
/QT {
/Y22 exch store
/X22 exch store
/Y21 exch store
/X21 exch store
currentpoint
/Y21 load 2 mul add 3 div exch
/X21 load 2 mul add 3 div exch
/X21 load 2 mul /X22 load add 3 div
/Y21 load 2 mul /Y22 load add 3 div
/X22 load /Y22 load curveto
} bd
/SSPD {
dup length /d exch dict def
{
/v exch def
/k exch def
currentpagedevice k known {
/cpdv currentpagedevice k get def
v cpdv ne {
/upd false def
/nullv v type /nulltype eq def
/nullcpdv cpdv type /nulltype eq def
nullv nullcpdv or
{
/upd true def
} {
/sametype v type cpdv type eq def
sametype {
v type /arraytype eq {
/vlen v length def
/cpdvlen cpdv length def
vlen cpdvlen eq {
0 1 vlen 1 sub {
/i exch def
/obj v i get def
/cpdobj cpdv i get def
obj cpdobj ne {
/upd true def
exit
} if
} for
} {
/upd true def
} ifelse
} {
v type /dicttype eq {
v {
/dv exch def
/dk exch def
/cpddv cpdv dk get def
dv cpddv ne {
/upd true def
exit
} if
} forall
} {
/upd true def
} ifelse
} ifelse
} if
} ifelse
upd true eq {
d k v put
} if
} if
} if
} forall
d length 0 gt {
d setpagedevice
} if
} bd
%%EndResource
%%BeginResource: procset (Apache XML Graphics EPS ProcSet) 1.0 0
%%Version: 1.0 0
%%Copyright: (Copyright 2002-2003 The Apache Software Foundation. License terms: http://www.apache.org/licenses/LICENSE-2.0)
/BeginEPSF { %def
/b4_Inc_state save def         % Save state for cleanup
/dict_count countdictstack def % Count objects on dict stack
/op_count count 1 sub def      % Count objects on operand stack
userdict begin                 % Push userdict on dict stack
/showpage { } def              % Redefine showpage, { } = null proc
0 setgray 0 setlinecap         % Prepare graphics state
1 setlinewidth 0 setlinejoin
10 setmiterlimit [ ] 0 setdash newpath
/languagelevel where           % If level not equal to 1 then
{pop languagelevel             % set strokeadjust and
1 ne                           % overprint to their defaults.
{false setstrokeadjust false setoverprint
} if
} if
} bd
/EndEPSF { %def
count op_count sub {pop} repeat            % Clean up stacks
countdictstack dict_count sub {end} repeat
b4_Inc_state restore
} bd
%%EndResource
%FOPBeginFontDict
%%IncludeResource: font Courier-Bold
%%IncludeResource: font Helvetica
%%IncludeResource: font Courier-BoldOblique
%%IncludeResource: font Courier-Oblique
%%IncludeResource: font Times-Roman
%%IncludeResource: font Helvetica-BoldOblique
%%IncludeResource: font Helvetica-Bold
%%IncludeResource: font Helvetica-Oblique
%%IncludeResource: font Times-BoldItalic
%%IncludeResource: font Courier
%%IncludeResource: font Times-Italic
%%IncludeResource: font Times-Bold
%%IncludeResource: font Symbol
%%IncludeResource: font ZapfDingbats
%FOPEndFontDict
%%BeginResource: encoding WinAnsiEncoding
/WinAnsiEncoding [
/.notdef /.notdef /.notdef /.notdef /.notdef
/.notdef /.notdef /.notdef /.notdef /.notdef
/.notdef /.notdef /.notdef /.notdef /.notdef
/.notdef /.notdef /.notdef /.notdef /.notdef
/.notdef /.notdef /.notdef /.notdef /.notdef
/.notdef /.notdef /.notdef /.notdef /.notdef
/.notdef /.notdef /space /exclam /quotedbl
/numbersign /dollar /percent /ampersand /quotesingle
/parenleft /parenright /asterisk /plus /comma
/hyphen /period /slash /zero /one
/two /three /four /five /six
/seven /eight /nine /colon /semicolon
/less /equal /greater /question /at
/A /B /C /D /E
/F /G /H /I /J
/K /L /M /N /O
/P /Q /R /S /T
/U /V /W /X /Y
/Z /bracketleft /backslash /bracketright /asciicircum
/underscore /quoteleft /a /b /c
/d /e /f /g /h
/i /j /k /l /m
/n /o /p /q /r
/s /t /u /v /w
/x /y /z /braceleft /bar
/braceright /asciitilde /bullet /Euro /bullet
/quotesinglbase /florin /quotedblbase /ellipsis /dagger
/daggerdbl /circumflex /perthousand /Scaron /guilsinglleft
/OE /bullet /Zcaron /bullet /bullet
/quoteleft /quoteright /quotedblleft /quotedblright /bullet
/endash /emdash /asciitilde /trademark /scaron
/guilsinglright /oe /bullet /zcaron /Ydieresis
/space /exclamdown /cent /sterling /currency
/yen /brokenbar /section /dieresis /copyright
/ordfeminine /guillemotleft /logicalnot /sfthyphen /registered
/macron /degree /plusminus /twosuperior /threesuperior
/acute /mu /paragraph /middot /cedilla
/onesuperior /ordmasculine /guillemotright /onequarter /onehalf
/threequarters /questiondown /Agrave /Aacute /Acircumflex
/Atilde /Adieresis /Aring /AE /Ccedilla
/Egrave /Eacute /Ecircumflex /Edieresis /Igrave
/Iacute /Icircumflex /Idieresis /Eth /Ntilde
/Ograve /Oacute /Ocircumflex /Otilde /Odieresis
/multiply /Oslash /Ugrave /Uacute /Ucircumflex
/Udieresis /Yacute /Thorn /germandbls /agrave
/aacute /acircumflex /atilde /adieresis /aring
/ae /ccedilla /egrave /eacute /ecircumflex
/edieresis /igrave /iacute /icircumflex /idieresis
/eth /ntilde /ograve /oacute /ocircumflex
/otilde /odieresis /divide /oslash /ugrave
/uacute /ucircumflex /udieresis /yacute /thorn
/ydieresis
] def
%%EndResource
%FOPBeginFontReencode
/Courier-Bold findfont
dup length dict begin
  {1 index /FID ne {def} {pop pop} ifelse} forall
  /Encoding WinAnsiEncoding def
  currentdict
end
/Courier-Bold exch definefont pop
/Helvetica findfont
dup length dict begin
  {1 index /FID ne {def} {pop pop} ifelse} forall
  /Encoding WinAnsiEncoding def
  currentdict
end
/Helvetica exch definefont pop
/Courier-BoldOblique findfont
dup length dict begin
  {1 index /FID ne {def} {pop pop} ifelse} forall
  /Encoding WinAnsiEncoding def
  currentdict
end
/Courier-BoldOblique exch definefont pop
/Courier-Oblique findfont
dup length dict begin
  {1 index /FID ne {def} {pop pop} ifelse} forall
  /Encoding WinAnsiEncoding def
  currentdict
end
/Courier-Oblique exch definefont pop
/Times-Roman findfont
dup length dict begin
  {1 index /FID ne {def} {pop pop} ifelse} forall
  /Encoding WinAnsiEncoding def
  currentdict
end
/Times-Roman exch definefont pop
/Helvetica-BoldOblique findfont
dup length dict begin
  {1 index /FID ne {def} {pop pop} ifelse} forall
  /Encoding WinAnsiEncoding def
  currentdict
end
/Helvetica-BoldOblique exch definefont pop
/Helvetica-Bold findfont
dup length dict begin
  {1 index /FID ne {def} {pop pop} ifelse} forall
  /Encoding WinAnsiEncoding def
  currentdict
end
/Helvetica-Bold exch definefont pop
/Helvetica-Oblique findfont
dup length dict begin
  {1 index /FID ne {def} {pop pop} ifelse} forall
  /Encoding WinAnsiEncoding def
  currentdict
end
/Helvetica-Oblique exch definefont pop
/Times-BoldItalic findfont
dup length dict begin
  {1 index /FID ne {def} {pop pop} ifelse} forall
  /Encoding WinAnsiEncoding def
  currentdict
end
/Times-BoldItalic exch definefont pop
/Courier findfont
dup length dict begin
  {1 index /FID ne {def} {pop pop} ifelse} forall
  /Encoding WinAnsiEncoding def
  currentdict
end
/Courier exch definefont pop
/Times-Italic findfont
dup length dict begin
  {1 index /FID ne {def} {pop pop} ifelse} forall
  /Encoding WinAnsiEncoding def
  currentdict
end
/Times-Italic exch definefont pop
/Times-Bold findfont
dup length dict begin
  {1 index /FID ne {def} {pop pop} ifelse} forall
  /Encoding WinAnsiEncoding def
  currentdict
end
/Times-Bold exch definefont pop
%FOPEndFontReencode
%%EndProlog
%%Page: 1 1
%%PageBoundingBox: 0 0 420 315
%%BeginPageSetup
[1 0 0 -1 0 315] CT
%%EndPageSetup
GS
[0.75 0 0 0.75 0 0] CT
1 GC
N
0 0 560 420 re
f
GR
GS
[0.75 0 0 0.75 0 0] CT
1 GC
N
0 0 560 420 re
f
GR
GS
[0.75 0 0 0.75 0 0] CT
1 GC
N
73 167 M
507 167 L
507 35 L
73 35 L
cp
f
GR
GS
[0.75 0 0 0.75 0 0] CT
0.149 GC
2 setlinecap
1 LJ
0.667 LW
N
73 167 M
507 167 L
S
GR
GS
[0.75 0 0 0.75 0 0] CT
0.149 GC
2 setlinecap
1 LJ
0.667 LW
N
73 35 M
507 35 L
S
GR
GS
[0.75 0 0 0.75 0 0] CT
0.149 GC
2 setlinecap
1 LJ
0.667 LW
N
73 167 M
73 162.66 L
S
GR
GS
[0.75 0 0 0.75 0 0] CT
0.149 GC
2 setlinecap
1 LJ
0.667 LW
N
159.8 167 M
159.8 162.66 L
S
GR
GS
[0.75 0 0 0.75 0 0] CT
0.149 GC
2 setlinecap
1 LJ
0.667 LW
N
246.6 167 M
246.6 162.66 L
S
GR
GS
[0.75 0 0 0.75 0 0] CT
0.149 GC
2 setlinecap
1 LJ
0.667 LW
N
333.4 167 M
333.4 162.66 L
S
GR
GS
[0.75 0 0 0.75 0 0] CT
0.149 GC
2 setlinecap
1 LJ
0.667 LW
N
420.2 167 M
420.2 162.66 L
S
GR
GS
[0.75 0 0 0.75 0 0] CT
0.149 GC
2 setlinecap
1 LJ
0.667 LW
N
507 167 M
507 162.66 L
S
GR
GS
[0.75 0 0 0.75 0 0] CT
0.149 GC
2 setlinecap
1 LJ
0.667 LW
N
73 35 M
73 39.34 L
S
GR
GS
[0.75 0 0 0.75 0 0] CT
0.149 GC
2 setlinecap
1 LJ
0.667 LW
N
159.8 35 M
159.8 39.34 L
S
GR
GS
[0.75 0 0 0.75 0 0] CT
0.149 GC
2 setlinecap
1 LJ
0.667 LW
N
246.6 35 M
246.6 39.34 L
S
GR
GS
[0.75 0 0 0.75 0 0] CT
0.149 GC
2 setlinecap
1 LJ
0.667 LW
N
333.4 35 M
333.4 39.34 L
S
GR
GS
[0.75 0 0 0.75 0 0] CT
0.149 GC
2 setlinecap
1 LJ
0.667 LW
N
420.2 35 M
420.2 39.34 L
S
GR
GS
[0.75 0 0 0.75 0 0] CT
0.149 GC
2 setlinecap
1 LJ
0.667 LW
N
507 35 M
507 39.34 L
S
GR
GS
[0.75 0 0 0.75 54.75 129.25] CT
0.149 GC
/Helvetica 13.333 F
GS
[1 0 0 1 0 0] CT
-11 14 moveto 
1 -1 scale
(750) t 
GR
GR
GS
[0.75 0 0 0.75 119.85 129.25] CT
0.149 GC
/Helvetica 13.333 F
GS
[1 0 0 1 0 0] CT
-11 14 moveto 
1 -1 scale
(800) t 
GR
GR
GS
[0.75 0 0 0.75 184.95 129.25] CT
0.149 GC
/Helvetica 13.333 F
GS
[1 0 0 1 0 0] CT
-11 14 moveto 
1 -1 scale
(850) t 
GR
GR
GS
[0.75 0 0 0.75 250.05 129.25] CT
0.149 GC
/Helvetica 13.333 F
GS
[1 0 0 1 0 0] CT
-11 14 moveto 
1 -1 scale
(900) t 
GR
GR
GS
[0.75 0 0 0.75 315.15001 129.25] CT
0.149 GC
/Helvetica 13.333 F
GS
[1 0 0 1 0 0] CT
-11 14 moveto 
1 -1 scale
(950) t 
GR
GR
GS
[0.75 0 0 0.75 380.25 129.25] CT
0.149 GC
/Helvetica 13.333 F
GS
[1 0 0 1 0 0] CT
-14.5 14 moveto 
1 -1 scale
(1000) t 
GR
GR
GS
[0.75 0 0 0.75 217.50016 143] CT
0.149 GC
/Helvetica 14.667 F
GS
[1 0 0 1 0 0] CT
-13 16 moveto 
1 -1 scale
(t / h) t 
GR
GR
GS
[0.75 0 0 0.75 0 0] CT
0.149 GC
2 setlinecap
1 LJ
0.667 LW
N
73 167 M
73 35 L
S
GR
GS
[0.75 0 0 0.75 0 0] CT
0.149 GC
2 setlinecap
1 LJ
0.667 LW
N
507 167 M
507 35 L
S
GR
GS
[0.75 0 0 0.75 0 0] CT
0.149 GC
2 setlinecap
1 LJ
0.667 LW
N
73 142.027 M
77.34 142.027 L
S
GR
GS
[0.75 0 0 0.75 0 0] CT
0.149 GC
2 setlinecap
1 LJ
0.667 LW
N
73 106.351 M
77.34 106.351 L
S
GR
GS
[0.75 0 0 0.75 0 0] CT
0.149 GC
2 setlinecap
1 LJ
0.667 LW
N
73 70.676 M
77.34 70.676 L
S
GR
GS
[0.75 0 0 0.75 0 0] CT
0.149 GC
2 setlinecap
1 LJ
0.667 LW
N
73 35 M
77.34 35 L
S
GR
GS
[0.75 0 0 0.75 0 0] CT
0.149 GC
2 setlinecap
1 LJ
0.667 LW
N
507 142.027 M
502.66 142.027 L
S
GR
GS
[0.75 0 0 0.75 0 0] CT
0.149 GC
2 setlinecap
1 LJ
0.667 LW
N
507 106.351 M
502.66 106.351 L
S
GR
GS
[0.75 0 0 0.75 0 0] CT
0.149 GC
2 setlinecap
1 LJ
0.667 LW
N
507 70.676 M
502.66 70.676 L
S
GR
GS
[0.75 0 0 0.75 0 0] CT
0.149 GC
2 setlinecap
1 LJ
0.667 LW
N
507 35 M
502.66 35 L
S
GR
GS
[0.75 0 0 0.75 50.74999 106.52027] CT
0.149 GC
/Helvetica 13.333 F
GS
[1 0 0 1 0 0] CT
-8 5.5 moveto 
1 -1 scale
(0) t 
GR
GR
GS
[0.75 0 0 0.75 50.74999 79.76351] CT
0.149 GC
/Helvetica 13.333 F
GS
[1 0 0 1 0 0] CT
-8 5.5 moveto 
1 -1 scale
(5) t 
GR
GR
GS
[0.75 0 0 0.75 50.74999 53.00676] CT
0.149 GC
/Helvetica 13.333 F
GS
[1 0 0 1 0 0] CT
-15 5.5 moveto 
1 -1 scale
(10) t 
GR
GR
GS
[0.75 0 0 0.75 50.74999 26.25] CT
0.149 GC
/Helvetica 13.333 F
GS
[1 0 0 1 0 0] CT
-15 5.5 moveto 
1 -1 scale
(15) t 
GR
GR
GS
[0 -0.75 0.75 0 33.75 90] CT
0.149 GC
/Helvetica 14.667 F
GS
[1 0 0 1 0 0] CT
0 0 moveto 
1 -1 scale
(T / ) t 
GR
GR
GS
[0 -0.75 0.75 0 28.5 73.5] CT
0.149 GC
/Courier 10.667 F
GS
[1 0 0 1 0 0] CT
0 0 moveto 
1 -1 scale
(\260) t 
GR
GR
GS
[0 -0.75 0.75 0 33.75 69.75] CT
0.149 GC
/Helvetica 14.667 F
GS
[1 0 0 1 0 0] CT
0 0 moveto 
1 -1 scale
(C) t 
GR
GR
GS
[0.75 0 0 0.75 217.50023 24.1875] CT
/Helvetica-Bold 14.667 F
GS
[1 0 0 1 0 0] CT
-93.5 -4 moveto 
1 -1 scale
(Modelling set: Predictions) t 
GR
GR
GS
[0.75 0 0 0.75 0 0] CT
0 0.447 0.741 RC
1 LJ
0.667 LW
N
72.957 91.172 M
73 90.654 L
74.736 78.524 L
76.472 67.822 L
78.208 59.973 L
79.944 57.119 L
81.68 52.124 L
83.416 51.411 L
85.152 52.838 L
86.888 52.838 L
88.624 57.119 L
90.36 68.535 L
92.096 83.519 L
93.832 100.643 L
95.568 109.919 L
97.304 118.481 L
99.04 130.611 L
100.776 142.741 L
102.512 149.162 L
104.248 149.162 L
105.984 149.876 L
107.72 150.589 L
109.456 150.589 L
111.192 137.032 L
112.928 106.351 L
114.664 85.659 L
116.4 67.822 L
118.136 54.265 L
119.872 49.27 L
121.608 43.562 L
123.344 43.562 L
125.08 42.135 L
126.816 44.989 L
128.552 44.989 L
130.288 52.838 L
132.024 64.968 L
133.76 80.665 L
135.496 89.941 L
137.232 97.076 L
138.968 103.497 L
140.704 108.492 L
142.44 113.486 L
144.176 117.768 L
145.912 117.768 L
147.648 119.195 L
149.384 119.195 L
151.12 117.768 L
152.856 113.486 L
154.592 107.065 L
156.328 97.076 L
158.064 85.659 L
159.8 69.249 L
161.536 67.108 L
163.272 72.816 L
165.008 82.092 L
166.744 85.659 L
168.48 87.8 L
170.216 89.941 L
171.952 92.081 L
173.688 94.935 L
175.424 99.216 L
177.16 102.784 L
178.896 102.784 L
180.632 104.211 L
182.368 105.281 L
184.104 106.351 L
185.84 108.492 L
187.576 112.059 L
189.312 112.773 L
191.048 112.059 L
192.784 112.059 L
194.52 111.346 L
196.256 109.205 L
197.992 104.924 L
199.728 99.216 L
201.464 96.362 L
203.2 90.654 L
204.936 84.946 L
206.672 85.659 L
208.408 87.086 L
210.144 89.227 L
211.88 92.081 L
213.616 92.081 L
215.352 98.503 L
217.088 100.643 L
218.824 104.924 L
220.56 109.205 L
222.296 112.059 L
224.032 113.843 L
225.768 115.627 L
227.504 117.768 L
229.24 119.195 L
230.976 121.335 L
232.712 122.049 L
234.448 121.335 L
236.184 119.908 L
237.92 117.768 L
239.656 117.054 L
241.392 116.341 L
243.128 113.486 L
244.864 113.486 L
246.6 112.773 L
248.336 109.919 L
250.072 107.778 L
251.808 106.351 L
253.544 108.492 L
255.28 108.492 L
257.016 111.346 L
258.752 112.773 L
260.488 116.341 L
262.224 117.768 L
263.96 120.622 L
265.696 127.757 L
267.432 134.892 L
269.168 134.892 L
270.904 137.746 L
272.64 144.881 L
274.376 150.589 L
276.112 153.443 L
277.848 142.027 L
279.584 123.476 L
281.32 103.497 L
283.056 94.935 L
284.792 87.086 L
286.528 82.092 L
288.264 78.524 L
290 74.957 L
291.736 70.676 L
293.472 77.097 L
295.208 77.097 L
296.944 78.524 L
298.68 83.519 L
300.416 98.503 L
302.152 108.492 L
303.888 117.054 L
305.624 123.476 L
307.36 124.546 L
309.096 125.616 L
310.832 118.481 L
312.568 117.054 L
314.304 116.341 L
316.04 117.054 L
317.776 118.481 L
319.512 117.054 L
321.248 110.632 L
322.984 107.778 L
324.72 105.638 L
326.456 102.784 L
328.192 96.362 L
329.928 89.227 L
331.664 87.8 L
333.4 85.659 L
335.136 87.8 L
336.872 88.514 L
338.608 90.654 L
340.344 103.497 L
342.08 112.059 L
343.816 119.908 L
345.552 131.324 L
347.288 136.319 L
349.024 143.097 L
350.76 149.876 L
352.496 152.016 L
354.232 157.011 L
355.968 157.724 L
357.704 157.724 L
359.44 158.438 L
361.176 147.735 L
362.912 134.178 L
364.648 121.335 L
366.384 115.627 L
368.12 113.486 L
369.856 109.919 L
371.592 107.065 L
373.328 102.784 L
375.064 98.503 L
376.8 97.076 L
378.536 95.649 L
380.272 99.216 L
382.008 102.784 L
383.744 117.768 L
385.48 136.319 L
387.216 143.454 L
388.952 154.157 L
390.688 157.011 L
392.424 159.865 L
394.16 160.578 L
395.896 162.719 L
397.632 165.573 L
399.368 166.286 L
401.104 161.292 L
402.84 152.73 L
404.576 137.032 L
406.312 122.049 L
408.048 105.638 L
409.784 103.497 L
411.52 103.497 L
413.256 101.357 L
414.992 97.076 L
416.728 96.362 L
418.464 94.935 L
420.2 101.357 L
421.936 99.216 L
423.672 104.211 L
425.408 110.632 L
427.144 117.054 L
428.88 123.476 L
430.616 129.184 L
432.352 133.108 L
434.088 137.032 L
435.824 139.173 L
437.56 138.459 L
439.296 140.6 L
441.032 142.027 L
442.768 141.314 L
444.504 132.751 L
446.24 117.768 L
447.976 114.2 L
449.712 108.492 L
451.448 107.778 L
453.184 104.211 L
454.92 104.924 L
456.656 107.778 L
458.392 100.643 L
460.128 99.216 L
461.864 99.216 L
463.6 99.216 L
465.336 101.357 L
467.072 106.351 L
468.808 109.205 L
470.544 112.059 L
472.28 114.914 L
474.016 118.124 L
475.752 121.335 L
477.488 125.616 L
479.224 133.465 L
480.96 134.178 L
482.696 133.465 L
484.432 129.897 L
486.168 124.189 L
487.904 113.486 L
489.64 97.789 L
491.376 84.232 L
493.112 67.108 L
494.848 57.119 L
496.584 57.832 L
498.32 54.265 L
500.056 56.405 L
501.792 52.124 L
503.528 53.551 L
505.264 59.973 L
507 67.822 L
507.043 68.107 L
S
GR
GS
[0.75 0 0 0.75 0 0] CT
0.851 0.325 0.098 RC
1 LJ
0.667 LW
N
72.957 97.225 M
73 96.71 L
74.736 76.641 L
76.472 71.995 L
78.208 61.979 L
79.944 56.116 L
81.68 57.387 L
83.416 52.637 L
85.152 52.01 L
86.888 57.662 L
88.624 57.542 L
90.36 67.834 L
92.096 81.412 L
93.832 95.863 L
95.568 113.229 L
97.304 117.871 L
99.04 124.718 L
100.776 138.387 L
102.512 149.217 L
104.248 154.141 L
105.984 148.238 L
107.72 149.307 L
109.456 149.291 L
111.192 145.521 L
112.928 119.502 L
114.664 85.502 L
116.4 71.524 L
118.136 58.123 L
119.872 47.12 L
121.608 46.961 L
123.344 42.252 L
125.08 46.33 L
126.816 41.865 L
128.552 50.838 L
130.288 50.561 L
132.024 65.461 L
133.76 79.673 L
135.496 94.601 L
137.232 99.342 L
138.968 105.137 L
140.704 110.812 L
142.44 115.22 L
144.176 117.163 L
145.912 122.677 L
147.648 118.701 L
149.384 121.366 L
151.12 119.692 L
152.856 111.727 L
154.592 101.796 L
156.328 97.775 L
158.064 87.129 L
159.8 77.138 L
161.536 59.213 L
163.272 65.213 L
165.008 76.842 L
166.744 88.048 L
168.48 86.3 L
170.216 88.925 L
171.952 93.75 L
173.688 98.884 L
175.424 101.422 L
177.16 104.878 L
178.896 107.214 L
180.632 104.955 L
182.368 106.862 L
184.104 108.53 L
185.84 107.733 L
187.576 111.706 L
189.312 113.781 L
191.048 113.817 L
192.784 112.816 L
194.52 109.795 L
196.256 103.625 L
197.992 102.964 L
199.728 97.16 L
201.464 93.694 L
203.2 94.925 L
204.936 88.664 L
206.672 83.34 L
208.408 87.025 L
210.144 88.115 L
211.88 91.508 L
213.616 95.766 L
215.352 96.991 L
217.088 105.843 L
218.824 104.413 L
220.56 108.774 L
222.296 112.611 L
224.032 114.3 L
225.768 116.302 L
227.504 117.261 L
229.24 120.351 L
230.976 119.085 L
232.712 122.437 L
234.448 123.237 L
236.184 118.861 L
237.92 111.96 L
239.656 111.485 L
241.392 112.278 L
243.128 113.003 L
244.864 109.203 L
246.6 111.407 L
248.336 112.57 L
250.072 108.378 L
251.808 106.398 L
253.544 104.539 L
255.28 110.637 L
257.016 111.697 L
258.752 115.839 L
260.488 116.03 L
262.224 119.419 L
263.96 120.71 L
265.696 123.352 L
267.432 132.939 L
269.168 138.354 L
270.904 136.035 L
272.64 138.521 L
274.376 147.131 L
276.112 152.965 L
277.848 151.819 L
279.584 128.257 L
281.32 109.971 L
283.056 90.263 L
284.792 90.012 L
286.528 83.34 L
288.264 79.239 L
290 77.305 L
291.736 73.892 L
293.472 69.592 L
295.208 83.611 L
296.944 80.275 L
298.68 85.102 L
300.416 91.969 L
302.152 110.219 L
303.888 115.9 L
305.624 122.898 L
307.36 128.064 L
309.096 126.346 L
310.832 126.67 L
312.568 117.612 L
314.304 118.428 L
316.04 117.013 L
317.776 117.244 L
319.512 114.466 L
321.248 107.651 L
322.984 102.392 L
324.72 103.007 L
326.456 102.543 L
328.192 100.309 L
329.928 92.257 L
331.664 85.622 L
333.4 88.644 L
335.136 85.736 L
336.872 89.12 L
338.608 90.396 L
340.344 97.214 L
342.08 115.264 L
343.816 119.329 L
345.552 125.852 L
347.288 137.87 L
349.024 138.774 L
350.76 145.617 L
352.496 150.618 L
354.232 152.417 L
355.968 157.873 L
357.704 156.699 L
359.44 156.795 L
361.176 153.929 L
362.912 134.311 L
364.648 122.799 L
366.384 111.969 L
368.12 107.762 L
369.856 108.072 L
371.592 104.679 L
373.328 104.805 L
375.064 99.167 L
376.8 96.467 L
378.536 96.904 L
380.272 97.626 L
382.008 106.674 L
383.744 109.474 L
385.48 128.762 L
387.216 146.97 L
388.952 147.906 L
390.688 159.762 L
392.424 158.807 L
394.16 158.895 L
395.896 160.357 L
397.632 161.877 L
399.368 166.007 L
401.104 164.441 L
402.84 152.201 L
404.576 137.052 L
406.312 122.283 L
408.048 111.079 L
409.784 96.076 L
411.52 101.047 L
413.256 101.702 L
414.992 98.865 L
416.728 93.622 L
418.464 95.483 L
420.2 94.011 L
421.936 104.642 L
423.672 103.179 L
425.408 113.721 L
427.144 117.786 L
428.88 123.515 L
430.616 128.978 L
432.352 133.211 L
434.088 137.063 L
435.824 138.515 L
437.56 142.3 L
439.296 138.748 L
441.032 141.09 L
442.768 142.092 L
444.504 135.3 L
446.24 119.011 L
447.976 103.797 L
449.712 108.564 L
451.448 104.833 L
453.184 105.781 L
454.92 100.596 L
456.656 104.197 L
458.392 107.397 L
460.128 98.167 L
461.864 98.57 L
463.6 100.383 L
465.336 103.885 L
467.072 107.226 L
468.808 112.786 L
470.544 113.123 L
472.28 116.673 L
474.016 118.42 L
475.752 122.648 L
477.488 122.797 L
479.224 129.828 L
480.96 138.289 L
482.696 134.8 L
484.432 132.908 L
486.168 122.842 L
487.904 112.846 L
489.64 103.588 L
491.376 87.262 L
493.112 78.532 L
494.848 60.119 L
496.584 54.887 L
498.32 58.951 L
500.056 53.085 L
501.792 59.641 L
503.528 53.622 L
505.264 57.305 L
507 69.994 L
507.043 70.192 L
S
GR
GS
[0.75 0 0 0.75 0 0] CT
1 GC
N
355 73 M
355 36 L
479 36 L
479 73 L
cp
f
GR
GS
[0.75 0 0 0.75 294 34.60274] CT
/Helvetica 12 F
GS
[1 0 0 1 0 0] CT
0 5 moveto 
1 -1 scale
(Measured Data) t 
GR
GR
GS
[0.75 0 0 0.75 0 0] CT
0 0.447 0.741 RC
1 LJ
0.667 LW
N
359 46.137 M
389 46.137 L
S
GR
GS
[0.75 0 0 0.75 294 47.14726] CT
/Helvetica 12 F
GS
[1 0 0 1 0 0] CT
0 5 moveto 
1 -1 scale
(1-step) t 
GR
GR
GS
[0.75 0 0 0.75 0 0] CT
0.851 0.325 0.098 RC
1 LJ
0.667 LW
N
359 62.863 M
389 62.863 L
S
GR
GS
[0.75 0 0 0.75 0 0] CT
0.149 GC
10.0 ML
0.667 LW
N
355 73 M
355 36 L
479 36 L
479 73 L
cp
S
GR
GS
[0.75 0 0 0.75 0 0] CT
1 GC
N
73 366 M
507 366 L
507 234 L
73 234 L
cp
f
GR
GS
[0.75 0 0 0.75 0 0] CT
0.149 GC
2 setlinecap
1 LJ
0.667 LW
N
73 366 M
507 366 L
S
GR
GS
[0.75 0 0 0.75 0 0] CT
0.149 GC
2 setlinecap
1 LJ
0.667 LW
N
73 234 M
507 234 L
S
GR
GS
[0.75 0 0 0.75 0 0] CT
0.149 GC
2 setlinecap
1 LJ
0.667 LW
N
73 366 M
73 361.66 L
S
GR
GS
[0.75 0 0 0.75 0 0] CT
0.149 GC
2 setlinecap
1 LJ
0.667 LW
N
159.8 366 M
159.8 361.66 L
S
GR
GS
[0.75 0 0 0.75 0 0] CT
0.149 GC
2 setlinecap
1 LJ
0.667 LW
N
246.6 366 M
246.6 361.66 L
S
GR
GS
[0.75 0 0 0.75 0 0] CT
0.149 GC
2 setlinecap
1 LJ
0.667 LW
N
333.4 366 M
333.4 361.66 L
S
GR
GS
[0.75 0 0 0.75 0 0] CT
0.149 GC
2 setlinecap
1 LJ
0.667 LW
N
420.2 366 M
420.2 361.66 L
S
GR
GS
[0.75 0 0 0.75 0 0] CT
0.149 GC
2 setlinecap
1 LJ
0.667 LW
N
507 366 M
507 361.66 L
S
GR
GS
[0.75 0 0 0.75 0 0] CT
0.149 GC
2 setlinecap
1 LJ
0.667 LW
N
73 234 M
73 238.34 L
S
GR
GS
[0.75 0 0 0.75 0 0] CT
0.149 GC
2 setlinecap
1 LJ
0.667 LW
N
159.8 234 M
159.8 238.34 L
S
GR
GS
[0.75 0 0 0.75 0 0] CT
0.149 GC
2 setlinecap
1 LJ
0.667 LW
N
246.6 234 M
246.6 238.34 L
S
GR
GS
[0.75 0 0 0.75 0 0] CT
0.149 GC
2 setlinecap
1 LJ
0.667 LW
N
333.4 234 M
333.4 238.34 L
S
GR
GS
[0.75 0 0 0.75 0 0] CT
0.149 GC
2 setlinecap
1 LJ
0.667 LW
N
420.2 234 M
420.2 238.34 L
S
GR
GS
[0.75 0 0 0.75 0 0] CT
0.149 GC
2 setlinecap
1 LJ
0.667 LW
N
507 234 M
507 238.34 L
S
GR
GS
[0.75 0 0 0.75 54.75 278.50001] CT
0.149 GC
/Helvetica 13.333 F
GS
[1 0 0 1 0 0] CT
-11 14 moveto 
1 -1 scale
(750) t 
GR
GR
GS
[0.75 0 0 0.75 119.85 278.50001] CT
0.149 GC
/Helvetica 13.333 F
GS
[1 0 0 1 0 0] CT
-11 14 moveto 
1 -1 scale
(800) t 
GR
GR
GS
[0.75 0 0 0.75 184.95 278.50001] CT
0.149 GC
/Helvetica 13.333 F
GS
[1 0 0 1 0 0] CT
-11 14 moveto 
1 -1 scale
(850) t 
GR
GR
GS
[0.75 0 0 0.75 250.05 278.50001] CT
0.149 GC
/Helvetica 13.333 F
GS
[1 0 0 1 0 0] CT
-11 14 moveto 
1 -1 scale
(900) t 
GR
GR
GS
[0.75 0 0 0.75 315.15001 278.50001] CT
0.149 GC
/Helvetica 13.333 F
GS
[1 0 0 1 0 0] CT
-11 14 moveto 
1 -1 scale
(950) t 
GR
GR
GS
[0.75 0 0 0.75 380.25 278.50001] CT
0.149 GC
/Helvetica 13.333 F
GS
[1 0 0 1 0 0] CT
-14.5 14 moveto 
1 -1 scale
(1000) t 
GR
GR
GS
[0.75 0 0 0.75 217.50016 292.24999] CT
0.149 GC
/Helvetica 14.667 F
GS
[1 0 0 1 0 0] CT
-13 16 moveto 
1 -1 scale
(t / h) t 
GR
GR
GS
[0.75 0 0 0.75 0 0] CT
0.149 GC
2 setlinecap
1 LJ
0.667 LW
N
73 366 M
73 234 L
S
GR
GS
[0.75 0 0 0.75 0 0] CT
0.149 GC
2 setlinecap
1 LJ
0.667 LW
N
507 366 M
507 234 L
S
GR
GS
[0.75 0 0 0.75 0 0] CT
0.149 GC
2 setlinecap
1 LJ
0.667 LW
N
73 341.027 M
77.34 341.027 L
S
GR
GS
[0.75 0 0 0.75 0 0] CT
0.149 GC
2 setlinecap
1 LJ
0.667 LW
N
73 305.351 M
77.34 305.351 L
S
GR
GS
[0.75 0 0 0.75 0 0] CT
0.149 GC
2 setlinecap
1 LJ
0.667 LW
N
73 269.676 M
77.34 269.676 L
S
GR
GS
[0.75 0 0 0.75 0 0] CT
0.149 GC
2 setlinecap
1 LJ
0.667 LW
N
73 234 M
77.34 234 L
S
GR
GS
[0.75 0 0 0.75 0 0] CT
0.149 GC
2 setlinecap
1 LJ
0.667 LW
N
507 341.027 M
502.66 341.027 L
S
GR
GS
[0.75 0 0 0.75 0 0] CT
0.149 GC
2 setlinecap
1 LJ
0.667 LW
N
507 305.351 M
502.66 305.351 L
S
GR
GS
[0.75 0 0 0.75 0 0] CT
0.149 GC
2 setlinecap
1 LJ
0.667 LW
N
507 269.676 M
502.66 269.676 L
S
GR
GS
[0.75 0 0 0.75 0 0] CT
0.149 GC
2 setlinecap
1 LJ
0.667 LW
N
507 234 M
502.66 234 L
S
GR
GS
[0.75 0 0 0.75 50.74999 255.77028] CT
0.149 GC
/Helvetica 13.333 F
GS
[1 0 0 1 0 0] CT
-8 5.5 moveto 
1 -1 scale
(0) t 
GR
GR
GS
[0.75 0 0 0.75 50.74999 229.01351] CT
0.149 GC
/Helvetica 13.333 F
GS
[1 0 0 1 0 0] CT
-8 5.5 moveto 
1 -1 scale
(5) t 
GR
GR
GS
[0.75 0 0 0.75 50.74999 202.25677] CT
0.149 GC
/Helvetica 13.333 F
GS
[1 0 0 1 0 0] CT
-15 5.5 moveto 
1 -1 scale
(10) t 
GR
GR
GS
[0.75 0 0 0.75 50.74999 175.5] CT
0.149 GC
/Helvetica 13.333 F
GS
[1 0 0 1 0 0] CT
-15 5.5 moveto 
1 -1 scale
(15) t 
GR
GR
GS
[0 -0.75 0.75 0 33.75 239.25] CT
0.149 GC
/Helvetica 14.667 F
GS
[1 0 0 1 0 0] CT
0 0 moveto 
1 -1 scale
(T / ) t 
GR
GR
GS
[0 -0.75 0.75 0 28.5 222.75] CT
0.149 GC
/Courier 10.667 F
GS
[1 0 0 1 0 0] CT
0 0 moveto 
1 -1 scale
(\260) t 
GR
GR
GS
[0 -0.75 0.75 0 33.75 219] CT
0.149 GC
/Helvetica 14.667 F
GS
[1 0 0 1 0 0] CT
0 0 moveto 
1 -1 scale
(C) t 
GR
GR
GS
[0.75 0 0 0.75 217.50023 173.4375] CT
/Helvetica-Bold 14.667 F
GS
[1 0 0 1 0 0] CT
-93.5 -4 moveto 
1 -1 scale
(Modelling set: Predictions) t 
GR
GR
GS
[0.75 0 0 0.75 0 0] CT
0 0.447 0.741 RC
1 LJ
0.667 LW
N
72.957 290.172 M
73 289.654 L
74.736 277.524 L
76.472 266.822 L
78.208 258.973 L
79.944 256.119 L
81.68 251.124 L
83.416 250.411 L
85.152 251.838 L
86.888 251.838 L
88.624 256.119 L
90.36 267.535 L
92.096 282.519 L
93.832 299.643 L
95.568 308.919 L
97.304 317.481 L
99.04 329.611 L
100.776 341.741 L
102.512 348.162 L
104.248 348.162 L
105.984 348.876 L
107.72 349.589 L
109.456 349.589 L
111.192 336.032 L
112.928 305.351 L
114.664 284.659 L
116.4 266.822 L
118.136 253.265 L
119.872 248.27 L
121.608 242.562 L
123.344 242.562 L
125.08 241.135 L
126.816 243.989 L
128.552 243.989 L
130.288 251.838 L
132.024 263.968 L
133.76 279.665 L
135.496 288.941 L
137.232 296.076 L
138.968 302.497 L
140.704 307.492 L
142.44 312.486 L
144.176 316.768 L
145.912 316.768 L
147.648 318.195 L
149.384 318.195 L
151.12 316.768 L
152.856 312.486 L
154.592 306.065 L
156.328 296.076 L
158.064 284.659 L
159.8 268.249 L
161.536 266.108 L
163.272 271.816 L
165.008 281.092 L
166.744 284.659 L
168.48 286.8 L
170.216 288.941 L
171.952 291.081 L
173.688 293.935 L
175.424 298.216 L
177.16 301.784 L
178.896 301.784 L
180.632 303.211 L
182.368 304.281 L
184.104 305.351 L
185.84 307.492 L
187.576 311.059 L
189.312 311.773 L
191.048 311.059 L
192.784 311.059 L
194.52 310.346 L
196.256 308.205 L
197.992 303.924 L
199.728 298.216 L
201.464 295.362 L
203.2 289.654 L
204.936 283.946 L
206.672 284.659 L
208.408 286.086 L
210.144 288.227 L
211.88 291.081 L
213.616 291.081 L
215.352 297.503 L
217.088 299.643 L
218.824 303.924 L
220.56 308.205 L
222.296 311.059 L
224.032 312.843 L
225.768 314.627 L
227.504 316.768 L
229.24 318.195 L
230.976 320.335 L
232.712 321.049 L
234.448 320.335 L
236.184 318.908 L
237.92 316.768 L
239.656 316.054 L
241.392 315.341 L
243.128 312.486 L
244.864 312.486 L
246.6 311.773 L
248.336 308.919 L
250.072 306.778 L
251.808 305.351 L
253.544 307.492 L
255.28 307.492 L
257.016 310.346 L
258.752 311.773 L
260.488 315.341 L
262.224 316.768 L
263.96 319.622 L
265.696 326.757 L
267.432 333.892 L
269.168 333.892 L
270.904 336.746 L
272.64 343.881 L
274.376 349.589 L
276.112 352.443 L
277.848 341.027 L
279.584 322.476 L
281.32 302.497 L
283.056 293.935 L
284.792 286.086 L
286.528 281.092 L
288.264 277.524 L
290 273.957 L
291.736 269.676 L
293.472 276.097 L
295.208 276.097 L
296.944 277.524 L
298.68 282.519 L
300.416 297.503 L
302.152 307.492 L
303.888 316.054 L
305.624 322.476 L
307.36 323.546 L
309.096 324.616 L
310.832 317.481 L
312.568 316.054 L
314.304 315.341 L
316.04 316.054 L
317.776 317.481 L
319.512 316.054 L
321.248 309.632 L
322.984 306.778 L
324.72 304.638 L
326.456 301.784 L
328.192 295.362 L
329.928 288.227 L
331.664 286.8 L
333.4 284.659 L
335.136 286.8 L
336.872 287.514 L
338.608 289.654 L
340.344 302.497 L
342.08 311.059 L
343.816 318.908 L
345.552 330.324 L
347.288 335.319 L
349.024 342.097 L
350.76 348.876 L
352.496 351.016 L
354.232 356.011 L
355.968 356.724 L
357.704 356.724 L
359.44 357.438 L
361.176 346.735 L
362.912 333.178 L
364.648 320.335 L
366.384 314.627 L
368.12 312.486 L
369.856 308.919 L
371.592 306.065 L
373.328 301.784 L
375.064 297.503 L
376.8 296.076 L
378.536 294.649 L
380.272 298.216 L
382.008 301.784 L
383.744 316.768 L
385.48 335.319 L
387.216 342.454 L
388.952 353.157 L
390.688 356.011 L
392.424 358.865 L
394.16 359.578 L
395.896 361.719 L
397.632 364.573 L
399.368 365.286 L
401.104 360.292 L
402.84 351.73 L
404.576 336.032 L
406.312 321.049 L
408.048 304.638 L
409.784 302.497 L
411.52 302.497 L
413.256 300.357 L
414.992 296.076 L
416.728 295.362 L
418.464 293.935 L
420.2 300.357 L
421.936 298.216 L
423.672 303.211 L
425.408 309.632 L
427.144 316.054 L
428.88 322.476 L
430.616 328.184 L
432.352 332.108 L
434.088 336.032 L
435.824 338.173 L
437.56 337.459 L
439.296 339.6 L
441.032 341.027 L
442.768 340.314 L
444.504 331.751 L
446.24 316.768 L
447.976 313.2 L
449.712 307.492 L
451.448 306.778 L
453.184 303.211 L
454.92 303.924 L
456.656 306.778 L
458.392 299.643 L
460.128 298.216 L
461.864 298.216 L
463.6 298.216 L
465.336 300.357 L
467.072 305.351 L
468.808 308.205 L
470.544 311.059 L
472.28 313.914 L
474.016 317.124 L
475.752 320.335 L
477.488 324.616 L
479.224 332.465 L
480.96 333.178 L
482.696 332.465 L
484.432 328.897 L
486.168 323.189 L
487.904 312.486 L
489.64 296.789 L
491.376 283.232 L
493.112 266.108 L
494.848 256.119 L
496.584 256.832 L
498.32 253.265 L
500.056 255.405 L
501.792 251.124 L
503.528 252.551 L
505.264 258.973 L
507 266.822 L
507.043 267.107 L
S
GR
GS
[0.75 0 0 0.75 0 0] CT
0.851 0.325 0.098 RC
1 LJ
0.667 LW
N
72.957 317.217 M
73 316.984 L
74.736 305.89 L
76.472 302.361 L
78.208 294.195 L
79.944 288.137 L
81.68 282.392 L
83.416 273.963 L
85.152 269.445 L
86.888 268.588 L
88.624 274.987 L
90.36 281.987 L
92.096 291.891 L
93.832 302.507 L
95.568 307.623 L
97.304 314.874 L
99.04 321.752 L
100.776 323.746 L
102.512 328.267 L
104.248 334.457 L
105.984 338.833 L
107.72 343.163 L
109.456 339.994 L
111.192 335.816 L
112.928 326.797 L
114.664 315.747 L
116.4 302.122 L
118.136 288.35 L
119.872 281.686 L
121.608 276.173 L
123.344 272.751 L
125.08 265.502 L
126.816 255.186 L
128.552 259.063 L
130.288 262.852 L
132.024 271.425 L
133.76 287.145 L
135.496 297.062 L
137.232 308.674 L
138.968 314.232 L
140.704 324.505 L
142.44 326.806 L
144.176 332.433 L
145.912 335.585 L
147.648 337.799 L
149.384 335.43 L
151.12 334.026 L
152.856 326.708 L
154.592 311.515 L
156.328 297.121 L
158.064 286.243 L
159.8 273.341 L
161.536 267.576 L
163.272 261.872 L
165.008 260.57 L
166.744 264.821 L
168.48 269.904 L
170.216 270.838 L
171.952 274.24 L
173.688 277.466 L
175.424 294.581 L
177.16 309.746 L
178.896 320.793 L
180.632 322.004 L
182.368 326.27 L
184.104 329.929 L
185.84 328.814 L
187.576 326.421 L
189.312 324.429 L
191.048 322.766 L
192.784 319.826 L
194.52 316.998 L
196.256 306.72 L
197.992 295.287 L
199.728 286.285 L
201.464 279.736 L
203.2 276.343 L
204.936 275.527 L
206.672 277.321 L
208.408 281.247 L
210.144 287.697 L
211.88 291.193 L
213.616 296.039 L
215.352 304.443 L
217.088 306.936 L
218.824 309.278 L
220.56 315.74 L
222.296 318.526 L
224.032 321.023 L
225.768 323.096 L
227.504 321.396 L
229.24 324.305 L
230.976 320.375 L
232.712 320.912 L
234.448 322.12 L
236.184 319.896 L
237.92 311.374 L
239.656 301.958 L
241.392 294.476 L
243.128 288.033 L
244.864 285.984 L
246.6 283.524 L
248.336 283.316 L
250.072 286.498 L
251.808 292.861 L
253.544 297.344 L
255.28 301.95 L
257.016 306.441 L
258.752 315.147 L
260.488 320.952 L
262.224 321.927 L
263.96 325.059 L
265.696 327.782 L
267.432 333.928 L
269.168 333.229 L
270.904 334.819 L
272.64 332.737 L
274.376 332.443 L
276.112 330.937 L
277.848 328.655 L
279.584 324.373 L
281.32 317.693 L
283.056 305.325 L
284.792 301.848 L
286.528 305.461 L
288.264 304.991 L
290 301.685 L
291.736 289.665 L
293.472 284.778 L
295.208 282.151 L
296.944 290.456 L
298.68 295.164 L
300.416 303.121 L
302.152 310.998 L
303.888 315.412 L
305.624 317.407 L
307.36 328.995 L
309.096 325.612 L
310.832 326.252 L
312.568 328.487 L
314.304 338.01 L
316.04 338.131 L
317.776 339.049 L
319.512 333.84 L
321.248 317.394 L
322.984 304.981 L
324.72 286.685 L
326.456 281.147 L
328.192 276.895 L
329.928 276.478 L
331.664 278.251 L
333.4 282.889 L
335.136 287.815 L
336.872 293.23 L
338.608 296.557 L
340.344 302.215 L
342.08 307.084 L
343.816 312.181 L
345.552 320.523 L
347.288 322.648 L
349.024 327.863 L
350.76 329.114 L
352.496 328.956 L
354.232 334.335 L
355.968 331.734 L
357.704 332.389 L
359.44 336.756 L
361.176 331.98 L
362.912 326.525 L
364.648 321.219 L
366.384 314.86 L
368.12 309.946 L
369.856 300.647 L
371.592 293.904 L
373.328 291.264 L
375.064 283.16 L
376.8 283.179 L
378.536 283.503 L
380.272 290.83 L
382.008 303.567 L
383.744 313.465 L
385.48 323.224 L
387.216 327.572 L
388.952 332.162 L
390.688 336.983 L
392.424 339.865 L
394.16 341.938 L
395.896 339.839 L
397.632 346.232 L
399.368 351.574 L
401.104 346.778 L
402.84 345.241 L
404.576 328.282 L
406.312 315.649 L
408.048 307.149 L
409.784 302.628 L
411.52 300.952 L
413.256 296.786 L
414.992 290.784 L
416.728 288.832 L
418.464 287.592 L
420.2 287.107 L
421.936 284.45 L
423.672 296.319 L
425.408 308.439 L
427.144 317.343 L
428.88 323.898 L
430.616 331.89 L
432.352 335.328 L
434.088 344.18 L
435.824 340.618 L
437.56 343.767 L
439.296 342.836 L
441.032 342.365 L
442.768 341.679 L
444.504 335.764 L
446.24 322.905 L
447.976 309.602 L
449.712 299.843 L
451.448 291.544 L
453.184 290.032 L
454.92 288.309 L
456.656 286.638 L
458.392 284.064 L
460.128 285.191 L
461.864 294.632 L
463.6 296.379 L
465.336 303.984 L
467.072 310.193 L
468.808 320.124 L
470.544 327.302 L
472.28 327.211 L
474.016 331.558 L
475.752 335.643 L
477.488 335.452 L
479.224 335.433 L
480.96 336.557 L
482.696 334.858 L
484.432 334.405 L
486.168 327.575 L
487.904 315.914 L
489.64 304.39 L
491.376 298.056 L
493.112 296.047 L
494.848 290.231 L
496.584 288.573 L
498.32 284.869 L
500.056 283.803 L
501.792 283.5 L
503.528 280.839 L
505.264 281.154 L
507 278.628 L
507.043 278.8 L
S
GR
GS
[0.75 0 0 0.75 0 0] CT
1 GC
N
354 272 M
354 235 L
478 235 L
478 272 L
cp
f
GR
GS
[0.75 0 0 0.75 293.25 183.85275] CT
/Helvetica 12 F
GS
[1 0 0 1 0 0] CT
0 5 moveto 
1 -1 scale
(Measured Data) t 
GR
GR
GS
[0.75 0 0 0.75 0 0] CT
0 0.447 0.741 RC
1 LJ
0.667 LW
N
358 245.137 M
388 245.137 L
S
GR
GS
[0.75 0 0 0.75 293.25 196.39725] CT
/Helvetica 12 F
GS
[1 0 0 1 0 0] CT
0 5 moveto 
1 -1 scale
(8-step) t 
GR
GR
GS
[0.75 0 0 0.75 0 0] CT
0.851 0.325 0.098 RC
1 LJ
0.667 LW
N
358 261.863 M
388 261.863 L
S
GR
GS
[0.75 0 0 0.75 0 0] CT
0.149 GC
10.0 ML
0.667 LW
N
354 272 M
354 235 L
478 235 L
478 272 L
cp
S
GR
%%Trailer
%%Pages: 1
%%EOF
