%!PS-Adobe-3.0 EPSF-3.0
%%Creator: (MATLAB, The Mathworks, Inc. Version 9.0.0.370719 \(R2016a\). Operating System: Windows 8)
%%Title: H:/Skolan/GitTogether/tsaproj/Report/Img/CTestPred.eps
%%CreationDate: 2018-01-11T22:34:42
%%Pages: (atend)
%%BoundingBox: 0 0 420 315
%%LanguageLevel: 3
%%EndComments
%%BeginProlog
%%BeginResource: procset (Apache XML Graphics Std ProcSet) 1.2 0
%%Version: 1.2 0
%%Copyright: (Copyright 2001-2003,2010 The Apache Software Foundation. License terms: http://www.apache.org/licenses/LICENSE-2.0)
/bd{bind def}bind def
/ld{load def}bd
/GR/grestore ld
/M/moveto ld
/LJ/setlinejoin ld
/C/curveto ld
/f/fill ld
/LW/setlinewidth ld
/GC/setgray ld
/t/show ld
/N/newpath ld
/CT/concat ld
/cp/closepath ld
/S/stroke ld
/L/lineto ld
/CC/setcmykcolor ld
/A/ashow ld
/GS/gsave ld
/RC/setrgbcolor ld
/RM/rmoveto ld
/ML/setmiterlimit ld
/re {4 2 roll M
1 index 0 rlineto
0 exch rlineto
neg 0 rlineto
cp } bd
/_ctm matrix def
/_tm matrix def
/BT { _ctm currentmatrix pop matrix _tm copy pop 0 0 moveto } bd
/ET { _ctm setmatrix } bd
/iTm { _ctm setmatrix _tm concat } bd
/Tm { _tm astore pop iTm 0 0 moveto } bd
/ux 0.0 def
/uy 0.0 def
/F {
  /Tp exch def
  /Tf exch def
  Tf findfont Tp scalefont setfont
  /cf Tf def  /cs Tp def
} bd
/ULS {currentpoint /uy exch def /ux exch def} bd
/ULE {
  /Tcx currentpoint pop def
  gsave
  newpath
  cf findfont cs scalefont dup
  /FontMatrix get 0 get /Ts exch def /FontInfo get dup
  /UnderlinePosition get Ts mul /To exch def
  /UnderlineThickness get Ts mul /Tt exch def
  ux uy To add moveto  Tcx uy To add lineto
  Tt setlinewidth stroke
  grestore
} bd
/OLE {
  /Tcx currentpoint pop def
  gsave
  newpath
  cf findfont cs scalefont dup
  /FontMatrix get 0 get /Ts exch def /FontInfo get dup
  /UnderlinePosition get Ts mul /To exch def
  /UnderlineThickness get Ts mul /Tt exch def
  ux uy To add cs add moveto Tcx uy To add cs add lineto
  Tt setlinewidth stroke
  grestore
} bd
/SOE {
  /Tcx currentpoint pop def
  gsave
  newpath
  cf findfont cs scalefont dup
  /FontMatrix get 0 get /Ts exch def /FontInfo get dup
  /UnderlinePosition get Ts mul /To exch def
  /UnderlineThickness get Ts mul /Tt exch def
  ux uy To add cs 10 mul 26 idiv add moveto Tcx uy To add cs 10 mul 26 idiv add lineto
  Tt setlinewidth stroke
  grestore
} bd
/QT {
/Y22 exch store
/X22 exch store
/Y21 exch store
/X21 exch store
currentpoint
/Y21 load 2 mul add 3 div exch
/X21 load 2 mul add 3 div exch
/X21 load 2 mul /X22 load add 3 div
/Y21 load 2 mul /Y22 load add 3 div
/X22 load /Y22 load curveto
} bd
/SSPD {
dup length /d exch dict def
{
/v exch def
/k exch def
currentpagedevice k known {
/cpdv currentpagedevice k get def
v cpdv ne {
/upd false def
/nullv v type /nulltype eq def
/nullcpdv cpdv type /nulltype eq def
nullv nullcpdv or
{
/upd true def
} {
/sametype v type cpdv type eq def
sametype {
v type /arraytype eq {
/vlen v length def
/cpdvlen cpdv length def
vlen cpdvlen eq {
0 1 vlen 1 sub {
/i exch def
/obj v i get def
/cpdobj cpdv i get def
obj cpdobj ne {
/upd true def
exit
} if
} for
} {
/upd true def
} ifelse
} {
v type /dicttype eq {
v {
/dv exch def
/dk exch def
/cpddv cpdv dk get def
dv cpddv ne {
/upd true def
exit
} if
} forall
} {
/upd true def
} ifelse
} ifelse
} if
} ifelse
upd true eq {
d k v put
} if
} if
} if
} forall
d length 0 gt {
d setpagedevice
} if
} bd
%%EndResource
%%BeginResource: procset (Apache XML Graphics EPS ProcSet) 1.0 0
%%Version: 1.0 0
%%Copyright: (Copyright 2002-2003 The Apache Software Foundation. License terms: http://www.apache.org/licenses/LICENSE-2.0)
/BeginEPSF { %def
/b4_Inc_state save def         % Save state for cleanup
/dict_count countdictstack def % Count objects on dict stack
/op_count count 1 sub def      % Count objects on operand stack
userdict begin                 % Push userdict on dict stack
/showpage { } def              % Redefine showpage, { } = null proc
0 setgray 0 setlinecap         % Prepare graphics state
1 setlinewidth 0 setlinejoin
10 setmiterlimit [ ] 0 setdash newpath
/languagelevel where           % If level not equal to 1 then
{pop languagelevel             % set strokeadjust and
1 ne                           % overprint to their defaults.
{false setstrokeadjust false setoverprint
} if
} if
} bd
/EndEPSF { %def
count op_count sub {pop} repeat            % Clean up stacks
countdictstack dict_count sub {end} repeat
b4_Inc_state restore
} bd
%%EndResource
%FOPBeginFontDict
%%IncludeResource: font Courier-Bold
%%IncludeResource: font Helvetica
%%IncludeResource: font Courier-BoldOblique
%%IncludeResource: font Courier-Oblique
%%IncludeResource: font Times-Roman
%%IncludeResource: font Helvetica-BoldOblique
%%IncludeResource: font Helvetica-Bold
%%IncludeResource: font Helvetica-Oblique
%%IncludeResource: font Times-BoldItalic
%%IncludeResource: font Courier
%%IncludeResource: font Times-Italic
%%IncludeResource: font Times-Bold
%%IncludeResource: font Symbol
%%IncludeResource: font ZapfDingbats
%FOPEndFontDict
%%BeginResource: encoding WinAnsiEncoding
/WinAnsiEncoding [
/.notdef /.notdef /.notdef /.notdef /.notdef
/.notdef /.notdef /.notdef /.notdef /.notdef
/.notdef /.notdef /.notdef /.notdef /.notdef
/.notdef /.notdef /.notdef /.notdef /.notdef
/.notdef /.notdef /.notdef /.notdef /.notdef
/.notdef /.notdef /.notdef /.notdef /.notdef
/.notdef /.notdef /space /exclam /quotedbl
/numbersign /dollar /percent /ampersand /quotesingle
/parenleft /parenright /asterisk /plus /comma
/hyphen /period /slash /zero /one
/two /three /four /five /six
/seven /eight /nine /colon /semicolon
/less /equal /greater /question /at
/A /B /C /D /E
/F /G /H /I /J
/K /L /M /N /O
/P /Q /R /S /T
/U /V /W /X /Y
/Z /bracketleft /backslash /bracketright /asciicircum
/underscore /quoteleft /a /b /c
/d /e /f /g /h
/i /j /k /l /m
/n /o /p /q /r
/s /t /u /v /w
/x /y /z /braceleft /bar
/braceright /asciitilde /bullet /Euro /bullet
/quotesinglbase /florin /quotedblbase /ellipsis /dagger
/daggerdbl /circumflex /perthousand /Scaron /guilsinglleft
/OE /bullet /Zcaron /bullet /bullet
/quoteleft /quoteright /quotedblleft /quotedblright /bullet
/endash /emdash /asciitilde /trademark /scaron
/guilsinglright /oe /bullet /zcaron /Ydieresis
/space /exclamdown /cent /sterling /currency
/yen /brokenbar /section /dieresis /copyright
/ordfeminine /guillemotleft /logicalnot /sfthyphen /registered
/macron /degree /plusminus /twosuperior /threesuperior
/acute /mu /paragraph /middot /cedilla
/onesuperior /ordmasculine /guillemotright /onequarter /onehalf
/threequarters /questiondown /Agrave /Aacute /Acircumflex
/Atilde /Adieresis /Aring /AE /Ccedilla
/Egrave /Eacute /Ecircumflex /Edieresis /Igrave
/Iacute /Icircumflex /Idieresis /Eth /Ntilde
/Ograve /Oacute /Ocircumflex /Otilde /Odieresis
/multiply /Oslash /Ugrave /Uacute /Ucircumflex
/Udieresis /Yacute /Thorn /germandbls /agrave
/aacute /acircumflex /atilde /adieresis /aring
/ae /ccedilla /egrave /eacute /ecircumflex
/edieresis /igrave /iacute /icircumflex /idieresis
/eth /ntilde /ograve /oacute /ocircumflex
/otilde /odieresis /divide /oslash /ugrave
/uacute /ucircumflex /udieresis /yacute /thorn
/ydieresis
] def
%%EndResource
%FOPBeginFontReencode
/Courier-Bold findfont
dup length dict begin
  {1 index /FID ne {def} {pop pop} ifelse} forall
  /Encoding WinAnsiEncoding def
  currentdict
end
/Courier-Bold exch definefont pop
/Helvetica findfont
dup length dict begin
  {1 index /FID ne {def} {pop pop} ifelse} forall
  /Encoding WinAnsiEncoding def
  currentdict
end
/Helvetica exch definefont pop
/Courier-BoldOblique findfont
dup length dict begin
  {1 index /FID ne {def} {pop pop} ifelse} forall
  /Encoding WinAnsiEncoding def
  currentdict
end
/Courier-BoldOblique exch definefont pop
/Courier-Oblique findfont
dup length dict begin
  {1 index /FID ne {def} {pop pop} ifelse} forall
  /Encoding WinAnsiEncoding def
  currentdict
end
/Courier-Oblique exch definefont pop
/Times-Roman findfont
dup length dict begin
  {1 index /FID ne {def} {pop pop} ifelse} forall
  /Encoding WinAnsiEncoding def
  currentdict
end
/Times-Roman exch definefont pop
/Helvetica-BoldOblique findfont
dup length dict begin
  {1 index /FID ne {def} {pop pop} ifelse} forall
  /Encoding WinAnsiEncoding def
  currentdict
end
/Helvetica-BoldOblique exch definefont pop
/Helvetica-Bold findfont
dup length dict begin
  {1 index /FID ne {def} {pop pop} ifelse} forall
  /Encoding WinAnsiEncoding def
  currentdict
end
/Helvetica-Bold exch definefont pop
/Helvetica-Oblique findfont
dup length dict begin
  {1 index /FID ne {def} {pop pop} ifelse} forall
  /Encoding WinAnsiEncoding def
  currentdict
end
/Helvetica-Oblique exch definefont pop
/Times-BoldItalic findfont
dup length dict begin
  {1 index /FID ne {def} {pop pop} ifelse} forall
  /Encoding WinAnsiEncoding def
  currentdict
end
/Times-BoldItalic exch definefont pop
/Courier findfont
dup length dict begin
  {1 index /FID ne {def} {pop pop} ifelse} forall
  /Encoding WinAnsiEncoding def
  currentdict
end
/Courier exch definefont pop
/Times-Italic findfont
dup length dict begin
  {1 index /FID ne {def} {pop pop} ifelse} forall
  /Encoding WinAnsiEncoding def
  currentdict
end
/Times-Italic exch definefont pop
/Times-Bold findfont
dup length dict begin
  {1 index /FID ne {def} {pop pop} ifelse} forall
  /Encoding WinAnsiEncoding def
  currentdict
end
/Times-Bold exch definefont pop
%FOPEndFontReencode
%%EndProlog
%%Page: 1 1
%%PageBoundingBox: 0 0 420 315
%%BeginPageSetup
[1 0 0 -1 0 315] CT
%%EndPageSetup
GS
[0.75 0 0 0.75 0 0] CT
1 GC
N
0 0 560 420 re
f
GR
GS
[0.75 0 0 0.75 0 0] CT
1 GC
N
0 0 560 420 re
f
GR
GS
[0.75 0 0 0.75 0 0] CT
1 GC
N
73 167 M
507 167 L
507 35 L
73 35 L
cp
f
GR
GS
[0.75 0 0 0.75 0 0] CT
0.149 GC
2 setlinecap
1 LJ
0.667 LW
N
73 167 M
507 167 L
S
GR
GS
[0.75 0 0 0.75 0 0] CT
0.149 GC
2 setlinecap
1 LJ
0.667 LW
N
73 35 M
507 35 L
S
GR
GS
[0.75 0 0 0.75 0 0] CT
0.149 GC
2 setlinecap
1 LJ
0.667 LW
N
73 167 M
73 162.66 L
S
GR
GS
[0.75 0 0 0.75 0 0] CT
0.149 GC
2 setlinecap
1 LJ
0.667 LW
N
159.8 167 M
159.8 162.66 L
S
GR
GS
[0.75 0 0 0.75 0 0] CT
0.149 GC
2 setlinecap
1 LJ
0.667 LW
N
246.6 167 M
246.6 162.66 L
S
GR
GS
[0.75 0 0 0.75 0 0] CT
0.149 GC
2 setlinecap
1 LJ
0.667 LW
N
333.4 167 M
333.4 162.66 L
S
GR
GS
[0.75 0 0 0.75 0 0] CT
0.149 GC
2 setlinecap
1 LJ
0.667 LW
N
420.2 167 M
420.2 162.66 L
S
GR
GS
[0.75 0 0 0.75 0 0] CT
0.149 GC
2 setlinecap
1 LJ
0.667 LW
N
507 167 M
507 162.66 L
S
GR
GS
[0.75 0 0 0.75 0 0] CT
0.149 GC
2 setlinecap
1 LJ
0.667 LW
N
73 35 M
73 39.34 L
S
GR
GS
[0.75 0 0 0.75 0 0] CT
0.149 GC
2 setlinecap
1 LJ
0.667 LW
N
159.8 35 M
159.8 39.34 L
S
GR
GS
[0.75 0 0 0.75 0 0] CT
0.149 GC
2 setlinecap
1 LJ
0.667 LW
N
246.6 35 M
246.6 39.34 L
S
GR
GS
[0.75 0 0 0.75 0 0] CT
0.149 GC
2 setlinecap
1 LJ
0.667 LW
N
333.4 35 M
333.4 39.34 L
S
GR
GS
[0.75 0 0 0.75 0 0] CT
0.149 GC
2 setlinecap
1 LJ
0.667 LW
N
420.2 35 M
420.2 39.34 L
S
GR
GS
[0.75 0 0 0.75 0 0] CT
0.149 GC
2 setlinecap
1 LJ
0.667 LW
N
507 35 M
507 39.34 L
S
GR
GS
[0.75 0 0 0.75 54.75 129.25] CT
0.149 GC
/Helvetica 13.333 F
GS
[1 0 0 1 0 0] CT
-11 14 moveto 
1 -1 scale
(750) t 
GR
GR
GS
[0.75 0 0 0.75 119.85 129.25] CT
0.149 GC
/Helvetica 13.333 F
GS
[1 0 0 1 0 0] CT
-11 14 moveto 
1 -1 scale
(800) t 
GR
GR
GS
[0.75 0 0 0.75 184.95 129.25] CT
0.149 GC
/Helvetica 13.333 F
GS
[1 0 0 1 0 0] CT
-11 14 moveto 
1 -1 scale
(850) t 
GR
GR
GS
[0.75 0 0 0.75 250.05 129.25] CT
0.149 GC
/Helvetica 13.333 F
GS
[1 0 0 1 0 0] CT
-11 14 moveto 
1 -1 scale
(900) t 
GR
GR
GS
[0.75 0 0 0.75 315.15001 129.25] CT
0.149 GC
/Helvetica 13.333 F
GS
[1 0 0 1 0 0] CT
-11 14 moveto 
1 -1 scale
(950) t 
GR
GR
GS
[0.75 0 0 0.75 380.25 129.25] CT
0.149 GC
/Helvetica 13.333 F
GS
[1 0 0 1 0 0] CT
-14.5 14 moveto 
1 -1 scale
(1000) t 
GR
GR
GS
[0.75 0 0 0.75 217.50016 143] CT
0.149 GC
/Helvetica 14.667 F
GS
[1 0 0 1 0 0] CT
-13 16 moveto 
1 -1 scale
(t / h) t 
GR
GR
GS
[0.75 0 0 0.75 0 0] CT
0.149 GC
2 setlinecap
1 LJ
0.667 LW
N
73 167 M
73 35 L
S
GR
GS
[0.75 0 0 0.75 0 0] CT
0.149 GC
2 setlinecap
1 LJ
0.667 LW
N
507 167 M
507 35 L
S
GR
GS
[0.75 0 0 0.75 0 0] CT
0.149 GC
2 setlinecap
1 LJ
0.667 LW
N
73 159.326 M
77.34 159.326 L
S
GR
GS
[0.75 0 0 0.75 0 0] CT
0.149 GC
2 setlinecap
1 LJ
0.667 LW
N
73 120.953 M
77.34 120.953 L
S
GR
GS
[0.75 0 0 0.75 0 0] CT
0.149 GC
2 setlinecap
1 LJ
0.667 LW
N
73 82.581 M
77.34 82.581 L
S
GR
GS
[0.75 0 0 0.75 0 0] CT
0.149 GC
2 setlinecap
1 LJ
0.667 LW
N
73 44.209 M
77.34 44.209 L
S
GR
GS
[0.75 0 0 0.75 0 0] CT
0.149 GC
2 setlinecap
1 LJ
0.667 LW
N
507 159.326 M
502.66 159.326 L
S
GR
GS
[0.75 0 0 0.75 0 0] CT
0.149 GC
2 setlinecap
1 LJ
0.667 LW
N
507 120.953 M
502.66 120.953 L
S
GR
GS
[0.75 0 0 0.75 0 0] CT
0.149 GC
2 setlinecap
1 LJ
0.667 LW
N
507 82.581 M
502.66 82.581 L
S
GR
GS
[0.75 0 0 0.75 0 0] CT
0.149 GC
2 setlinecap
1 LJ
0.667 LW
N
507 44.209 M
502.66 44.209 L
S
GR
GS
[0.75 0 0 0.75 50.74999 119.49418] CT
0.149 GC
/Helvetica 13.333 F
GS
[1 0 0 1 0 0] CT
-12 5.5 moveto 
1 -1 scale
(-5) t 
GR
GR
GS
[0.75 0 0 0.75 50.74999 90.71512] CT
0.149 GC
/Helvetica 13.333 F
GS
[1 0 0 1 0 0] CT
-8 5.5 moveto 
1 -1 scale
(0) t 
GR
GR
GS
[0.75 0 0 0.75 50.74999 61.93605] CT
0.149 GC
/Helvetica 13.333 F
GS
[1 0 0 1 0 0] CT
-8 5.5 moveto 
1 -1 scale
(5) t 
GR
GR
GS
[0.75 0 0 0.75 50.74999 33.15698] CT
0.149 GC
/Helvetica 13.333 F
GS
[1 0 0 1 0 0] CT
-15 5.5 moveto 
1 -1 scale
(10) t 
GR
GR
GS
[0 -0.75 0.75 0 33.75 90] CT
0.149 GC
/Helvetica 14.667 F
GS
[1 0 0 1 0 0] CT
0 0 moveto 
1 -1 scale
(T / ) t 
GR
GR
GS
[0 -0.75 0.75 0 28.5 73.5] CT
0.149 GC
/Courier 10.667 F
GS
[1 0 0 1 0 0] CT
0 0 moveto 
1 -1 scale
(\260) t 
GR
GR
GS
[0 -0.75 0.75 0 33.75 69.75] CT
0.149 GC
/Helvetica 14.667 F
GS
[1 0 0 1 0 0] CT
0 0 moveto 
1 -1 scale
(C) t 
GR
GR
GS
[0.75 0 0 0.75 217.50023 24.1875] CT
/Helvetica-Bold 14.667 F
GS
[1 0 0 1 0 0] CT
-74 -4 moveto 
1 -1 scale
(Test set: Predictions) t 
GR
GR
GS
[0.75 0 0 0.75 0 0] CT
0 0.447 0.741 RC
1 LJ
0.667 LW
N
72.957 82.639 M
73 82.581 L
74.736 81.047 L
76.472 78.744 L
78.208 77.977 L
79.944 77.209 L
81.68 80.279 L
83.416 82.581 L
85.152 84.884 L
86.888 87.186 L
88.624 87.953 L
90.36 89.488 L
92.096 90.256 L
93.832 91.023 L
95.568 91.023 L
97.304 92.558 L
99.04 92.558 L
100.776 92.558 L
102.512 93.326 L
104.248 93.326 L
105.984 94.093 L
107.72 94.093 L
109.456 94.86 L
111.192 94.86 L
112.928 94.86 L
114.664 93.326 L
116.4 91.023 L
118.136 88.721 L
119.872 86.419 L
121.608 85.651 L
123.344 85.651 L
125.08 87.953 L
126.816 88.721 L
128.552 89.488 L
130.288 89.488 L
132.024 91.023 L
133.76 91.023 L
135.496 91.023 L
137.232 91.791 L
138.968 91.791 L
140.704 92.558 L
142.44 93.326 L
144.176 94.093 L
145.912 94.86 L
147.648 94.86 L
149.384 95.628 L
151.12 97.163 L
152.856 96.395 L
154.592 94.86 L
156.328 91.791 L
158.064 89.488 L
159.8 88.721 L
161.536 86.419 L
163.272 85.651 L
165.008 84.884 L
166.744 85.651 L
168.48 87.186 L
170.216 89.488 L
171.952 91.023 L
173.688 94.86 L
175.424 94.86 L
177.16 96.395 L
178.896 98.698 L
180.632 99.465 L
182.368 101 L
184.104 102.535 L
185.84 105.605 L
187.576 107.14 L
189.312 105.605 L
191.048 106.372 L
192.784 106.372 L
194.52 105.605 L
196.256 104.07 L
197.992 103.302 L
199.728 103.302 L
201.464 101.767 L
203.2 100.233 L
204.936 99.465 L
206.672 100.233 L
208.408 101 L
210.144 104.07 L
211.88 107.907 L
213.616 107.14 L
215.352 106.372 L
217.088 106.372 L
218.824 108.674 L
220.56 110.977 L
222.296 112.512 L
224.032 113.663 L
225.768 114.814 L
227.504 117.116 L
229.24 117.884 L
230.976 116.349 L
232.712 115.581 L
234.448 116.349 L
236.184 115.581 L
237.92 114.814 L
239.656 114.814 L
241.392 111.744 L
243.128 107.907 L
244.864 106.372 L
246.6 105.605 L
248.336 107.14 L
250.072 111.744 L
251.808 114.047 L
253.544 115.581 L
255.28 118.651 L
257.016 120.953 L
258.752 124.791 L
260.488 129.395 L
262.224 133.233 L
263.96 136.302 L
265.696 140.907 L
267.432 145.512 L
269.168 148.581 L
270.904 151.651 L
272.64 157.023 L
274.376 160.86 L
276.112 163.93 L
276.984 167.013 L
S
GR
GS
[0.75 0 0 0.75 0 0] CT
0 0.447 0.741 RC
1 LJ
0.667 LW
N
279.577 167.013 M
279.584 167 L
281.32 153.186 L
283.056 122.488 L
284.792 111.744 L
286.528 108.674 L
288.264 107.907 L
290 110.209 L
291.736 118.651 L
293.472 124.791 L
295.208 126.326 L
296.944 127.093 L
298.68 127.093 L
300.416 127.86 L
302.152 127.86 L
303.888 127.093 L
305.624 127.86 L
307.36 127.86 L
309.096 127.86 L
310.832 128.628 L
312.568 127.86 L
314.304 127.86 L
316.04 127.093 L
317.776 127.093 L
319.512 129.395 L
321.248 130.93 L
322.984 129.395 L
324.72 121.721 L
326.456 116.349 L
328.192 112.512 L
329.928 107.907 L
331.664 111.744 L
333.4 120.186 L
335.136 126.326 L
336.872 129.395 L
338.608 130.93 L
340.344 131.698 L
342.08 131.698 L
343.816 127.093 L
345.552 119.419 L
347.288 110.209 L
349.024 110.977 L
350.76 111.744 L
352.496 114.814 L
354.232 116.349 L
355.968 115.581 L
357.704 110.209 L
359.44 103.302 L
361.176 97.93 L
362.912 91.023 L
364.648 89.488 L
366.384 87.186 L
368.12 81.814 L
369.856 74.14 L
371.592 63.395 L
373.328 58.023 L
375.064 59.558 L
376.8 55.721 L
378.536 40.372 L
380.272 35.767 L
380.713 34.987 L
S
GR
GS
[0.75 0 0 0.75 0 0] CT
0 0.447 0.741 RC
1 LJ
0.667 LW
N
382.583 34.987 M
383.744 39.605 L
385.48 46.512 L
387.216 48.047 L
388.952 49.581 L
390.688 51.116 L
392.424 52.651 L
394.16 51.884 L
395.896 53.419 L
397.632 54.186 L
399.368 52.651 L
401.104 52.651 L
402.84 59.558 L
404.576 61.86 L
406.312 62.628 L
408.048 61.093 L
409.784 60.326 L
411.52 63.395 L
413.256 64.163 L
414.992 67.233 L
416.728 74.14 L
418.464 72.605 L
420.2 71.837 L
421.936 73.372 L
423.672 73.372 L
425.408 71.837 L
427.144 69.535 L
428.88 71.837 L
430.616 77.977 L
432.352 76.442 L
434.088 74.907 L
435.824 74.907 L
437.56 74.14 L
439.296 72.605 L
441.032 72.605 L
442.768 72.605 L
444.504 76.442 L
446.24 77.977 L
447.976 74.14 L
449.712 68 L
451.448 67.233 L
453.184 67.233 L
454.92 70.302 L
456.656 71.07 L
458.392 78.744 L
460.128 91.791 L
461.864 94.093 L
463.6 95.628 L
465.336 100.233 L
467.072 103.302 L
468.808 108.674 L
470.544 108.674 L
472.28 101 L
474.016 98.698 L
475.752 96.395 L
477.488 89.488 L
479.224 85.651 L
480.96 87.953 L
482.696 89.488 L
484.432 87.186 L
486.168 92.558 L
487.904 93.326 L
489.64 90.256 L
491.376 84.884 L
493.112 82.581 L
494.848 84.116 L
496.584 84.884 L
498.32 94.86 L
500.056 97.163 L
501.792 96.395 L
503.528 94.86 L
505.264 92.558 L
507 93.326 L
507.043 93.364 L
S
GR
GS
[0.75 0 0 0.75 0 0] CT
0.851 0.325 0.098 RC
1 LJ
0.667 LW
N
72.957 79.743 M
73 79.671 L
74.736 75.515 L
76.472 78.32 L
78.208 77.07 L
79.944 76.696 L
81.68 77.702 L
83.416 85.827 L
85.152 87.048 L
86.888 87.661 L
88.624 89.173 L
90.36 88.01 L
92.096 90.061 L
93.832 91.356 L
95.568 91.749 L
97.304 90.766 L
99.04 93.729 L
100.776 92.978 L
102.512 93.202 L
104.248 94.649 L
105.984 92.481 L
107.72 95.029 L
109.456 93.08 L
111.192 94.443 L
112.928 91.677 L
114.664 92.049 L
116.4 88.903 L
118.136 88.583 L
119.872 87.276 L
121.608 84.912 L
123.344 85.401 L
125.08 87.978 L
126.816 92.192 L
128.552 90.566 L
130.288 90.722 L
132.024 89.233 L
133.76 91.608 L
135.496 91.693 L
137.232 91.802 L
138.968 92.274 L
140.704 92.36 L
142.44 93.721 L
144.176 94.272 L
145.912 95.413 L
147.648 94.628 L
149.384 95.818 L
151.12 95.436 L
152.856 97.591 L
154.592 93.444 L
156.328 91.595 L
158.064 87.123 L
159.8 87.188 L
161.536 88.229 L
163.272 84.685 L
165.008 85.589 L
166.744 86.743 L
168.48 88.744 L
170.216 89.29 L
171.952 91.427 L
173.688 91.547 L
175.424 96.36 L
177.16 95.426 L
178.896 97.534 L
180.632 99.773 L
182.368 100.269 L
184.104 102.234 L
185.84 103.658 L
187.576 107.556 L
189.312 106.994 L
191.048 105.521 L
192.784 105.89 L
194.52 105.393 L
196.256 102.195 L
197.992 100.473 L
199.728 99.824 L
201.464 101.844 L
203.2 100.254 L
204.936 98.339 L
206.672 98.59 L
208.408 102.294 L
210.144 103.578 L
211.88 106.598 L
213.616 110.343 L
215.352 106.261 L
217.088 105.371 L
218.824 107.013 L
220.56 110.194 L
222.296 111.927 L
224.032 113.656 L
225.768 114.895 L
227.504 115.91 L
229.24 118.346 L
230.976 117.132 L
232.712 115.987 L
234.448 114.287 L
236.184 115.702 L
237.92 112.598 L
239.656 112.19 L
241.392 111.922 L
243.128 108.928 L
244.864 105.388 L
246.6 105.008 L
248.336 105.095 L
250.072 109.937 L
251.808 116.655 L
253.544 116.051 L
255.28 116.011 L
257.016 119.659 L
258.752 121.525 L
260.488 127.249 L
262.224 131.915 L
263.96 134.554 L
265.696 137.715 L
267.432 143.202 L
269.168 147.639 L
270.904 149.41 L
272.64 150.946 L
274.376 159.24 L
276.112 160.9 L
277.848 163.386 L
278.854 167.013 L
S
GR
GS
[0.75 0 0 0.75 0 0] CT
0.851 0.325 0.098 RC
1 LJ
0.667 LW
N
280.156 167.013 M
281.32 161.662 L
283.056 141.854 L
284.792 105.15 L
286.528 106.017 L
288.264 106.865 L
290 108.336 L
291.736 113.667 L
293.472 125.013 L
295.208 129.124 L
296.944 127.381 L
298.68 127.8 L
300.416 127.481 L
302.152 129.731 L
303.888 129.119 L
305.624 127.707 L
307.36 130.075 L
309.096 129.508 L
310.832 129.654 L
312.568 131.289 L
314.304 128.464 L
316.04 130.203 L
317.776 128.653 L
319.512 128.021 L
321.248 127.451 L
322.984 125.046 L
324.72 122.479 L
326.456 116.396 L
328.192 113.437 L
329.928 110.437 L
331.664 107.233 L
333.4 117.244 L
335.136 126.83 L
336.872 130.28 L
338.608 130.932 L
340.344 131.497 L
342.08 131.686 L
343.816 132.093 L
345.552 125.257 L
347.288 115.785 L
349.024 106.658 L
350.76 112.697 L
352.496 113.223 L
354.232 117.31 L
355.968 116.888 L
357.704 116.198 L
359.44 108.097 L
361.176 101.19 L
362.912 94.436 L
364.648 85.672 L
366.384 84.866 L
368.12 85.878 L
369.856 79.483 L
371.592 71.416 L
373.328 61.44 L
375.064 60.936 L
376.8 64.955 L
378.536 56.792 L
380.266 34.987 L
S
GR
GS
[0.75 0 0 0.75 0 0] CT
0.851 0.325 0.098 RC
1 LJ
0.667 LW
N
380.421 34.987 M
382.008 35.738 L
382.407 34.987 L
S
GR
GS
[0.75 0 0 0.75 0 0] CT
0.851 0.325 0.098 RC
1 LJ
0.667 LW
N
384.109 34.987 M
385.48 44.455 L
387.216 50.292 L
388.952 49.932 L
390.688 52.956 L
392.424 54.531 L
394.16 56.08 L
395.896 53.381 L
397.632 54.263 L
399.368 54.863 L
401.104 51.322 L
402.84 52.537 L
404.576 61.729 L
406.312 61.837 L
408.048 59.024 L
409.784 58.844 L
411.52 58.236 L
413.256 62.873 L
414.992 64.947 L
416.728 70.696 L
418.464 76.095 L
420.2 69.038 L
421.936 69.729 L
423.672 73.652 L
425.408 73.925 L
427.144 71.176 L
428.88 67.614 L
430.616 72.067 L
432.352 81.472 L
434.088 75.244 L
435.824 74.173 L
437.56 74.827 L
439.296 72.299 L
441.032 71.05 L
442.768 72.34 L
444.504 73.178 L
446.24 76.364 L
447.976 76.717 L
449.712 68.171 L
451.448 64.59 L
453.184 67.073 L
454.92 66.577 L
456.656 73.459 L
458.392 74.337 L
460.128 83.382 L
461.864 97.265 L
463.6 94.769 L
465.336 95.005 L
467.072 101.611 L
468.808 104.704 L
470.544 111.476 L
472.28 107.638 L
474.016 96.563 L
475.752 97.25 L
477.488 95.008 L
479.224 85.577 L
480.96 82.729 L
482.696 88.672 L
484.432 89.612 L
486.168 86.797 L
487.904 92.769 L
489.64 90.633 L
491.376 84.406 L
493.112 81.349 L
494.848 81.77 L
496.584 83.951 L
498.32 86.557 L
500.056 105.092 L
501.792 100.246 L
503.528 95.109 L
505.264 94.995 L
507 91.968 L
507.043 92.049 L
S
GR
GS
[0.75 0 0 0.75 0 0] CT
1 GC
N
73 166 M
73 129 L
197 129 L
197 166 L
cp
f
GR
GS
[0.75 0 0 0.75 82.5 104.35275] CT
/Helvetica 12 F
GS
[1 0 0 1 0 0] CT
0 5 moveto 
1 -1 scale
(Measured Data) t 
GR
GR
GS
[0.75 0 0 0.75 0 0] CT
0 0.447 0.741 RC
1 LJ
0.667 LW
N
77 139.137 M
107 139.137 L
S
GR
GS
[0.75 0 0 0.75 82.5 116.89725] CT
/Helvetica 12 F
GS
[1 0 0 1 0 0] CT
0 5 moveto 
1 -1 scale
(1-step) t 
GR
GR
GS
[0.75 0 0 0.75 0 0] CT
0.851 0.325 0.098 RC
1 LJ
0.667 LW
N
77 155.863 M
107 155.863 L
S
GR
GS
[0.75 0 0 0.75 0 0] CT
0.149 GC
10.0 ML
0.667 LW
N
73 166 M
73 129 L
197 129 L
197 166 L
cp
S
GR
GS
[0.75 0 0 0.75 0 0] CT
1 GC
N
73 366 M
507 366 L
507 234 L
73 234 L
cp
f
GR
GS
[0.75 0 0 0.75 0 0] CT
0.149 GC
2 setlinecap
1 LJ
0.667 LW
N
73 366 M
507 366 L
S
GR
GS
[0.75 0 0 0.75 0 0] CT
0.149 GC
2 setlinecap
1 LJ
0.667 LW
N
73 234 M
507 234 L
S
GR
GS
[0.75 0 0 0.75 0 0] CT
0.149 GC
2 setlinecap
1 LJ
0.667 LW
N
73 366 M
73 361.66 L
S
GR
GS
[0.75 0 0 0.75 0 0] CT
0.149 GC
2 setlinecap
1 LJ
0.667 LW
N
159.8 366 M
159.8 361.66 L
S
GR
GS
[0.75 0 0 0.75 0 0] CT
0.149 GC
2 setlinecap
1 LJ
0.667 LW
N
246.6 366 M
246.6 361.66 L
S
GR
GS
[0.75 0 0 0.75 0 0] CT
0.149 GC
2 setlinecap
1 LJ
0.667 LW
N
333.4 366 M
333.4 361.66 L
S
GR
GS
[0.75 0 0 0.75 0 0] CT
0.149 GC
2 setlinecap
1 LJ
0.667 LW
N
420.2 366 M
420.2 361.66 L
S
GR
GS
[0.75 0 0 0.75 0 0] CT
0.149 GC
2 setlinecap
1 LJ
0.667 LW
N
507 366 M
507 361.66 L
S
GR
GS
[0.75 0 0 0.75 0 0] CT
0.149 GC
2 setlinecap
1 LJ
0.667 LW
N
73 234 M
73 238.34 L
S
GR
GS
[0.75 0 0 0.75 0 0] CT
0.149 GC
2 setlinecap
1 LJ
0.667 LW
N
159.8 234 M
159.8 238.34 L
S
GR
GS
[0.75 0 0 0.75 0 0] CT
0.149 GC
2 setlinecap
1 LJ
0.667 LW
N
246.6 234 M
246.6 238.34 L
S
GR
GS
[0.75 0 0 0.75 0 0] CT
0.149 GC
2 setlinecap
1 LJ
0.667 LW
N
333.4 234 M
333.4 238.34 L
S
GR
GS
[0.75 0 0 0.75 0 0] CT
0.149 GC
2 setlinecap
1 LJ
0.667 LW
N
420.2 234 M
420.2 238.34 L
S
GR
GS
[0.75 0 0 0.75 0 0] CT
0.149 GC
2 setlinecap
1 LJ
0.667 LW
N
507 234 M
507 238.34 L
S
GR
GS
[0.75 0 0 0.75 54.75 278.50001] CT
0.149 GC
/Helvetica 13.333 F
GS
[1 0 0 1 0 0] CT
-11 14 moveto 
1 -1 scale
(750) t 
GR
GR
GS
[0.75 0 0 0.75 119.85 278.50001] CT
0.149 GC
/Helvetica 13.333 F
GS
[1 0 0 1 0 0] CT
-11 14 moveto 
1 -1 scale
(800) t 
GR
GR
GS
[0.75 0 0 0.75 184.95 278.50001] CT
0.149 GC
/Helvetica 13.333 F
GS
[1 0 0 1 0 0] CT
-11 14 moveto 
1 -1 scale
(850) t 
GR
GR
GS
[0.75 0 0 0.75 250.05 278.50001] CT
0.149 GC
/Helvetica 13.333 F
GS
[1 0 0 1 0 0] CT
-11 14 moveto 
1 -1 scale
(900) t 
GR
GR
GS
[0.75 0 0 0.75 315.15001 278.50001] CT
0.149 GC
/Helvetica 13.333 F
GS
[1 0 0 1 0 0] CT
-11 14 moveto 
1 -1 scale
(950) t 
GR
GR
GS
[0.75 0 0 0.75 380.25 278.50001] CT
0.149 GC
/Helvetica 13.333 F
GS
[1 0 0 1 0 0] CT
-14.5 14 moveto 
1 -1 scale
(1000) t 
GR
GR
GS
[0.75 0 0 0.75 217.50016 292.24999] CT
0.149 GC
/Helvetica 14.667 F
GS
[1 0 0 1 0 0] CT
-13 16 moveto 
1 -1 scale
(t / h) t 
GR
GR
GS
[0.75 0 0 0.75 0 0] CT
0.149 GC
2 setlinecap
1 LJ
0.667 LW
N
73 366 M
73 234 L
S
GR
GS
[0.75 0 0 0.75 0 0] CT
0.149 GC
2 setlinecap
1 LJ
0.667 LW
N
507 366 M
507 234 L
S
GR
GS
[0.75 0 0 0.75 0 0] CT
0.149 GC
2 setlinecap
1 LJ
0.667 LW
N
73 358.326 M
77.34 358.326 L
S
GR
GS
[0.75 0 0 0.75 0 0] CT
0.149 GC
2 setlinecap
1 LJ
0.667 LW
N
73 319.953 M
77.34 319.953 L
S
GR
GS
[0.75 0 0 0.75 0 0] CT
0.149 GC
2 setlinecap
1 LJ
0.667 LW
N
73 281.581 M
77.34 281.581 L
S
GR
GS
[0.75 0 0 0.75 0 0] CT
0.149 GC
2 setlinecap
1 LJ
0.667 LW
N
73 243.209 M
77.34 243.209 L
S
GR
GS
[0.75 0 0 0.75 0 0] CT
0.149 GC
2 setlinecap
1 LJ
0.667 LW
N
507 358.326 M
502.66 358.326 L
S
GR
GS
[0.75 0 0 0.75 0 0] CT
0.149 GC
2 setlinecap
1 LJ
0.667 LW
N
507 319.953 M
502.66 319.953 L
S
GR
GS
[0.75 0 0 0.75 0 0] CT
0.149 GC
2 setlinecap
1 LJ
0.667 LW
N
507 281.581 M
502.66 281.581 L
S
GR
GS
[0.75 0 0 0.75 0 0] CT
0.149 GC
2 setlinecap
1 LJ
0.667 LW
N
507 243.209 M
502.66 243.209 L
S
GR
GS
[0.75 0 0 0.75 50.74999 268.74419] CT
0.149 GC
/Helvetica 13.333 F
GS
[1 0 0 1 0 0] CT
-12 5.5 moveto 
1 -1 scale
(-5) t 
GR
GR
GS
[0.75 0 0 0.75 50.74999 239.96512] CT
0.149 GC
/Helvetica 13.333 F
GS
[1 0 0 1 0 0] CT
-8 5.5 moveto 
1 -1 scale
(0) t 
GR
GR
GS
[0.75 0 0 0.75 50.74999 211.18604] CT
0.149 GC
/Helvetica 13.333 F
GS
[1 0 0 1 0 0] CT
-8 5.5 moveto 
1 -1 scale
(5) t 
GR
GR
GS
[0.75 0 0 0.75 50.74999 182.40698] CT
0.149 GC
/Helvetica 13.333 F
GS
[1 0 0 1 0 0] CT
-15 5.5 moveto 
1 -1 scale
(10) t 
GR
GR
GS
[0 -0.75 0.75 0 33.75 239.25] CT
0.149 GC
/Helvetica 14.667 F
GS
[1 0 0 1 0 0] CT
0 0 moveto 
1 -1 scale
(T / ) t 
GR
GR
GS
[0 -0.75 0.75 0 28.5 222.75] CT
0.149 GC
/Courier 10.667 F
GS
[1 0 0 1 0 0] CT
0 0 moveto 
1 -1 scale
(\260) t 
GR
GR
GS
[0 -0.75 0.75 0 33.75 219] CT
0.149 GC
/Helvetica 14.667 F
GS
[1 0 0 1 0 0] CT
0 0 moveto 
1 -1 scale
(C) t 
GR
GR
GS
[0.75 0 0 0.75 217.50023 173.4375] CT
/Helvetica-Bold 14.667 F
GS
[1 0 0 1 0 0] CT
-74 -4 moveto 
1 -1 scale
(Test set: Predictions) t 
GR
GR
GS
[0.75 0 0 0.75 0 0] CT
0 0.447 0.741 RC
1 LJ
0.667 LW
N
72.957 281.639 M
73 281.581 L
74.736 280.047 L
76.472 277.744 L
78.208 276.977 L
79.944 276.209 L
81.68 279.279 L
83.416 281.581 L
85.152 283.884 L
86.888 286.186 L
88.624 286.953 L
90.36 288.488 L
92.096 289.256 L
93.832 290.023 L
95.568 290.023 L
97.304 291.558 L
99.04 291.558 L
100.776 291.558 L
102.512 292.326 L
104.248 292.326 L
105.984 293.093 L
107.72 293.093 L
109.456 293.86 L
111.192 293.86 L
112.928 293.86 L
114.664 292.326 L
116.4 290.023 L
118.136 287.721 L
119.872 285.419 L
121.608 284.651 L
123.344 284.651 L
125.08 286.953 L
126.816 287.721 L
128.552 288.488 L
130.288 288.488 L
132.024 290.023 L
133.76 290.023 L
135.496 290.023 L
137.232 290.791 L
138.968 290.791 L
140.704 291.558 L
142.44 292.326 L
144.176 293.093 L
145.912 293.86 L
147.648 293.86 L
149.384 294.628 L
151.12 296.163 L
152.856 295.395 L
154.592 293.86 L
156.328 290.791 L
158.064 288.488 L
159.8 287.721 L
161.536 285.419 L
163.272 284.651 L
165.008 283.884 L
166.744 284.651 L
168.48 286.186 L
170.216 288.488 L
171.952 290.023 L
173.688 293.86 L
175.424 293.86 L
177.16 295.395 L
178.896 297.698 L
180.632 298.465 L
182.368 300 L
184.104 301.535 L
185.84 304.605 L
187.576 306.14 L
189.312 304.605 L
191.048 305.372 L
192.784 305.372 L
194.52 304.605 L
196.256 303.07 L
197.992 302.302 L
199.728 302.302 L
201.464 300.767 L
203.2 299.233 L
204.936 298.465 L
206.672 299.233 L
208.408 300 L
210.144 303.07 L
211.88 306.907 L
213.616 306.14 L
215.352 305.372 L
217.088 305.372 L
218.824 307.674 L
220.56 309.977 L
222.296 311.512 L
224.032 312.663 L
225.768 313.814 L
227.504 316.116 L
229.24 316.884 L
230.976 315.349 L
232.712 314.581 L
234.448 315.349 L
236.184 314.581 L
237.92 313.814 L
239.656 313.814 L
241.392 310.744 L
243.128 306.907 L
244.864 305.372 L
246.6 304.605 L
248.336 306.14 L
250.072 310.744 L
251.808 313.047 L
253.544 314.581 L
255.28 317.651 L
257.016 319.953 L
258.752 323.791 L
260.488 328.395 L
262.224 332.233 L
263.96 335.302 L
265.696 339.907 L
267.432 344.512 L
269.168 347.581 L
270.904 350.651 L
272.64 356.023 L
274.376 359.86 L
276.112 362.93 L
276.984 366.013 L
S
GR
GS
[0.75 0 0 0.75 0 0] CT
0 0.447 0.741 RC
1 LJ
0.667 LW
N
279.577 366.013 M
279.584 366 L
281.32 352.186 L
283.056 321.488 L
284.792 310.744 L
286.528 307.674 L
288.264 306.907 L
290 309.209 L
291.736 317.651 L
293.472 323.791 L
295.208 325.326 L
296.944 326.093 L
298.68 326.093 L
300.416 326.86 L
302.152 326.86 L
303.888 326.093 L
305.624 326.86 L
307.36 326.86 L
309.096 326.86 L
310.832 327.628 L
312.568 326.86 L
314.304 326.86 L
316.04 326.093 L
317.776 326.093 L
319.512 328.395 L
321.248 329.93 L
322.984 328.395 L
324.72 320.721 L
326.456 315.349 L
328.192 311.512 L
329.928 306.907 L
331.664 310.744 L
333.4 319.186 L
335.136 325.326 L
336.872 328.395 L
338.608 329.93 L
340.344 330.698 L
342.08 330.698 L
343.816 326.093 L
345.552 318.419 L
347.288 309.209 L
349.024 309.977 L
350.76 310.744 L
352.496 313.814 L
354.232 315.349 L
355.968 314.581 L
357.704 309.209 L
359.44 302.302 L
361.176 296.93 L
362.912 290.023 L
364.648 288.488 L
366.384 286.186 L
368.12 280.814 L
369.856 273.14 L
371.592 262.395 L
373.328 257.023 L
375.064 258.558 L
376.8 254.721 L
378.536 239.372 L
380.272 234.767 L
380.713 233.987 L
S
GR
GS
[0.75 0 0 0.75 0 0] CT
0 0.447 0.741 RC
1 LJ
0.667 LW
N
382.583 233.987 M
383.744 238.605 L
385.48 245.512 L
387.216 247.047 L
388.952 248.581 L
390.688 250.116 L
392.424 251.651 L
394.16 250.884 L
395.896 252.419 L
397.632 253.186 L
399.368 251.651 L
401.104 251.651 L
402.84 258.558 L
404.576 260.86 L
406.312 261.628 L
408.048 260.093 L
409.784 259.326 L
411.52 262.395 L
413.256 263.163 L
414.992 266.233 L
416.728 273.14 L
418.464 271.605 L
420.2 270.837 L
421.936 272.372 L
423.672 272.372 L
425.408 270.837 L
427.144 268.535 L
428.88 270.837 L
430.616 276.977 L
432.352 275.442 L
434.088 273.907 L
435.824 273.907 L
437.56 273.14 L
439.296 271.605 L
441.032 271.605 L
442.768 271.605 L
444.504 275.442 L
446.24 276.977 L
447.976 273.14 L
449.712 267 L
451.448 266.233 L
453.184 266.233 L
454.92 269.302 L
456.656 270.07 L
458.392 277.744 L
460.128 290.791 L
461.864 293.093 L
463.6 294.628 L
465.336 299.233 L
467.072 302.302 L
468.808 307.674 L
470.544 307.674 L
472.28 300 L
474.016 297.698 L
475.752 295.395 L
477.488 288.488 L
479.224 284.651 L
480.96 286.953 L
482.696 288.488 L
484.432 286.186 L
486.168 291.558 L
487.904 292.326 L
489.64 289.256 L
491.376 283.884 L
493.112 281.581 L
494.848 283.116 L
496.584 283.884 L
498.32 293.86 L
500.056 296.163 L
501.792 295.395 L
503.528 293.86 L
505.264 291.558 L
507 292.326 L
507.043 292.364 L
S
GR
GS
[0.75 0 0 0.75 0 0] CT
0.851 0.325 0.098 RC
1 LJ
0.667 LW
N
72.957 293.146 M
73 292.896 L
74.736 280.127 L
76.472 272.479 L
78.208 265.947 L
79.944 262.156 L
81.68 258.119 L
83.416 261.44 L
85.152 271.228 L
86.888 280.385 L
88.624 291.032 L
90.36 292.616 L
92.096 293.882 L
93.832 295.084 L
95.568 298.742 L
97.304 294.166 L
99.04 291.645 L
100.776 291.694 L
102.512 291.154 L
104.248 294.557 L
105.984 294.6 L
107.72 294.534 L
109.456 292.767 L
111.192 293.842 L
112.928 288.469 L
114.664 283.36 L
116.4 277.9 L
118.136 272.501 L
119.872 273.08 L
121.608 271.166 L
123.344 273.758 L
125.08 277.083 L
126.816 285.915 L
128.552 291.357 L
130.288 296.645 L
132.024 297.484 L
133.76 296.236 L
135.496 297.581 L
137.232 298.576 L
138.968 298.683 L
140.704 294.668 L
142.44 294.329 L
144.176 293.838 L
145.912 297.593 L
147.648 296.773 L
149.384 296.764 L
151.12 296.549 L
152.856 295.457 L
154.592 292.941 L
156.328 288.56 L
158.064 283.359 L
159.8 279.182 L
161.536 277.941 L
163.272 276.649 L
165.008 278.909 L
166.744 279.795 L
168.48 285.746 L
170.216 289.384 L
171.952 294.8 L
173.688 297.413 L
175.424 294.789 L
177.16 296.481 L
178.896 296.097 L
180.632 294.974 L
182.368 293.751 L
184.104 295.132 L
185.84 295.767 L
187.576 301.233 L
189.312 299.101 L
191.048 301.187 L
192.784 302.308 L
194.52 300.814 L
196.256 298.309 L
197.992 294.25 L
199.728 291.625 L
201.464 287.327 L
203.2 283.454 L
204.936 282.993 L
206.672 282.844 L
208.408 284.953 L
210.144 290.994 L
211.88 297.739 L
213.616 304.421 L
215.352 304.904 L
217.088 304.569 L
218.824 306.508 L
220.56 309.186 L
222.296 307.548 L
224.032 308.761 L
225.768 311.504 L
227.504 308.469 L
229.24 309.636 L
230.976 310.553 L
232.712 313.035 L
234.448 313.285 L
236.184 312.626 L
237.92 309.374 L
239.656 305.516 L
241.392 302.55 L
243.128 298.65 L
244.864 295.729 L
246.6 294.019 L
248.336 296.323 L
250.072 298.238 L
251.808 305.138 L
253.544 311.619 L
255.28 312.583 L
257.016 311.476 L
258.752 312.596 L
260.488 314.116 L
262.224 317.779 L
263.96 320.407 L
265.696 317.435 L
267.432 317.861 L
269.168 322.494 L
270.904 324.763 L
272.64 327.816 L
274.376 330.186 L
276.112 330.604 L
277.848 331.035 L
279.584 331.734 L
281.32 330.139 L
283.056 325.374 L
284.792 323.694 L
286.528 328.793 L
288.264 328.141 L
290 331.104 L
291.736 341.828 L
293.472 339.343 L
295.208 328.753 L
296.944 304.787 L
298.68 315.879 L
300.416 321.092 L
302.152 324.89 L
303.888 329.83 L
305.624 338.301 L
307.36 340.24 L
309.096 338.998 L
310.832 341.36 L
312.568 343.669 L
314.304 346.336 L
316.04 346.707 L
317.776 346.944 L
319.512 349.076 L
321.248 343.309 L
322.984 332.605 L
324.72 320.64 L
326.456 309.203 L
328.192 305.184 L
329.928 299.414 L
331.664 298.626 L
333.4 305.178 L
335.136 314.929 L
336.872 324.178 L
338.608 325.009 L
340.344 325.862 L
342.08 324.934 L
343.816 322.522 L
345.552 329.426 L
347.288 333.426 L
349.024 333.062 L
350.76 332.51 L
352.496 333.147 L
354.232 333.934 L
355.968 333.314 L
357.704 327.019 L
359.44 319.971 L
361.176 314.176 L
362.912 319.473 L
364.648 315.04 L
366.384 310.686 L
368.12 305.028 L
369.856 300.747 L
371.592 291.991 L
373.328 288.158 L
375.064 290.02 L
376.8 292.406 L
378.536 303.424 L
380.272 310.427 L
382.008 307.395 L
383.744 301.358 L
385.48 290.823 L
387.216 285.833 L
388.952 284.246 L
390.688 272.033 L
392.424 247.579 L
394.16 254.172 L
395.896 252.764 L
397.632 268.204 L
399.368 272.766 L
401.104 268.536 L
402.84 267.346 L
404.576 262.436 L
406.312 257.272 L
408.048 245.509 L
409.784 241.988 L
411.52 238.659 L
412.68 233.987 L
S
GR
GS
[0.75 0 0 0.75 0 0] CT
0.851 0.325 0.098 RC
1 LJ
0.667 LW
N
415.089 233.987 M
416.728 246.87 L
418.464 246.781 L
420.2 245.588 L
421.936 246.204 L
423.672 246.895 L
425.408 255.317 L
427.144 257.691 L
428.88 261.134 L
430.616 266.043 L
432.352 259.478 L
434.088 264.527 L
435.824 271.308 L
437.56 270.736 L
439.296 265.662 L
441.032 261.542 L
442.768 267.768 L
444.504 277.564 L
446.24 267.227 L
447.976 263.941 L
449.712 259.96 L
451.448 256.125 L
453.184 255.675 L
454.92 257.174 L
456.656 258.966 L
458.392 267.684 L
460.128 272.852 L
461.864 269.705 L
463.6 270.05 L
465.336 273.378 L
467.072 272.88 L
468.808 278.507 L
470.544 275.675 L
472.28 282.389 L
474.016 294.817 L
475.752 289.372 L
477.488 290.39 L
479.224 297.781 L
480.96 298.563 L
482.696 302.932 L
484.432 296.604 L
486.168 286.136 L
487.904 286.979 L
489.64 281.508 L
491.376 267.18 L
493.112 263.992 L
494.848 270.758 L
496.584 270.659 L
498.32 268.047 L
500.056 282.807 L
501.792 288.986 L
503.528 290.415 L
505.264 293.114 L
507 296.474 L
507.043 296.613 L
S
GR
GS
[0.75 0 0 0.75 0 0] CT
1 GC
N
72 366 M
72 329 L
196 329 L
196 366 L
cp
f
GR
GS
[0.75 0 0 0.75 81.75 254.35275] CT
/Helvetica 12 F
GS
[1 0 0 1 0 0] CT
0 5 moveto 
1 -1 scale
(Measured Data) t 
GR
GR
GS
[0.75 0 0 0.75 0 0] CT
0 0.447 0.741 RC
1 LJ
0.667 LW
N
76 339.137 M
106 339.137 L
S
GR
GS
[0.75 0 0 0.75 81.75 266.89725] CT
/Helvetica 12 F
GS
[1 0 0 1 0 0] CT
0 5 moveto 
1 -1 scale
(8-step) t 
GR
GR
GS
[0.75 0 0 0.75 0 0] CT
0.851 0.325 0.098 RC
1 LJ
0.667 LW
N
76 355.863 M
106 355.863 L
S
GR
GS
[0.75 0 0 0.75 0 0] CT
0.149 GC
10.0 ML
0.667 LW
N
72 366 M
72 329 L
196 329 L
196 366 L
cp
S
GR
%%Trailer
%%Pages: 1
%%EOF
