%!PS-Adobe-3.0 EPSF-3.0
%%Creator: (MATLAB, The Mathworks, Inc. Version 9.0.0.370719 \(R2016a\). Operating System: Windows 8)
%%Title: H:/Skolan/GitTogether/tsaproj/Report/Img/CTestPred2.eps
%%CreationDate: 2018-01-11T22:41:19
%%Pages: (atend)
%%BoundingBox: 0 0 420 315
%%LanguageLevel: 3
%%EndComments
%%BeginProlog
%%BeginResource: procset (Apache XML Graphics Std ProcSet) 1.2 0
%%Version: 1.2 0
%%Copyright: (Copyright 2001-2003,2010 The Apache Software Foundation. License terms: http://www.apache.org/licenses/LICENSE-2.0)
/bd{bind def}bind def
/ld{load def}bd
/GR/grestore ld
/M/moveto ld
/LJ/setlinejoin ld
/C/curveto ld
/f/fill ld
/LW/setlinewidth ld
/GC/setgray ld
/t/show ld
/N/newpath ld
/CT/concat ld
/cp/closepath ld
/S/stroke ld
/L/lineto ld
/CC/setcmykcolor ld
/A/ashow ld
/GS/gsave ld
/RC/setrgbcolor ld
/RM/rmoveto ld
/ML/setmiterlimit ld
/re {4 2 roll M
1 index 0 rlineto
0 exch rlineto
neg 0 rlineto
cp } bd
/_ctm matrix def
/_tm matrix def
/BT { _ctm currentmatrix pop matrix _tm copy pop 0 0 moveto } bd
/ET { _ctm setmatrix } bd
/iTm { _ctm setmatrix _tm concat } bd
/Tm { _tm astore pop iTm 0 0 moveto } bd
/ux 0.0 def
/uy 0.0 def
/F {
  /Tp exch def
  /Tf exch def
  Tf findfont Tp scalefont setfont
  /cf Tf def  /cs Tp def
} bd
/ULS {currentpoint /uy exch def /ux exch def} bd
/ULE {
  /Tcx currentpoint pop def
  gsave
  newpath
  cf findfont cs scalefont dup
  /FontMatrix get 0 get /Ts exch def /FontInfo get dup
  /UnderlinePosition get Ts mul /To exch def
  /UnderlineThickness get Ts mul /Tt exch def
  ux uy To add moveto  Tcx uy To add lineto
  Tt setlinewidth stroke
  grestore
} bd
/OLE {
  /Tcx currentpoint pop def
  gsave
  newpath
  cf findfont cs scalefont dup
  /FontMatrix get 0 get /Ts exch def /FontInfo get dup
  /UnderlinePosition get Ts mul /To exch def
  /UnderlineThickness get Ts mul /Tt exch def
  ux uy To add cs add moveto Tcx uy To add cs add lineto
  Tt setlinewidth stroke
  grestore
} bd
/SOE {
  /Tcx currentpoint pop def
  gsave
  newpath
  cf findfont cs scalefont dup
  /FontMatrix get 0 get /Ts exch def /FontInfo get dup
  /UnderlinePosition get Ts mul /To exch def
  /UnderlineThickness get Ts mul /Tt exch def
  ux uy To add cs 10 mul 26 idiv add moveto Tcx uy To add cs 10 mul 26 idiv add lineto
  Tt setlinewidth stroke
  grestore
} bd
/QT {
/Y22 exch store
/X22 exch store
/Y21 exch store
/X21 exch store
currentpoint
/Y21 load 2 mul add 3 div exch
/X21 load 2 mul add 3 div exch
/X21 load 2 mul /X22 load add 3 div
/Y21 load 2 mul /Y22 load add 3 div
/X22 load /Y22 load curveto
} bd
/SSPD {
dup length /d exch dict def
{
/v exch def
/k exch def
currentpagedevice k known {
/cpdv currentpagedevice k get def
v cpdv ne {
/upd false def
/nullv v type /nulltype eq def
/nullcpdv cpdv type /nulltype eq def
nullv nullcpdv or
{
/upd true def
} {
/sametype v type cpdv type eq def
sametype {
v type /arraytype eq {
/vlen v length def
/cpdvlen cpdv length def
vlen cpdvlen eq {
0 1 vlen 1 sub {
/i exch def
/obj v i get def
/cpdobj cpdv i get def
obj cpdobj ne {
/upd true def
exit
} if
} for
} {
/upd true def
} ifelse
} {
v type /dicttype eq {
v {
/dv exch def
/dk exch def
/cpddv cpdv dk get def
dv cpddv ne {
/upd true def
exit
} if
} forall
} {
/upd true def
} ifelse
} ifelse
} if
} ifelse
upd true eq {
d k v put
} if
} if
} if
} forall
d length 0 gt {
d setpagedevice
} if
} bd
%%EndResource
%%BeginResource: procset (Apache XML Graphics EPS ProcSet) 1.0 0
%%Version: 1.0 0
%%Copyright: (Copyright 2002-2003 The Apache Software Foundation. License terms: http://www.apache.org/licenses/LICENSE-2.0)
/BeginEPSF { %def
/b4_Inc_state save def         % Save state for cleanup
/dict_count countdictstack def % Count objects on dict stack
/op_count count 1 sub def      % Count objects on operand stack
userdict begin                 % Push userdict on dict stack
/showpage { } def              % Redefine showpage, { } = null proc
0 setgray 0 setlinecap         % Prepare graphics state
1 setlinewidth 0 setlinejoin
10 setmiterlimit [ ] 0 setdash newpath
/languagelevel where           % If level not equal to 1 then
{pop languagelevel             % set strokeadjust and
1 ne                           % overprint to their defaults.
{false setstrokeadjust false setoverprint
} if
} if
} bd
/EndEPSF { %def
count op_count sub {pop} repeat            % Clean up stacks
countdictstack dict_count sub {end} repeat
b4_Inc_state restore
} bd
%%EndResource
%FOPBeginFontDict
%%IncludeResource: font Courier-Bold
%%IncludeResource: font Helvetica
%%IncludeResource: font Courier-BoldOblique
%%IncludeResource: font Courier-Oblique
%%IncludeResource: font Times-Roman
%%IncludeResource: font Helvetica-BoldOblique
%%IncludeResource: font Helvetica-Bold
%%IncludeResource: font Helvetica-Oblique
%%IncludeResource: font Times-BoldItalic
%%IncludeResource: font Courier
%%IncludeResource: font Times-Italic
%%IncludeResource: font Times-Bold
%%IncludeResource: font Symbol
%%IncludeResource: font ZapfDingbats
%FOPEndFontDict
%%BeginResource: encoding WinAnsiEncoding
/WinAnsiEncoding [
/.notdef /.notdef /.notdef /.notdef /.notdef
/.notdef /.notdef /.notdef /.notdef /.notdef
/.notdef /.notdef /.notdef /.notdef /.notdef
/.notdef /.notdef /.notdef /.notdef /.notdef
/.notdef /.notdef /.notdef /.notdef /.notdef
/.notdef /.notdef /.notdef /.notdef /.notdef
/.notdef /.notdef /space /exclam /quotedbl
/numbersign /dollar /percent /ampersand /quotesingle
/parenleft /parenright /asterisk /plus /comma
/hyphen /period /slash /zero /one
/two /three /four /five /six
/seven /eight /nine /colon /semicolon
/less /equal /greater /question /at
/A /B /C /D /E
/F /G /H /I /J
/K /L /M /N /O
/P /Q /R /S /T
/U /V /W /X /Y
/Z /bracketleft /backslash /bracketright /asciicircum
/underscore /quoteleft /a /b /c
/d /e /f /g /h
/i /j /k /l /m
/n /o /p /q /r
/s /t /u /v /w
/x /y /z /braceleft /bar
/braceright /asciitilde /bullet /Euro /bullet
/quotesinglbase /florin /quotedblbase /ellipsis /dagger
/daggerdbl /circumflex /perthousand /Scaron /guilsinglleft
/OE /bullet /Zcaron /bullet /bullet
/quoteleft /quoteright /quotedblleft /quotedblright /bullet
/endash /emdash /asciitilde /trademark /scaron
/guilsinglright /oe /bullet /zcaron /Ydieresis
/space /exclamdown /cent /sterling /currency
/yen /brokenbar /section /dieresis /copyright
/ordfeminine /guillemotleft /logicalnot /sfthyphen /registered
/macron /degree /plusminus /twosuperior /threesuperior
/acute /mu /paragraph /middot /cedilla
/onesuperior /ordmasculine /guillemotright /onequarter /onehalf
/threequarters /questiondown /Agrave /Aacute /Acircumflex
/Atilde /Adieresis /Aring /AE /Ccedilla
/Egrave /Eacute /Ecircumflex /Edieresis /Igrave
/Iacute /Icircumflex /Idieresis /Eth /Ntilde
/Ograve /Oacute /Ocircumflex /Otilde /Odieresis
/multiply /Oslash /Ugrave /Uacute /Ucircumflex
/Udieresis /Yacute /Thorn /germandbls /agrave
/aacute /acircumflex /atilde /adieresis /aring
/ae /ccedilla /egrave /eacute /ecircumflex
/edieresis /igrave /iacute /icircumflex /idieresis
/eth /ntilde /ograve /oacute /ocircumflex
/otilde /odieresis /divide /oslash /ugrave
/uacute /ucircumflex /udieresis /yacute /thorn
/ydieresis
] def
%%EndResource
%FOPBeginFontReencode
/Courier-Bold findfont
dup length dict begin
  {1 index /FID ne {def} {pop pop} ifelse} forall
  /Encoding WinAnsiEncoding def
  currentdict
end
/Courier-Bold exch definefont pop
/Helvetica findfont
dup length dict begin
  {1 index /FID ne {def} {pop pop} ifelse} forall
  /Encoding WinAnsiEncoding def
  currentdict
end
/Helvetica exch definefont pop
/Courier-BoldOblique findfont
dup length dict begin
  {1 index /FID ne {def} {pop pop} ifelse} forall
  /Encoding WinAnsiEncoding def
  currentdict
end
/Courier-BoldOblique exch definefont pop
/Courier-Oblique findfont
dup length dict begin
  {1 index /FID ne {def} {pop pop} ifelse} forall
  /Encoding WinAnsiEncoding def
  currentdict
end
/Courier-Oblique exch definefont pop
/Times-Roman findfont
dup length dict begin
  {1 index /FID ne {def} {pop pop} ifelse} forall
  /Encoding WinAnsiEncoding def
  currentdict
end
/Times-Roman exch definefont pop
/Helvetica-BoldOblique findfont
dup length dict begin
  {1 index /FID ne {def} {pop pop} ifelse} forall
  /Encoding WinAnsiEncoding def
  currentdict
end
/Helvetica-BoldOblique exch definefont pop
/Helvetica-Bold findfont
dup length dict begin
  {1 index /FID ne {def} {pop pop} ifelse} forall
  /Encoding WinAnsiEncoding def
  currentdict
end
/Helvetica-Bold exch definefont pop
/Helvetica-Oblique findfont
dup length dict begin
  {1 index /FID ne {def} {pop pop} ifelse} forall
  /Encoding WinAnsiEncoding def
  currentdict
end
/Helvetica-Oblique exch definefont pop
/Times-BoldItalic findfont
dup length dict begin
  {1 index /FID ne {def} {pop pop} ifelse} forall
  /Encoding WinAnsiEncoding def
  currentdict
end
/Times-BoldItalic exch definefont pop
/Courier findfont
dup length dict begin
  {1 index /FID ne {def} {pop pop} ifelse} forall
  /Encoding WinAnsiEncoding def
  currentdict
end
/Courier exch definefont pop
/Times-Italic findfont
dup length dict begin
  {1 index /FID ne {def} {pop pop} ifelse} forall
  /Encoding WinAnsiEncoding def
  currentdict
end
/Times-Italic exch definefont pop
/Times-Bold findfont
dup length dict begin
  {1 index /FID ne {def} {pop pop} ifelse} forall
  /Encoding WinAnsiEncoding def
  currentdict
end
/Times-Bold exch definefont pop
%FOPEndFontReencode
%%EndProlog
%%Page: 1 1
%%PageBoundingBox: 0 0 420 315
%%BeginPageSetup
[1 0 0 -1 0 315] CT
%%EndPageSetup
GS
[0.75 0 0 0.75 0 0] CT
1 GC
N
0 0 560 420 re
f
GR
GS
[0.75 0 0 0.75 0 0] CT
1 GC
N
0 0 560 420 re
f
GR
GS
[0.75 0 0 0.75 0 0] CT
1 GC
N
73 167 M
507 167 L
507 35 L
73 35 L
cp
f
GR
GS
[0.75 0 0 0.75 0 0] CT
0.149 GC
2 setlinecap
1 LJ
0.667 LW
N
73 167 M
507 167 L
S
GR
GS
[0.75 0 0 0.75 0 0] CT
0.149 GC
2 setlinecap
1 LJ
0.667 LW
N
73 35 M
507 35 L
S
GR
GS
[0.75 0 0 0.75 0 0] CT
0.149 GC
2 setlinecap
1 LJ
0.667 LW
N
73 167 M
73 162.66 L
S
GR
GS
[0.75 0 0 0.75 0 0] CT
0.149 GC
2 setlinecap
1 LJ
0.667 LW
N
159.8 167 M
159.8 162.66 L
S
GR
GS
[0.75 0 0 0.75 0 0] CT
0.149 GC
2 setlinecap
1 LJ
0.667 LW
N
246.6 167 M
246.6 162.66 L
S
GR
GS
[0.75 0 0 0.75 0 0] CT
0.149 GC
2 setlinecap
1 LJ
0.667 LW
N
333.4 167 M
333.4 162.66 L
S
GR
GS
[0.75 0 0 0.75 0 0] CT
0.149 GC
2 setlinecap
1 LJ
0.667 LW
N
420.2 167 M
420.2 162.66 L
S
GR
GS
[0.75 0 0 0.75 0 0] CT
0.149 GC
2 setlinecap
1 LJ
0.667 LW
N
507 167 M
507 162.66 L
S
GR
GS
[0.75 0 0 0.75 0 0] CT
0.149 GC
2 setlinecap
1 LJ
0.667 LW
N
73 35 M
73 39.34 L
S
GR
GS
[0.75 0 0 0.75 0 0] CT
0.149 GC
2 setlinecap
1 LJ
0.667 LW
N
159.8 35 M
159.8 39.34 L
S
GR
GS
[0.75 0 0 0.75 0 0] CT
0.149 GC
2 setlinecap
1 LJ
0.667 LW
N
246.6 35 M
246.6 39.34 L
S
GR
GS
[0.75 0 0 0.75 0 0] CT
0.149 GC
2 setlinecap
1 LJ
0.667 LW
N
333.4 35 M
333.4 39.34 L
S
GR
GS
[0.75 0 0 0.75 0 0] CT
0.149 GC
2 setlinecap
1 LJ
0.667 LW
N
420.2 35 M
420.2 39.34 L
S
GR
GS
[0.75 0 0 0.75 0 0] CT
0.149 GC
2 setlinecap
1 LJ
0.667 LW
N
507 35 M
507 39.34 L
S
GR
GS
[0.75 0 0 0.75 54.75 129.25] CT
0.149 GC
/Helvetica 13.333 F
GS
[1 0 0 1 0 0] CT
-11 14 moveto 
1 -1 scale
(750) t 
GR
GR
GS
[0.75 0 0 0.75 119.85 129.25] CT
0.149 GC
/Helvetica 13.333 F
GS
[1 0 0 1 0 0] CT
-11 14 moveto 
1 -1 scale
(800) t 
GR
GR
GS
[0.75 0 0 0.75 184.95 129.25] CT
0.149 GC
/Helvetica 13.333 F
GS
[1 0 0 1 0 0] CT
-11 14 moveto 
1 -1 scale
(850) t 
GR
GR
GS
[0.75 0 0 0.75 250.05 129.25] CT
0.149 GC
/Helvetica 13.333 F
GS
[1 0 0 1 0 0] CT
-11 14 moveto 
1 -1 scale
(900) t 
GR
GR
GS
[0.75 0 0 0.75 315.15001 129.25] CT
0.149 GC
/Helvetica 13.333 F
GS
[1 0 0 1 0 0] CT
-11 14 moveto 
1 -1 scale
(950) t 
GR
GR
GS
[0.75 0 0 0.75 380.25 129.25] CT
0.149 GC
/Helvetica 13.333 F
GS
[1 0 0 1 0 0] CT
-14.5 14 moveto 
1 -1 scale
(1000) t 
GR
GR
GS
[0.75 0 0 0.75 217.50016 143] CT
0.149 GC
/Helvetica 14.667 F
GS
[1 0 0 1 0 0] CT
-13 16 moveto 
1 -1 scale
(t / h) t 
GR
GR
GS
[0.75 0 0 0.75 0 0] CT
0.149 GC
2 setlinecap
1 LJ
0.667 LW
N
73 167 M
73 35 L
S
GR
GS
[0.75 0 0 0.75 0 0] CT
0.149 GC
2 setlinecap
1 LJ
0.667 LW
N
507 167 M
507 35 L
S
GR
GS
[0.75 0 0 0.75 0 0] CT
0.149 GC
2 setlinecap
1 LJ
0.667 LW
N
73 157.341 M
77.34 157.341 L
S
GR
GS
[0.75 0 0 0.75 0 0] CT
0.149 GC
2 setlinecap
1 LJ
0.667 LW
N
73 125.146 M
77.34 125.146 L
S
GR
GS
[0.75 0 0 0.75 0 0] CT
0.149 GC
2 setlinecap
1 LJ
0.667 LW
N
73 92.951 M
77.34 92.951 L
S
GR
GS
[0.75 0 0 0.75 0 0] CT
0.149 GC
2 setlinecap
1 LJ
0.667 LW
N
73 60.756 M
77.34 60.756 L
S
GR
GS
[0.75 0 0 0.75 0 0] CT
0.149 GC
2 setlinecap
1 LJ
0.667 LW
N
507 157.341 M
502.66 157.341 L
S
GR
GS
[0.75 0 0 0.75 0 0] CT
0.149 GC
2 setlinecap
1 LJ
0.667 LW
N
507 125.146 M
502.66 125.146 L
S
GR
GS
[0.75 0 0 0.75 0 0] CT
0.149 GC
2 setlinecap
1 LJ
0.667 LW
N
507 92.951 M
502.66 92.951 L
S
GR
GS
[0.75 0 0 0.75 0 0] CT
0.149 GC
2 setlinecap
1 LJ
0.667 LW
N
507 60.756 M
502.66 60.756 L
S
GR
GS
[0.75 0 0 0.75 50.74999 118.0061] CT
0.149 GC
/Helvetica 13.333 F
GS
[1 0 0 1 0 0] CT
-12 5.5 moveto 
1 -1 scale
(-5) t 
GR
GR
GS
[0.75 0 0 0.75 50.74999 93.85975] CT
0.149 GC
/Helvetica 13.333 F
GS
[1 0 0 1 0 0] CT
-8 5.5 moveto 
1 -1 scale
(0) t 
GR
GR
GS
[0.75 0 0 0.75 50.74999 69.71341] CT
0.149 GC
/Helvetica 13.333 F
GS
[1 0 0 1 0 0] CT
-8 5.5 moveto 
1 -1 scale
(5) t 
GR
GR
GS
[0.75 0 0 0.75 50.74999 45.56707] CT
0.149 GC
/Helvetica 13.333 F
GS
[1 0 0 1 0 0] CT
-15 5.5 moveto 
1 -1 scale
(10) t 
GR
GR
GS
[0 -0.75 0.75 0 33.75 90] CT
0.149 GC
/Helvetica 14.667 F
GS
[1 0 0 1 0 0] CT
0 0 moveto 
1 -1 scale
(T / ) t 
GR
GR
GS
[0 -0.75 0.75 0 28.5 73.5] CT
0.149 GC
/Courier 10.667 F
GS
[1 0 0 1 0 0] CT
0 0 moveto 
1 -1 scale
(\260) t 
GR
GR
GS
[0 -0.75 0.75 0 33.75 69.75] CT
0.149 GC
/Helvetica 14.667 F
GS
[1 0 0 1 0 0] CT
0 0 moveto 
1 -1 scale
(C) t 
GR
GR
GS
[0.75 0 0 0.75 217.50023 24.1875] CT
/Helvetica-Bold 14.667 F
GS
[1 0 0 1 0 0] CT
-74 -4 moveto 
1 -1 scale
(Test set: Predictions) t 
GR
GR
GS
[0.75 0 0 0.75 0 0] CT
0 0.447 0.741 RC
1 LJ
0.667 LW
N
72.957 93 M
73 92.951 L
74.736 91.663 L
76.472 89.732 L
78.208 89.088 L
79.944 88.444 L
81.68 91.02 L
83.416 92.951 L
85.152 94.883 L
86.888 96.815 L
88.624 97.459 L
90.36 98.746 L
92.096 99.39 L
93.832 100.034 L
95.568 100.034 L
97.304 101.322 L
99.04 101.322 L
100.776 101.322 L
102.512 101.966 L
104.248 101.966 L
105.984 102.61 L
107.72 102.61 L
109.456 103.254 L
111.192 103.254 L
112.928 103.254 L
114.664 101.966 L
116.4 100.034 L
118.136 98.102 L
119.872 96.171 L
121.608 95.527 L
123.344 95.527 L
125.08 97.459 L
126.816 98.102 L
128.552 98.746 L
130.288 98.746 L
132.024 100.034 L
133.76 100.034 L
135.496 100.034 L
137.232 100.678 L
138.968 100.678 L
140.704 101.322 L
142.44 101.966 L
144.176 102.61 L
145.912 103.254 L
147.648 103.254 L
149.384 103.898 L
151.12 105.185 L
152.856 104.541 L
154.592 103.254 L
156.328 100.678 L
158.064 98.746 L
159.8 98.102 L
161.536 96.171 L
163.272 95.527 L
165.008 94.883 L
166.744 95.527 L
168.48 96.815 L
170.216 98.746 L
171.952 100.034 L
173.688 103.254 L
175.424 103.254 L
177.16 104.541 L
178.896 106.473 L
180.632 107.117 L
182.368 108.405 L
184.104 109.693 L
185.84 112.268 L
187.576 113.556 L
189.312 112.268 L
191.048 112.912 L
192.784 112.912 L
194.52 112.268 L
196.256 110.98 L
197.992 110.337 L
199.728 110.337 L
201.464 109.049 L
203.2 107.761 L
204.936 107.117 L
206.672 107.761 L
208.408 108.405 L
210.144 110.98 L
211.88 114.2 L
213.616 113.556 L
215.352 112.912 L
217.088 112.912 L
218.824 114.844 L
220.56 116.776 L
222.296 118.063 L
224.032 119.029 L
225.768 119.995 L
227.504 121.927 L
229.24 122.571 L
230.976 121.283 L
232.712 120.639 L
234.448 121.283 L
236.184 120.639 L
237.92 119.995 L
239.656 119.995 L
241.392 117.42 L
243.128 114.2 L
244.864 112.912 L
246.6 112.268 L
248.336 113.556 L
250.072 117.42 L
251.808 119.351 L
253.544 120.639 L
255.28 123.215 L
257.016 125.146 L
258.752 128.366 L
260.488 132.229 L
262.224 135.449 L
263.96 138.024 L
265.696 141.888 L
267.432 145.751 L
269.168 148.327 L
270.904 150.902 L
272.64 155.41 L
274.376 158.629 L
276.112 161.205 L
277.848 166.356 L
279.584 163.78 L
281.32 152.19 L
283.056 126.434 L
284.792 117.42 L
286.528 114.844 L
288.264 114.2 L
290 116.132 L
291.736 123.215 L
293.472 128.366 L
295.208 129.654 L
296.944 130.298 L
298.68 130.298 L
300.416 130.941 L
302.152 130.941 L
303.888 130.298 L
305.624 130.941 L
307.36 130.941 L
309.096 130.941 L
310.832 131.585 L
312.568 130.941 L
314.304 130.941 L
316.04 130.298 L
317.776 130.298 L
319.512 132.229 L
321.248 133.517 L
322.984 132.229 L
324.72 125.79 L
326.456 121.283 L
328.192 118.063 L
329.928 114.2 L
331.664 117.42 L
333.4 124.502 L
335.136 129.654 L
336.872 132.229 L
338.608 133.517 L
340.344 134.161 L
342.08 134.161 L
343.816 130.298 L
345.552 123.859 L
347.288 116.132 L
349.024 116.776 L
350.76 117.42 L
352.496 119.995 L
354.232 121.283 L
355.968 120.639 L
357.704 116.132 L
359.44 110.337 L
361.176 105.829 L
362.912 100.034 L
364.648 98.746 L
366.384 96.815 L
368.12 92.307 L
369.856 85.868 L
371.592 76.854 L
373.328 72.346 L
375.064 73.634 L
376.8 70.415 L
378.536 57.537 L
380.272 53.673 L
382.008 51.098 L
383.744 56.893 L
385.48 62.688 L
387.216 63.976 L
388.952 65.263 L
390.688 66.551 L
392.424 67.839 L
394.16 67.195 L
395.896 68.483 L
397.632 69.127 L
399.368 67.839 L
401.104 67.839 L
402.84 73.634 L
404.576 75.566 L
406.312 76.21 L
408.048 74.922 L
409.784 74.278 L
411.52 76.854 L
413.256 77.498 L
414.992 80.073 L
416.728 85.868 L
418.464 84.58 L
420.2 83.937 L
421.936 85.224 L
423.672 85.224 L
425.408 83.937 L
427.144 82.005 L
428.88 83.937 L
430.616 89.088 L
432.352 87.8 L
434.088 86.512 L
435.824 86.512 L
437.56 85.868 L
439.296 84.58 L
441.032 84.58 L
442.768 84.58 L
444.504 87.8 L
446.24 89.088 L
447.976 85.868 L
449.712 80.717 L
451.448 80.073 L
453.184 80.073 L
454.92 82.649 L
456.656 83.293 L
458.392 89.732 L
460.128 100.678 L
461.864 102.61 L
463.6 103.898 L
465.336 107.761 L
467.072 110.337 L
468.808 114.844 L
470.544 114.844 L
472.28 108.405 L
474.016 106.473 L
475.752 104.541 L
477.488 98.746 L
479.224 95.527 L
480.96 97.459 L
482.696 98.746 L
484.432 96.815 L
486.168 101.322 L
487.904 101.966 L
489.64 99.39 L
491.376 94.883 L
493.112 92.951 L
494.848 94.239 L
496.584 94.883 L
498.32 103.254 L
500.056 105.185 L
501.792 104.541 L
503.528 103.254 L
505.264 101.322 L
507 101.966 L
507.043 101.998 L
S
GR
GS
[0.75 0 0 0.75 0 0] CT
0.851 0.325 0.098 RC
1 LJ
0.667 LW
N
72.957 88.923 M
73 88.819 L
74.736 87.551 L
76.472 89.125 L
78.208 88.849 L
79.944 88.421 L
81.68 89.115 L
83.416 96.434 L
85.152 96.557 L
86.888 95.87 L
88.624 97.4 L
90.36 97.562 L
92.096 99.269 L
93.832 100.599 L
95.568 99.835 L
97.304 100.073 L
99.04 102.388 L
100.776 101.665 L
102.512 101.974 L
104.248 102.777 L
105.984 101.275 L
107.72 103.777 L
109.456 100.19 L
111.192 104.549 L
112.928 101.461 L
114.664 100.02 L
116.4 97.134 L
118.136 96.995 L
119.872 96.423 L
121.608 95.086 L
123.344 96.213 L
125.08 98.284 L
126.816 100.249 L
128.552 98.318 L
130.288 98.559 L
132.024 98.59 L
133.76 100.406 L
135.496 100.545 L
137.232 99.138 L
138.968 100.638 L
140.704 100.524 L
142.44 101.907 L
144.176 102.59 L
145.912 102.885 L
147.648 102.752 L
149.384 103.531 L
151.12 102.439 L
152.856 106.851 L
154.592 103.226 L
156.328 99.719 L
158.064 96.121 L
159.8 95.847 L
161.536 97.481 L
163.272 94.044 L
165.008 95.673 L
166.744 96.429 L
168.48 97.501 L
170.216 97.449 L
171.952 99.208 L
173.688 100.648 L
175.424 104.214 L
177.16 103.324 L
178.896 104.045 L
180.632 106.549 L
182.368 106.912 L
184.104 108.691 L
185.84 109.995 L
187.576 112.743 L
189.312 112.654 L
191.048 111.202 L
192.784 111.287 L
194.52 112.771 L
196.256 110.328 L
197.992 107.175 L
199.728 107.186 L
201.464 108.664 L
203.2 107.183 L
204.936 106.141 L
206.672 106.59 L
208.408 109.658 L
210.144 109.196 L
211.88 111.736 L
213.616 114.675 L
215.352 112.857 L
217.088 111.141 L
218.824 112.715 L
220.56 114.611 L
222.296 116.428 L
224.032 117.943 L
225.768 118.51 L
227.504 119.679 L
229.24 121.396 L
230.976 121.259 L
232.712 120.407 L
234.448 118.57 L
236.184 120.539 L
237.92 118.236 L
239.656 116.785 L
241.392 118.048 L
243.128 114.829 L
244.864 111.879 L
246.6 110.814 L
248.336 111.815 L
250.072 114.954 L
251.808 120.814 L
253.544 120.383 L
255.28 119.811 L
257.016 124.486 L
258.752 125.08 L
260.488 130.532 L
262.224 132.731 L
263.96 135.462 L
265.696 138.137 L
267.432 143.048 L
269.168 147.085 L
270.904 148.136 L
272.64 150.598 L
274.376 157.418 L
276.112 159.152 L
277.848 161.337 L
279.454 167.013 L
S
GR
GS
[0.75 0 0 0.75 0 0] CT
0.851 0.325 0.098 RC
1 LJ
0.667 LW
N
279.694 167.013 M
281.32 160.211 L
283.056 142.206 L
284.792 110.643 L
286.528 111.795 L
288.264 112.626 L
290 113.584 L
291.736 117.947 L
293.472 128.418 L
295.208 131.024 L
296.944 129.992 L
298.68 131.529 L
300.416 131.218 L
302.152 133.149 L
303.888 130.979 L
305.624 130.453 L
307.36 132.613 L
309.096 130.851 L
310.832 131.6 L
312.568 132.321 L
314.304 132.549 L
316.04 132.827 L
317.776 131.539 L
319.512 130.429 L
321.248 130.902 L
322.984 128.93 L
324.72 124.863 L
326.456 121.467 L
328.192 117.903 L
329.928 116.778 L
331.664 113.321 L
333.4 122.048 L
335.136 127.885 L
336.872 131.492 L
338.608 132.54 L
340.344 134.183 L
342.08 134.267 L
343.816 134.713 L
345.552 128.259 L
347.288 121.029 L
349.024 113.031 L
350.76 118.068 L
352.496 118.765 L
354.232 121.955 L
355.968 121.728 L
357.704 120.512 L
359.44 113.485 L
361.176 107.935 L
362.912 101.873 L
364.648 93.934 L
366.384 93.185 L
368.12 95.636 L
369.856 90.253 L
371.592 82.236 L
373.328 74.892 L
375.064 73.993 L
376.8 75.295 L
378.536 68.643 L
380.272 49.797 L
382.008 51.729 L
383.744 49.264 L
385.48 59.361 L
387.216 64.655 L
388.952 63.585 L
390.688 67.178 L
392.424 67.754 L
394.16 69.426 L
395.896 66.572 L
397.632 69.185 L
399.368 68.55 L
401.104 66.04 L
402.84 67.857 L
404.576 74.988 L
406.312 75.371 L
408.048 71.665 L
409.784 72.835 L
411.52 72.311 L
413.256 75.825 L
414.992 78.343 L
416.728 83.666 L
418.464 87.322 L
420.2 79.589 L
421.936 82.809 L
423.672 84.634 L
425.408 86.445 L
427.144 82.881 L
428.88 79.399 L
430.616 84.187 L
432.352 92.867 L
434.088 86.848 L
435.824 85.774 L
437.56 86.55 L
439.296 84.956 L
441.032 82.842 L
442.768 83.766 L
444.504 85.84 L
446.24 87.306 L
447.976 88.096 L
449.712 79.463 L
451.448 77.073 L
453.184 78.942 L
454.92 79.237 L
456.656 85.814 L
458.392 87.033 L
460.128 90.876 L
461.864 102.999 L
463.6 102.798 L
465.336 102.394 L
467.072 108.936 L
468.808 110.077 L
470.544 117.7 L
472.28 115.529 L
474.016 105.271 L
475.752 104.891 L
477.488 104.006 L
479.224 95.93 L
480.96 93.63 L
482.696 98.295 L
484.432 99.083 L
486.168 96.978 L
487.904 101.557 L
489.64 99.607 L
491.376 94.08 L
493.112 92.136 L
494.848 91.795 L
496.584 94.869 L
498.32 96.758 L
500.056 112.191 L
501.792 106.115 L
503.528 101.236 L
505.264 103.01 L
507 100.044 L
507.043 100.114 L
S
GR
GS
[0.75 0 0 0.75 0 0] CT
1 GC
N
72 73 M
72 36 L
196 36 L
196 73 L
cp
f
GR
GS
[0.75 0 0 0.75 81.75 34.60274] CT
/Helvetica 12 F
GS
[1 0 0 1 0 0] CT
0 5 moveto 
1 -1 scale
(Measured Data) t 
GR
GR
GS
[0.75 0 0 0.75 0 0] CT
0 0.447 0.741 RC
1 LJ
0.667 LW
N
76 46.137 M
106 46.137 L
S
GR
GS
[0.75 0 0 0.75 81.75 47.14726] CT
/Helvetica 12 F
GS
[1 0 0 1 0 0] CT
0 5 moveto 
1 -1 scale
(1-step) t 
GR
GR
GS
[0.75 0 0 0.75 0 0] CT
0.851 0.325 0.098 RC
1 LJ
0.667 LW
N
76 62.863 M
106 62.863 L
S
GR
GS
[0.75 0 0 0.75 0 0] CT
0.149 GC
10.0 ML
0.667 LW
N
72 73 M
72 36 L
196 36 L
196 73 L
cp
S
GR
GS
[0.75 0 0 0.75 0 0] CT
1 GC
N
73 366 M
507 366 L
507 234 L
73 234 L
cp
f
GR
GS
[0.75 0 0 0.75 0 0] CT
0.149 GC
2 setlinecap
1 LJ
0.667 LW
N
73 366 M
507 366 L
S
GR
GS
[0.75 0 0 0.75 0 0] CT
0.149 GC
2 setlinecap
1 LJ
0.667 LW
N
73 234 M
507 234 L
S
GR
GS
[0.75 0 0 0.75 0 0] CT
0.149 GC
2 setlinecap
1 LJ
0.667 LW
N
73 366 M
73 361.66 L
S
GR
GS
[0.75 0 0 0.75 0 0] CT
0.149 GC
2 setlinecap
1 LJ
0.667 LW
N
159.8 366 M
159.8 361.66 L
S
GR
GS
[0.75 0 0 0.75 0 0] CT
0.149 GC
2 setlinecap
1 LJ
0.667 LW
N
246.6 366 M
246.6 361.66 L
S
GR
GS
[0.75 0 0 0.75 0 0] CT
0.149 GC
2 setlinecap
1 LJ
0.667 LW
N
333.4 366 M
333.4 361.66 L
S
GR
GS
[0.75 0 0 0.75 0 0] CT
0.149 GC
2 setlinecap
1 LJ
0.667 LW
N
420.2 366 M
420.2 361.66 L
S
GR
GS
[0.75 0 0 0.75 0 0] CT
0.149 GC
2 setlinecap
1 LJ
0.667 LW
N
507 366 M
507 361.66 L
S
GR
GS
[0.75 0 0 0.75 0 0] CT
0.149 GC
2 setlinecap
1 LJ
0.667 LW
N
73 234 M
73 238.34 L
S
GR
GS
[0.75 0 0 0.75 0 0] CT
0.149 GC
2 setlinecap
1 LJ
0.667 LW
N
159.8 234 M
159.8 238.34 L
S
GR
GS
[0.75 0 0 0.75 0 0] CT
0.149 GC
2 setlinecap
1 LJ
0.667 LW
N
246.6 234 M
246.6 238.34 L
S
GR
GS
[0.75 0 0 0.75 0 0] CT
0.149 GC
2 setlinecap
1 LJ
0.667 LW
N
333.4 234 M
333.4 238.34 L
S
GR
GS
[0.75 0 0 0.75 0 0] CT
0.149 GC
2 setlinecap
1 LJ
0.667 LW
N
420.2 234 M
420.2 238.34 L
S
GR
GS
[0.75 0 0 0.75 0 0] CT
0.149 GC
2 setlinecap
1 LJ
0.667 LW
N
507 234 M
507 238.34 L
S
GR
GS
[0.75 0 0 0.75 54.75 278.50001] CT
0.149 GC
/Helvetica 13.333 F
GS
[1 0 0 1 0 0] CT
-11 14 moveto 
1 -1 scale
(750) t 
GR
GR
GS
[0.75 0 0 0.75 119.85 278.50001] CT
0.149 GC
/Helvetica 13.333 F
GS
[1 0 0 1 0 0] CT
-11 14 moveto 
1 -1 scale
(800) t 
GR
GR
GS
[0.75 0 0 0.75 184.95 278.50001] CT
0.149 GC
/Helvetica 13.333 F
GS
[1 0 0 1 0 0] CT
-11 14 moveto 
1 -1 scale
(850) t 
GR
GR
GS
[0.75 0 0 0.75 250.05 278.50001] CT
0.149 GC
/Helvetica 13.333 F
GS
[1 0 0 1 0 0] CT
-11 14 moveto 
1 -1 scale
(900) t 
GR
GR
GS
[0.75 0 0 0.75 315.15001 278.50001] CT
0.149 GC
/Helvetica 13.333 F
GS
[1 0 0 1 0 0] CT
-11 14 moveto 
1 -1 scale
(950) t 
GR
GR
GS
[0.75 0 0 0.75 380.25 278.50001] CT
0.149 GC
/Helvetica 13.333 F
GS
[1 0 0 1 0 0] CT
-14.5 14 moveto 
1 -1 scale
(1000) t 
GR
GR
GS
[0.75 0 0 0.75 217.50016 292.24999] CT
0.149 GC
/Helvetica 14.667 F
GS
[1 0 0 1 0 0] CT
-13 16 moveto 
1 -1 scale
(t / h) t 
GR
GR
GS
[0.75 0 0 0.75 0 0] CT
0.149 GC
2 setlinecap
1 LJ
0.667 LW
N
73 366 M
73 234 L
S
GR
GS
[0.75 0 0 0.75 0 0] CT
0.149 GC
2 setlinecap
1 LJ
0.667 LW
N
507 366 M
507 234 L
S
GR
GS
[0.75 0 0 0.75 0 0] CT
0.149 GC
2 setlinecap
1 LJ
0.667 LW
N
73 356.341 M
77.34 356.341 L
S
GR
GS
[0.75 0 0 0.75 0 0] CT
0.149 GC
2 setlinecap
1 LJ
0.667 LW
N
73 324.146 M
77.34 324.146 L
S
GR
GS
[0.75 0 0 0.75 0 0] CT
0.149 GC
2 setlinecap
1 LJ
0.667 LW
N
73 291.951 M
77.34 291.951 L
S
GR
GS
[0.75 0 0 0.75 0 0] CT
0.149 GC
2 setlinecap
1 LJ
0.667 LW
N
73 259.756 M
77.34 259.756 L
S
GR
GS
[0.75 0 0 0.75 0 0] CT
0.149 GC
2 setlinecap
1 LJ
0.667 LW
N
507 356.341 M
502.66 356.341 L
S
GR
GS
[0.75 0 0 0.75 0 0] CT
0.149 GC
2 setlinecap
1 LJ
0.667 LW
N
507 324.146 M
502.66 324.146 L
S
GR
GS
[0.75 0 0 0.75 0 0] CT
0.149 GC
2 setlinecap
1 LJ
0.667 LW
N
507 291.951 M
502.66 291.951 L
S
GR
GS
[0.75 0 0 0.75 0 0] CT
0.149 GC
2 setlinecap
1 LJ
0.667 LW
N
507 259.756 M
502.66 259.756 L
S
GR
GS
[0.75 0 0 0.75 50.74999 267.2561] CT
0.149 GC
/Helvetica 13.333 F
GS
[1 0 0 1 0 0] CT
-12 5.5 moveto 
1 -1 scale
(-5) t 
GR
GR
GS
[0.75 0 0 0.75 50.74999 243.10975] CT
0.149 GC
/Helvetica 13.333 F
GS
[1 0 0 1 0 0] CT
-8 5.5 moveto 
1 -1 scale
(0) t 
GR
GR
GS
[0.75 0 0 0.75 50.74999 218.96342] CT
0.149 GC
/Helvetica 13.333 F
GS
[1 0 0 1 0 0] CT
-8 5.5 moveto 
1 -1 scale
(5) t 
GR
GR
GS
[0.75 0 0 0.75 50.74999 194.81708] CT
0.149 GC
/Helvetica 13.333 F
GS
[1 0 0 1 0 0] CT
-15 5.5 moveto 
1 -1 scale
(10) t 
GR
GR
GS
[0 -0.75 0.75 0 33.75 239.25] CT
0.149 GC
/Helvetica 14.667 F
GS
[1 0 0 1 0 0] CT
0 0 moveto 
1 -1 scale
(T / ) t 
GR
GR
GS
[0 -0.75 0.75 0 28.5 222.75] CT
0.149 GC
/Courier 10.667 F
GS
[1 0 0 1 0 0] CT
0 0 moveto 
1 -1 scale
(\260) t 
GR
GR
GS
[0 -0.75 0.75 0 33.75 219] CT
0.149 GC
/Helvetica 14.667 F
GS
[1 0 0 1 0 0] CT
0 0 moveto 
1 -1 scale
(C) t 
GR
GR
GS
[0.75 0 0 0.75 217.50023 173.4375] CT
/Helvetica-Bold 14.667 F
GS
[1 0 0 1 0 0] CT
-74 -4 moveto 
1 -1 scale
(Test set: Predictions) t 
GR
GR
GS
[0.75 0 0 0.75 0 0] CT
0 0.447 0.741 RC
1 LJ
0.667 LW
N
72.957 292 M
73 291.951 L
74.736 290.663 L
76.472 288.732 L
78.208 288.088 L
79.944 287.444 L
81.68 290.02 L
83.416 291.951 L
85.152 293.883 L
86.888 295.815 L
88.624 296.459 L
90.36 297.746 L
92.096 298.39 L
93.832 299.034 L
95.568 299.034 L
97.304 300.322 L
99.04 300.322 L
100.776 300.322 L
102.512 300.966 L
104.248 300.966 L
105.984 301.61 L
107.72 301.61 L
109.456 302.254 L
111.192 302.254 L
112.928 302.254 L
114.664 300.966 L
116.4 299.034 L
118.136 297.102 L
119.872 295.171 L
121.608 294.527 L
123.344 294.527 L
125.08 296.459 L
126.816 297.102 L
128.552 297.746 L
130.288 297.746 L
132.024 299.034 L
133.76 299.034 L
135.496 299.034 L
137.232 299.678 L
138.968 299.678 L
140.704 300.322 L
142.44 300.966 L
144.176 301.61 L
145.912 302.254 L
147.648 302.254 L
149.384 302.898 L
151.12 304.185 L
152.856 303.541 L
154.592 302.254 L
156.328 299.678 L
158.064 297.746 L
159.8 297.102 L
161.536 295.171 L
163.272 294.527 L
165.008 293.883 L
166.744 294.527 L
168.48 295.815 L
170.216 297.746 L
171.952 299.034 L
173.688 302.254 L
175.424 302.254 L
177.16 303.541 L
178.896 305.473 L
180.632 306.117 L
182.368 307.405 L
184.104 308.693 L
185.84 311.268 L
187.576 312.556 L
189.312 311.268 L
191.048 311.912 L
192.784 311.912 L
194.52 311.268 L
196.256 309.98 L
197.992 309.337 L
199.728 309.337 L
201.464 308.049 L
203.2 306.761 L
204.936 306.117 L
206.672 306.761 L
208.408 307.405 L
210.144 309.98 L
211.88 313.2 L
213.616 312.556 L
215.352 311.912 L
217.088 311.912 L
218.824 313.844 L
220.56 315.776 L
222.296 317.063 L
224.032 318.029 L
225.768 318.995 L
227.504 320.927 L
229.24 321.571 L
230.976 320.283 L
232.712 319.639 L
234.448 320.283 L
236.184 319.639 L
237.92 318.995 L
239.656 318.995 L
241.392 316.42 L
243.128 313.2 L
244.864 311.912 L
246.6 311.268 L
248.336 312.556 L
250.072 316.42 L
251.808 318.351 L
253.544 319.639 L
255.28 322.215 L
257.016 324.146 L
258.752 327.366 L
260.488 331.229 L
262.224 334.449 L
263.96 337.024 L
265.696 340.888 L
267.432 344.751 L
269.168 347.327 L
270.904 349.902 L
272.64 354.41 L
274.376 357.629 L
276.112 360.205 L
277.848 365.356 L
279.584 362.78 L
281.32 351.19 L
283.056 325.434 L
284.792 316.42 L
286.528 313.844 L
288.264 313.2 L
290 315.132 L
291.736 322.215 L
293.472 327.366 L
295.208 328.654 L
296.944 329.298 L
298.68 329.298 L
300.416 329.941 L
302.152 329.941 L
303.888 329.298 L
305.624 329.941 L
307.36 329.941 L
309.096 329.941 L
310.832 330.585 L
312.568 329.941 L
314.304 329.941 L
316.04 329.298 L
317.776 329.298 L
319.512 331.229 L
321.248 332.517 L
322.984 331.229 L
324.72 324.79 L
326.456 320.283 L
328.192 317.063 L
329.928 313.2 L
331.664 316.42 L
333.4 323.502 L
335.136 328.654 L
336.872 331.229 L
338.608 332.517 L
340.344 333.161 L
342.08 333.161 L
343.816 329.298 L
345.552 322.859 L
347.288 315.132 L
349.024 315.776 L
350.76 316.42 L
352.496 318.995 L
354.232 320.283 L
355.968 319.639 L
357.704 315.132 L
359.44 309.337 L
361.176 304.829 L
362.912 299.034 L
364.648 297.746 L
366.384 295.815 L
368.12 291.307 L
369.856 284.868 L
371.592 275.854 L
373.328 271.346 L
375.064 272.634 L
376.8 269.415 L
378.536 256.537 L
380.272 252.673 L
382.008 250.098 L
383.744 255.893 L
385.48 261.688 L
387.216 262.976 L
388.952 264.263 L
390.688 265.551 L
392.424 266.839 L
394.16 266.195 L
395.896 267.483 L
397.632 268.127 L
399.368 266.839 L
401.104 266.839 L
402.84 272.634 L
404.576 274.566 L
406.312 275.21 L
408.048 273.922 L
409.784 273.278 L
411.52 275.854 L
413.256 276.498 L
414.992 279.073 L
416.728 284.868 L
418.464 283.58 L
420.2 282.937 L
421.936 284.224 L
423.672 284.224 L
425.408 282.937 L
427.144 281.005 L
428.88 282.937 L
430.616 288.088 L
432.352 286.8 L
434.088 285.512 L
435.824 285.512 L
437.56 284.868 L
439.296 283.58 L
441.032 283.58 L
442.768 283.58 L
444.504 286.8 L
446.24 288.088 L
447.976 284.868 L
449.712 279.717 L
451.448 279.073 L
453.184 279.073 L
454.92 281.649 L
456.656 282.293 L
458.392 288.732 L
460.128 299.678 L
461.864 301.61 L
463.6 302.898 L
465.336 306.761 L
467.072 309.337 L
468.808 313.844 L
470.544 313.844 L
472.28 307.405 L
474.016 305.473 L
475.752 303.541 L
477.488 297.746 L
479.224 294.527 L
480.96 296.459 L
482.696 297.746 L
484.432 295.815 L
486.168 300.322 L
487.904 300.966 L
489.64 298.39 L
491.376 293.883 L
493.112 291.951 L
494.848 293.239 L
496.584 293.883 L
498.32 302.254 L
500.056 304.185 L
501.792 303.541 L
503.528 302.254 L
505.264 300.322 L
507 300.966 L
507.043 300.998 L
S
GR
GS
[0.75 0 0 0.75 0 0] CT
0.851 0.325 0.098 RC
1 LJ
0.667 LW
N
72.957 290.026 M
73 289.815 L
74.736 280.192 L
76.472 275.513 L
78.208 273.029 L
79.944 271.024 L
81.68 273.253 L
83.416 279.309 L
85.152 287.893 L
86.888 295.165 L
88.624 299.507 L
90.36 299.786 L
92.096 299.532 L
93.832 300.095 L
95.568 301.105 L
97.304 298.235 L
99.04 297.666 L
100.776 299.3 L
102.512 300.501 L
104.248 302.473 L
105.984 302.277 L
107.72 302.485 L
109.456 300.532 L
111.192 301.408 L
112.928 298.675 L
114.664 294.503 L
116.4 288.789 L
118.136 283.879 L
119.872 283.179 L
121.608 282.008 L
123.344 286.21 L
125.08 289.45 L
126.816 295.261 L
128.552 298.844 L
130.288 301.276 L
132.024 301.649 L
133.76 300.68 L
135.496 301.008 L
137.232 299.443 L
138.968 297.989 L
140.704 296.024 L
142.44 296.853 L
144.176 297.814 L
145.912 299.478 L
147.648 298.79 L
149.384 298.751 L
151.12 298.584 L
152.856 299.228 L
154.592 299.463 L
156.328 296.601 L
158.064 292.105 L
159.8 288.533 L
161.536 287.198 L
163.272 285.979 L
165.008 288.265 L
166.744 288.819 L
168.48 292.23 L
170.216 294.911 L
171.952 297.459 L
173.688 299.28 L
175.424 297.76 L
177.16 299.042 L
178.896 297.625 L
180.632 296.252 L
182.368 295.639 L
184.104 297.045 L
185.84 298.263 L
187.576 300.466 L
189.312 299.056 L
191.048 300.096 L
192.784 300.715 L
194.52 301.012 L
196.256 301.114 L
197.992 298.709 L
199.728 296.612 L
201.464 294.27 L
203.2 292.134 L
204.936 292.525 L
206.672 293.894 L
208.408 295.859 L
210.144 298.839 L
211.88 302.648 L
213.616 305.057 L
215.352 305.133 L
217.088 304.417 L
218.824 304.821 L
220.56 304.841 L
222.296 302.2 L
224.032 303.302 L
225.768 305.116 L
227.504 303.345 L
229.24 302.559 L
230.976 303.259 L
232.712 305.41 L
234.448 306.459 L
236.184 307.011 L
237.92 306.014 L
239.656 304.158 L
241.392 303.434 L
243.128 302.343 L
244.864 301.021 L
246.6 299.67 L
248.336 302.045 L
250.072 303.009 L
251.808 307.27 L
253.544 312.304 L
255.28 311.193 L
257.016 310.769 L
258.752 311.575 L
260.488 314.128 L
262.224 315.717 L
263.96 317.335 L
265.696 314.555 L
267.432 314.625 L
269.168 318.939 L
270.904 319.353 L
272.64 322.452 L
274.376 324.625 L
276.112 327.737 L
277.848 330.346 L
279.584 333.83 L
281.32 335.005 L
283.056 331.989 L
284.792 331.316 L
286.528 334.489 L
288.264 332.189 L
290 332.185 L
291.736 339.147 L
293.472 332.593 L
295.208 321.103 L
296.944 305.292 L
298.68 315.726 L
300.416 321.863 L
302.152 327.155 L
303.888 331.65 L
305.624 337.958 L
307.36 339.188 L
309.096 337.993 L
310.832 338.8 L
312.568 337.782 L
314.304 339.414 L
316.04 339.512 L
317.776 341.679 L
319.512 343.927 L
321.248 339.803 L
322.984 333.375 L
324.72 322.897 L
326.456 314.395 L
328.192 307.994 L
329.928 303.219 L
331.664 302.932 L
333.4 309.933 L
335.136 315.677 L
336.872 320.157 L
338.608 320.954 L
340.344 321.405 L
342.08 322.415 L
343.816 321.905 L
345.552 327.039 L
347.288 330.166 L
349.024 332.4 L
350.76 333.371 L
352.496 334.439 L
354.232 334.186 L
355.968 332.992 L
357.704 327.435 L
359.44 321.834 L
361.176 316.452 L
362.912 319.178 L
364.648 313.405 L
366.384 306.237 L
368.12 299.907 L
369.856 295.565 L
371.592 288.532 L
373.328 286.515 L
375.064 288.468 L
376.8 288.997 L
378.536 296.307 L
380.272 299.74 L
382.008 294.618 L
383.744 287.877 L
385.48 278.503 L
387.216 271.843 L
388.952 268.535 L
390.688 258.431 L
392.315 233.987 L
S
GR
GS
[0.75 0 0 0.75 0 0] CT
0.851 0.325 0.098 RC
1 LJ
0.667 LW
N
392.675 233.987 M
394.16 243.631 L
395.896 242.492 L
397.632 261.135 L
399.368 267.569 L
401.104 264.651 L
402.84 267.168 L
404.576 263.807 L
406.312 261.867 L
408.048 252.606 L
409.784 252.024 L
411.52 249.038 L
413.256 244.793 L
414.992 247.188 L
416.728 258.545 L
418.464 259.313 L
420.2 256.657 L
421.936 258.545 L
423.672 257.765 L
425.408 264.826 L
427.144 267.396 L
428.88 269.228 L
430.616 272.318 L
432.352 266.154 L
434.088 275.946 L
435.824 281.402 L
437.56 282.787 L
439.296 276.952 L
441.032 274.043 L
442.768 281.646 L
444.504 291.25 L
446.24 280.056 L
447.976 277.255 L
449.712 272.849 L
451.448 268.272 L
453.184 265.578 L
454.92 266.388 L
456.656 268.992 L
458.392 276.112 L
460.128 278.815 L
461.864 274.067 L
463.6 274.637 L
465.336 276.53 L
467.072 277.253 L
468.808 280.593 L
470.544 278.782 L
472.28 284.905 L
474.016 299.015 L
475.752 299.163 L
477.488 301.619 L
479.224 309.148 L
480.96 310.268 L
482.696 315.486 L
484.432 309.575 L
486.168 300.1 L
487.904 299.8 L
489.64 295.633 L
491.376 282.86 L
493.112 279.665 L
494.848 283.735 L
496.584 283.906 L
498.32 282.723 L
500.056 294.562 L
501.792 298.566 L
503.528 297.382 L
505.264 298.498 L
507 299.359 L
507.043 299.442 L
S
GR
GS
[0.75 0 0 0.75 0 0] CT
1 GC
N
73 270 M
73 233 L
197 233 L
197 270 L
cp
f
GR
GS
[0.75 0 0 0.75 82.5 182.35275] CT
/Helvetica 12 F
GS
[1 0 0 1 0 0] CT
0 5 moveto 
1 -1 scale
(Measured Data) t 
GR
GR
GS
[0.75 0 0 0.75 0 0] CT
0 0.447 0.741 RC
1 LJ
0.667 LW
N
77 243.137 M
107 243.137 L
S
GR
GS
[0.75 0 0 0.75 82.5 194.89725] CT
/Helvetica 12 F
GS
[1 0 0 1 0 0] CT
0 5 moveto 
1 -1 scale
(8-step) t 
GR
GR
GS
[0.75 0 0 0.75 0 0] CT
0.851 0.325 0.098 RC
1 LJ
0.667 LW
N
77 259.863 M
107 259.863 L
S
GR
GS
[0.75 0 0 0.75 0 0] CT
0.149 GC
10.0 ML
0.667 LW
N
73 270 M
73 233 L
197 233 L
197 270 L
cp
S
GR
%%Trailer
%%Pages: 1
%%EOF
