%!PS-Adobe-3.0 EPSF-3.0
%%Creator: (MATLAB, The Mathworks, Inc. Version 9.2.0.556344 \(R2017a\). Operating System: Linux)
%%Title: /home/oxac/Git/TSAProj/Report/Img/InputPlot.eps
%%CreationDate: 2018-01-11T20:37:45
%%Pages: (atend)
%%BoundingBox: 0 0 426 315
%%LanguageLevel: 3
%%EndComments
%%BeginProlog
%%BeginResource: procset (Apache XML Graphics Std ProcSet) 1.2 0
%%Version: 1.2 0
%%Copyright: (Copyright 2001-2003,2010 The Apache Software Foundation. License terms: http://www.apache.org/licenses/LICENSE-2.0)
/bd{bind def}bind def
/ld{load def}bd
/GR/grestore ld
/M/moveto ld
/LJ/setlinejoin ld
/C/curveto ld
/f/fill ld
/LW/setlinewidth ld
/GC/setgray ld
/t/show ld
/N/newpath ld
/CT/concat ld
/cp/closepath ld
/S/stroke ld
/L/lineto ld
/CC/setcmykcolor ld
/A/ashow ld
/GS/gsave ld
/RC/setrgbcolor ld
/RM/rmoveto ld
/ML/setmiterlimit ld
/re {4 2 roll M
1 index 0 rlineto
0 exch rlineto
neg 0 rlineto
cp } bd
/_ctm matrix def
/_tm matrix def
/BT { _ctm currentmatrix pop matrix _tm copy pop 0 0 moveto } bd
/ET { _ctm setmatrix } bd
/iTm { _ctm setmatrix _tm concat } bd
/Tm { _tm astore pop iTm 0 0 moveto } bd
/ux 0.0 def
/uy 0.0 def
/F {
  /Tp exch def
  /Tf exch def
  Tf findfont Tp scalefont setfont
  /cf Tf def  /cs Tp def
} bd
/ULS {currentpoint /uy exch def /ux exch def} bd
/ULE {
  /Tcx currentpoint pop def
  gsave
  newpath
  cf findfont cs scalefont dup
  /FontMatrix get 0 get /Ts exch def /FontInfo get dup
  /UnderlinePosition get Ts mul /To exch def
  /UnderlineThickness get Ts mul /Tt exch def
  ux uy To add moveto  Tcx uy To add lineto
  Tt setlinewidth stroke
  grestore
} bd
/OLE {
  /Tcx currentpoint pop def
  gsave
  newpath
  cf findfont cs scalefont dup
  /FontMatrix get 0 get /Ts exch def /FontInfo get dup
  /UnderlinePosition get Ts mul /To exch def
  /UnderlineThickness get Ts mul /Tt exch def
  ux uy To add cs add moveto Tcx uy To add cs add lineto
  Tt setlinewidth stroke
  grestore
} bd
/SOE {
  /Tcx currentpoint pop def
  gsave
  newpath
  cf findfont cs scalefont dup
  /FontMatrix get 0 get /Ts exch def /FontInfo get dup
  /UnderlinePosition get Ts mul /To exch def
  /UnderlineThickness get Ts mul /Tt exch def
  ux uy To add cs 10 mul 26 idiv add moveto Tcx uy To add cs 10 mul 26 idiv add lineto
  Tt setlinewidth stroke
  grestore
} bd
/QT {
/Y22 exch store
/X22 exch store
/Y21 exch store
/X21 exch store
currentpoint
/Y21 load 2 mul add 3 div exch
/X21 load 2 mul add 3 div exch
/X21 load 2 mul /X22 load add 3 div
/Y21 load 2 mul /Y22 load add 3 div
/X22 load /Y22 load curveto
} bd
/SSPD {
dup length /d exch dict def
{
/v exch def
/k exch def
currentpagedevice k known {
/cpdv currentpagedevice k get def
v cpdv ne {
/upd false def
/nullv v type /nulltype eq def
/nullcpdv cpdv type /nulltype eq def
nullv nullcpdv or
{
/upd true def
} {
/sametype v type cpdv type eq def
sametype {
v type /arraytype eq {
/vlen v length def
/cpdvlen cpdv length def
vlen cpdvlen eq {
0 1 vlen 1 sub {
/i exch def
/obj v i get def
/cpdobj cpdv i get def
obj cpdobj ne {
/upd true def
exit
} if
} for
} {
/upd true def
} ifelse
} {
v type /dicttype eq {
v {
/dv exch def
/dk exch def
/cpddv cpdv dk get def
dv cpddv ne {
/upd true def
exit
} if
} forall
} {
/upd true def
} ifelse
} ifelse
} if
} ifelse
upd true eq {
d k v put
} if
} if
} if
} forall
d length 0 gt {
d setpagedevice
} if
} bd
/RE { % /NewFontName [NewEncodingArray] /FontName RE -
  findfont dup length dict begin
  {
    1 index /FID ne
    {def} {pop pop} ifelse
  } forall
  /Encoding exch def
  /FontName 1 index def
  currentdict definefont pop
  end
} bind def
%%EndResource
%%BeginResource: procset (Apache XML Graphics EPS ProcSet) 1.0 0
%%Version: 1.0 0
%%Copyright: (Copyright 2002-2003 The Apache Software Foundation. License terms: http://www.apache.org/licenses/LICENSE-2.0)
/BeginEPSF { %def
/b4_Inc_state save def         % Save state for cleanup
/dict_count countdictstack def % Count objects on dict stack
/op_count count 1 sub def      % Count objects on operand stack
userdict begin                 % Push userdict on dict stack
/showpage { } def              % Redefine showpage, { } = null proc
0 setgray 0 setlinecap         % Prepare graphics state
1 setlinewidth 0 setlinejoin
10 setmiterlimit [ ] 0 setdash newpath
/languagelevel where           % If level not equal to 1 then
{pop languagelevel             % set strokeadjust and
1 ne                           % overprint to their defaults.
{false setstrokeadjust false setoverprint
} if
} if
} bd
/EndEPSF { %def
count op_count sub {pop} repeat            % Clean up stacks
countdictstack dict_count sub {end} repeat
b4_Inc_state restore
} bd
%%EndResource
%FOPBeginFontDict
%%IncludeResource: font Courier-Bold
%%IncludeResource: font Helvetica
%%IncludeResource: font Courier-BoldOblique
%%IncludeResource: font Courier-Oblique
%%IncludeResource: font Times-Roman
%%IncludeResource: font Helvetica-BoldOblique
%%IncludeResource: font Helvetica-Bold
%%IncludeResource: font Helvetica-Oblique
%%IncludeResource: font Times-BoldItalic
%%IncludeResource: font Courier
%%IncludeResource: font Times-Italic
%%IncludeResource: font Times-Bold
%%IncludeResource: font Symbol
%%IncludeResource: font ZapfDingbats
%FOPEndFontDict
%%BeginResource: encoding WinAnsiEncoding
/WinAnsiEncoding [
/.notdef /.notdef /.notdef /.notdef /.notdef
/.notdef /.notdef /.notdef /.notdef /.notdef
/.notdef /.notdef /.notdef /.notdef /.notdef
/.notdef /.notdef /.notdef /.notdef /.notdef
/.notdef /.notdef /.notdef /.notdef /.notdef
/.notdef /.notdef /.notdef /.notdef /.notdef
/.notdef /.notdef /space /exclam /quotedbl
/numbersign /dollar /percent /ampersand /quotesingle
/parenleft /parenright /asterisk /plus /comma
/hyphen /period /slash /zero /one
/two /three /four /five /six
/seven /eight /nine /colon /semicolon
/less /equal /greater /question /at
/A /B /C /D /E
/F /G /H /I /J
/K /L /M /N /O
/P /Q /R /S /T
/U /V /W /X /Y
/Z /bracketleft /backslash /bracketright /asciicircum
/underscore /quoteleft /a /b /c
/d /e /f /g /h
/i /j /k /l /m
/n /o /p /q /r
/s /t /u /v /w
/x /y /z /braceleft /bar
/braceright /asciitilde /bullet /Euro /bullet
/quotesinglbase /florin /quotedblbase /ellipsis /dagger
/daggerdbl /circumflex /perthousand /Scaron /guilsinglleft
/OE /bullet /Zcaron /bullet /bullet
/quoteleft /quoteright /quotedblleft /quotedblright /bullet
/endash /emdash /asciitilde /trademark /scaron
/guilsinglright /oe /bullet /zcaron /Ydieresis
/space /exclamdown /cent /sterling /currency
/yen /brokenbar /section /dieresis /copyright
/ordfeminine /guillemotleft /logicalnot /sfthyphen /registered
/macron /degree /plusminus /twosuperior /threesuperior
/acute /mu /paragraph /middot /cedilla
/onesuperior /ordmasculine /guillemotright /onequarter /onehalf
/threequarters /questiondown /Agrave /Aacute /Acircumflex
/Atilde /Adieresis /Aring /AE /Ccedilla
/Egrave /Eacute /Ecircumflex /Edieresis /Igrave
/Iacute /Icircumflex /Idieresis /Eth /Ntilde
/Ograve /Oacute /Ocircumflex /Otilde /Odieresis
/multiply /Oslash /Ugrave /Uacute /Ucircumflex
/Udieresis /Yacute /Thorn /germandbls /agrave
/aacute /acircumflex /atilde /adieresis /aring
/ae /ccedilla /egrave /eacute /ecircumflex
/edieresis /igrave /iacute /icircumflex /idieresis
/eth /ntilde /ograve /oacute /ocircumflex
/otilde /odieresis /divide /oslash /ugrave
/uacute /ucircumflex /udieresis /yacute /thorn
/ydieresis
] def
%%EndResource
%FOPBeginFontReencode
/Courier-Bold findfont
dup length dict begin
  {1 index /FID ne {def} {pop pop} ifelse} forall
  /Encoding WinAnsiEncoding def
  currentdict
end
/Courier-Bold exch definefont pop
/Helvetica findfont
dup length dict begin
  {1 index /FID ne {def} {pop pop} ifelse} forall
  /Encoding WinAnsiEncoding def
  currentdict
end
/Helvetica exch definefont pop
/Courier-BoldOblique findfont
dup length dict begin
  {1 index /FID ne {def} {pop pop} ifelse} forall
  /Encoding WinAnsiEncoding def
  currentdict
end
/Courier-BoldOblique exch definefont pop
/Courier-Oblique findfont
dup length dict begin
  {1 index /FID ne {def} {pop pop} ifelse} forall
  /Encoding WinAnsiEncoding def
  currentdict
end
/Courier-Oblique exch definefont pop
/Times-Roman findfont
dup length dict begin
  {1 index /FID ne {def} {pop pop} ifelse} forall
  /Encoding WinAnsiEncoding def
  currentdict
end
/Times-Roman exch definefont pop
/Helvetica-BoldOblique findfont
dup length dict begin
  {1 index /FID ne {def} {pop pop} ifelse} forall
  /Encoding WinAnsiEncoding def
  currentdict
end
/Helvetica-BoldOblique exch definefont pop
/Helvetica-Bold findfont
dup length dict begin
  {1 index /FID ne {def} {pop pop} ifelse} forall
  /Encoding WinAnsiEncoding def
  currentdict
end
/Helvetica-Bold exch definefont pop
/Helvetica-Oblique findfont
dup length dict begin
  {1 index /FID ne {def} {pop pop} ifelse} forall
  /Encoding WinAnsiEncoding def
  currentdict
end
/Helvetica-Oblique exch definefont pop
/Times-BoldItalic findfont
dup length dict begin
  {1 index /FID ne {def} {pop pop} ifelse} forall
  /Encoding WinAnsiEncoding def
  currentdict
end
/Times-BoldItalic exch definefont pop
/Courier findfont
dup length dict begin
  {1 index /FID ne {def} {pop pop} ifelse} forall
  /Encoding WinAnsiEncoding def
  currentdict
end
/Courier exch definefont pop
/Times-Italic findfont
dup length dict begin
  {1 index /FID ne {def} {pop pop} ifelse} forall
  /Encoding WinAnsiEncoding def
  currentdict
end
/Times-Italic exch definefont pop
/Times-Bold findfont
dup length dict begin
  {1 index /FID ne {def} {pop pop} ifelse} forall
  /Encoding WinAnsiEncoding def
  currentdict
end
/Times-Bold exch definefont pop
%FOPEndFontReencode
%%EndProlog
%%Page: 1 1
%%PageBoundingBox: 0 0 426 315
%%BeginPageSetup
[1 0 0 -1 0 315] CT
%%EndPageSetup
GS
[0.58537 0 0 0.58537 0 0.07315] CT
1 GC
N
0 0 727 538 re
f
GR
GS
[0.58537 0 0 0.58537 0 0.07315] CT
1 GC
N
0 0 727 538 re
f
GR
GS
[0.58537 0 0 0.58537 0 0.07315] CT
1 GC
N
95 133 M
658 133 L
658 52 L
95 52 L
cp
f
GR
GS
[0.58537 0 0 0.58537 0 0.07315] CT
0.149 GC
2 setlinecap
1 LJ
0.854 LW
N
95 133 M
658 133 L
S
GR
GS
[0.58537 0 0 0.58537 0 0.07315] CT
0.149 GC
2 setlinecap
1 LJ
0.854 LW
N
95 52 M
658 52 L
S
GR
GS
[0.58537 0 0 0.58537 0 0.07315] CT
0.149 GC
2 setlinecap
1 LJ
0.854 LW
N
161.728 133 M
161.728 127.37 L
S
GR
GS
[0.58537 0 0 0.58537 0 0.07315] CT
0.149 GC
2 setlinecap
1 LJ
0.854 LW
N
228.792 133 M
228.792 127.37 L
S
GR
GS
[0.58537 0 0 0.58537 0 0.07315] CT
0.149 GC
2 setlinecap
1 LJ
0.854 LW
N
295.856 133 M
295.856 127.37 L
S
GR
GS
[0.58537 0 0 0.58537 0 0.07315] CT
0.149 GC
2 setlinecap
1 LJ
0.854 LW
N
362.92 133 M
362.92 127.37 L
S
GR
GS
[0.58537 0 0 0.58537 0 0.07315] CT
0.149 GC
2 setlinecap
1 LJ
0.854 LW
N
429.983 133 M
429.983 127.37 L
S
GR
GS
[0.58537 0 0 0.58537 0 0.07315] CT
0.149 GC
2 setlinecap
1 LJ
0.854 LW
N
497.047 133 M
497.047 127.37 L
S
GR
GS
[0.58537 0 0 0.58537 0 0.07315] CT
0.149 GC
2 setlinecap
1 LJ
0.854 LW
N
564.111 133 M
564.111 127.37 L
S
GR
GS
[0.58537 0 0 0.58537 0 0.07315] CT
0.149 GC
2 setlinecap
1 LJ
0.854 LW
N
631.174 133 M
631.174 127.37 L
S
GR
GS
[0.58537 0 0 0.58537 0 0.07315] CT
0.149 GC
2 setlinecap
1 LJ
0.854 LW
N
161.728 52 M
161.728 57.63 L
S
GR
GS
[0.58537 0 0 0.58537 0 0.07315] CT
0.149 GC
2 setlinecap
1 LJ
0.854 LW
N
228.792 52 M
228.792 57.63 L
S
GR
GS
[0.58537 0 0 0.58537 0 0.07315] CT
0.149 GC
2 setlinecap
1 LJ
0.854 LW
N
295.856 52 M
295.856 57.63 L
S
GR
GS
[0.58537 0 0 0.58537 0 0.07315] CT
0.149 GC
2 setlinecap
1 LJ
0.854 LW
N
362.92 52 M
362.92 57.63 L
S
GR
GS
[0.58537 0 0 0.58537 0 0.07315] CT
0.149 GC
2 setlinecap
1 LJ
0.854 LW
N
429.983 52 M
429.983 57.63 L
S
GR
GS
[0.58537 0 0 0.58537 0 0.07315] CT
0.149 GC
2 setlinecap
1 LJ
0.854 LW
N
497.047 52 M
497.047 57.63 L
S
GR
GS
[0.58537 0 0 0.58537 0 0.07315] CT
0.149 GC
2 setlinecap
1 LJ
0.854 LW
N
564.111 52 M
564.111 57.63 L
S
GR
GS
[0.58537 0 0 0.58537 0 0.07315] CT
0.149 GC
2 setlinecap
1 LJ
0.854 LW
N
631.174 52 M
631.174 57.63 L
S
GR
GS
[0.58537 0 0 0.58537 94.67029 81.92681] CT
0.149 GC
/Helvetica 17.083 F
GS
[1 0 0 1 0 0] CT
-16.5 16 moveto 
1 -1 scale
(200) t 
GR
GR
GS
[0.58537 0 0 0.58537 133.92711 81.92681] CT
0.149 GC
/Helvetica 17.083 F
GS
[1 0 0 1 0 0] CT
-16.5 16 moveto 
1 -1 scale
(400) t 
GR
GR
GS
[0.58537 0 0 0.58537 173.18392 81.92681] CT
0.149 GC
/Helvetica 17.083 F
GS
[1 0 0 1 0 0] CT
-16.5 16 moveto 
1 -1 scale
(600) t 
GR
GR
GS
[0.58537 0 0 0.58537 212.44073 81.92681] CT
0.149 GC
/Helvetica 17.083 F
GS
[1 0 0 1 0 0] CT
-16.5 16 moveto 
1 -1 scale
(800) t 
GR
GR
GS
[0.58537 0 0 0.58537 251.69756 81.92681] CT
0.149 GC
/Helvetica 17.083 F
GS
[1 0 0 1 0 0] CT
-22 16 moveto 
1 -1 scale
(1000) t 
GR
GR
GS
[0.58537 0 0 0.58537 290.95437 81.92681] CT
0.149 GC
/Helvetica 17.083 F
GS
[1 0 0 1 0 0] CT
-22 16 moveto 
1 -1 scale
(1200) t 
GR
GR
GS
[0.58537 0 0 0.58537 330.21119 81.92681] CT
0.149 GC
/Helvetica 17.083 F
GS
[1 0 0 1 0 0] CT
-22 16 moveto 
1 -1 scale
(1400) t 
GR
GR
GS
[0.58537 0 0 0.58537 369.468 81.92681] CT
0.149 GC
/Helvetica 17.083 F
GS
[1 0 0 1 0 0] CT
-22 16 moveto 
1 -1 scale
(1600) t 
GR
GR
GS
[0.58537 0 0 0.58537 220.3904 95.2195] CT
0.149 GC
/Helvetica 18.792 F
GS
[1 0 0 1 0 0] CT
-19 18 moveto 
1 -1 scale
(t / h) t 
GR
GR
GS
[0.58537 0 0 0.58537 0 0.07315] CT
0.149 GC
2 setlinecap
1 LJ
0.854 LW
N
95 133 M
95 52 L
S
GR
GS
[0.58537 0 0 0.58537 0 0.07315] CT
0.149 GC
2 setlinecap
1 LJ
0.854 LW
N
658 133 M
658 52 L
S
GR
GS
[0.58537 0 0 0.58537 0 0.07315] CT
0.149 GC
2 setlinecap
1 LJ
0.854 LW
N
95 112.097 M
100.63 112.097 L
S
GR
GS
[0.58537 0 0 0.58537 0 0.07315] CT
0.149 GC
2 setlinecap
1 LJ
0.854 LW
N
95 85.968 M
100.63 85.968 L
S
GR
GS
[0.58537 0 0 0.58537 0 0.07315] CT
0.149 GC
2 setlinecap
1 LJ
0.854 LW
N
95 59.839 M
100.63 59.839 L
S
GR
GS
[0.58537 0 0 0.58537 0 0.07315] CT
0.149 GC
2 setlinecap
1 LJ
0.854 LW
N
658 112.097 M
652.37 112.097 L
S
GR
GS
[0.58537 0 0 0.58537 0 0.07315] CT
0.149 GC
2 setlinecap
1 LJ
0.854 LW
N
658 85.968 M
652.37 85.968 L
S
GR
GS
[0.58537 0 0 0.58537 0 0.07315] CT
0.149 GC
2 setlinecap
1 LJ
0.854 LW
N
658 59.839 M
652.37 59.839 L
S
GR
GS
[0.58537 0 0 0.58537 51.60975 65.69078] CT
0.149 GC
/Helvetica 17.083 F
GS
[1 0 0 1 0 0] CT
-11 5.5 moveto 
1 -1 scale
(0) t 
GR
GR
GS
[0.58537 0 0 0.58537 51.60975 50.39574] CT
0.149 GC
/Helvetica 17.083 F
GS
[1 0 0 1 0 0] CT
-22 5.5 moveto 
1 -1 scale
(10) t 
GR
GR
GS
[0.58537 0 0 0.58537 51.60975 35.10069] CT
0.149 GC
/Helvetica 17.083 F
GS
[1 0 0 1 0 0] CT
-22 5.5 moveto 
1 -1 scale
(20) t 
GR
GR
GS
[0 -0.58537 0.58537 0 32.78049 69.73169] CT
0.149 GC
/Helvetica 18.792 F
GS
[1 0 0 1 0 0] CT
0 0 moveto 
1 -1 scale
(T / ) t 
GR
GR
GS
[0 -0.58537 0.58537 0 27.5122 51.58535] CT
0.149 GC
/Courier 15.033 F
GS
[1 0 0 1 0 0] CT
0 0 moveto 
1 -1 scale
(\260) t 
GR
GR
GS
[0 -0.58537 0.58537 0 32.78049 46.90242] CT
0.149 GC
/Helvetica 18.792 F
GS
[1 0 0 1 0 0] CT
0 0 moveto 
1 -1 scale
(C) t 
GR
GR
GS
[0.58537 0 0 0.58537 220.39046 28.90242] CT
/Helvetica-Bold 18.792 F
GS
[1 0 0 1 0 0] CT
-109.5 -5 moveto 
1 -1 scale
(Modelling set: V\344xj\366) t 
GR
GR
GS
[0.58537 0 0 0.58537 0 0.07315] CT
0 0.447 0.741 RC
1 LJ
0.854 LW
N
95 109.484 M
95.335 109.484 L
95.671 109.484 L
96.006 109.484 L
96.341 109.484 L
96.677 109.484 L
97.012 109.484 L
97.347 109.484 L
97.683 108.7 L
98.018 107.655 L
98.353 106.871 L
98.689 104.258 L
99.024 101.645 L
99.359 99.032 L
99.694 99.032 L
100.03 99.032 L
100.365 99.032 L
100.7 99.816 L
101.036 100.861 L
101.371 101.645 L
101.706 103.474 L
102.042 105.042 L
102.377 106.871 L
102.712 106.871 L
103.048 106.871 L
103.383 106.871 L
103.718 107.655 L
104.054 108.7 L
104.389 109.484 L
104.724 109.484 L
105.06 109.484 L
105.395 109.484 L
105.73 108.7 L
106.066 107.655 L
106.401 106.871 L
106.736 106.087 L
107.071 105.042 L
107.407 104.258 L
107.742 103.474 L
108.077 102.429 L
108.413 101.645 L
108.748 101.645 L
109.083 101.645 L
109.419 101.645 L
109.754 101.645 L
110.089 101.645 L
110.425 101.645 L
110.76 100.861 L
111.095 99.816 L
111.431 99.032 L
111.766 99.816 L
112.101 100.861 L
112.437 101.645 L
112.772 102.429 L
113.107 103.474 L
113.443 104.258 L
113.778 104.258 L
114.113 104.258 L
114.448 104.258 L
114.784 103.474 L
115.119 102.429 L
115.454 101.645 L
115.79 101.645 L
116.125 101.645 L
116.46 101.645 L
116.796 102.429 L
117.131 103.474 L
117.466 104.258 L
117.802 104.258 L
118.137 104.258 L
118.472 104.258 L
118.808 104.258 L
119.143 104.258 L
119.478 104.258 L
119.814 104.258 L
120.149 104.258 L
120.484 104.258 L
120.82 104.258 L
121.155 104.258 L
121.49 104.258 L
121.825 104.258 L
122.161 104.258 L
122.496 104.258 L
122.831 104.258 L
123.167 104.258 L
123.502 104.258 L
123.837 104.258 L
124.173 104.258 L
124.508 104.258 L
124.843 105.042 L
125.179 106.087 L
125.514 106.871 L
125.849 107.655 L
126.185 108.7 L
126.52 109.484 L
126.855 110.268 L
127.191 111.313 L
127.526 112.097 L
127.861 112.881 L
128.197 113.926 L
128.532 114.71 L
128.867 114.71 L
129.202 114.71 L
129.538 114.71 L
129.873 109.484 L
130.208 104.258 L
130.544 99.032 L
130.879 99.816 L
131.214 100.861 L
131.55 101.645 L
131.885 99.816 L
132.22 98.248 L
132.556 96.419 L
132.891 98.248 L
133.226 99.816 L
133.562 101.645 L
133.897 102.429 L
134.232 103.474 L
134.568 104.258 L
134.903 105.042 L
135.238 106.087 L
135.574 106.871 L
135.909 106.871 L
136.244 106.871 L
136.58 106.871 L
136.915 106.871 L
137.25 106.871 L
137.585 106.871 L
137.921 106.871 L
138.256 106.871 L
138.591 106.871 L
138.927 107.655 L
139.262 108.7 L
139.597 109.484 L
139.933 108.7 L
140.268 107.655 L
140.603 106.871 L
140.939 107.655 L
141.274 108.7 L
141.609 109.484 L
141.945 109.484 L
142.28 109.484 L
142.615 109.484 L
142.951 108.7 L
143.286 107.655 L
143.621 106.871 L
143.957 106.871 L
144.292 106.871 L
144.627 106.871 L
144.962 106.871 L
145.298 106.871 L
145.633 106.871 L
145.968 106.087 L
146.304 105.042 L
146.639 104.258 L
146.974 106.087 L
147.31 107.655 L
147.645 109.484 L
147.98 109.484 L
148.316 109.484 L
148.651 109.484 L
148.986 109.484 L
149.322 109.484 L
149.657 109.484 L
149.992 109.484 L
150.328 109.484 L
150.663 109.484 L
150.998 109.484 L
151.334 109.484 L
151.669 109.484 L
152.004 109.484 L
152.339 109.484 L
152.675 109.484 L
153.01 110.268 L
153.345 111.313 L
153.681 112.097 L
154.016 111.313 L
154.351 110.268 L
154.687 109.484 L
155.022 107.655 L
155.357 106.087 L
155.693 104.258 L
156.028 105.042 L
156.363 106.087 L
156.699 106.871 L
157.034 106.871 L
157.369 106.871 L
157.705 106.871 L
158.04 107.655 L
158.375 108.7 L
158.711 109.484 L
159.046 110.268 L
159.381 111.313 L
159.716 112.097 L
160.052 112.097 L
160.387 112.097 L
160.722 112.097 L
161.058 112.097 L
161.393 112.097 L
161.728 112.097 L
162.064 111.313 L
162.399 110.268 L
162.734 109.484 L
163.07 106.871 L
163.405 104.258 L
163.74 101.645 L
164.076 102.429 L
164.411 103.474 L
164.746 104.258 L
165.082 105.042 L
165.417 106.087 L
165.752 106.871 L
166.088 107.655 L
166.423 108.7 L
166.758 109.484 L
167.094 109.484 L
167.429 109.484 L
167.764 109.484 L
168.099 110.268 L
168.435 111.313 L
168.77 112.097 L
169.105 111.313 L
169.441 110.268 L
169.776 109.484 L
170.111 107.655 L
170.447 106.087 L
170.782 104.258 L
171.117 104.258 L
171.453 104.258 L
171.788 104.258 L
172.123 104.258 L
172.459 104.258 L
172.794 104.258 L
173.129 105.042 L
173.465 106.087 L
173.8 106.871 L
174.135 109.484 L
174.471 112.097 L
174.806 114.71 L
175.141 115.494 L
175.476 116.539 L
175.812 117.323 L
176.147 117.323 L
176.482 117.323 L
176.818 117.323 L
177.153 117.323 L
177.488 117.323 L
177.824 117.323 L
178.159 114.71 L
178.494 112.097 L
178.83 109.484 L
179.165 108.7 L
179.5 107.655 L
179.836 106.871 L
180.171 106.087 L
180.506 105.042 L
180.842 104.258 L
181.177 106.087 L
181.512 107.655 L
181.848 109.484 L
182.183 111.313 L
182.518 112.881 L
182.853 114.71 L
183.189 115.494 L
183.524 116.539 L
183.859 117.323 L
184.195 117.323 L
184.53 117.323 L
184.865 117.323 L
185.201 118.106 L
185.536 119.152 L
185.871 119.935 L
186.207 117.323 L
186.542 114.71 L
186.877 112.097 L
187.213 111.313 L
187.548 110.268 L
187.883 109.484 L
188.219 109.484 L
188.554 109.484 L
188.889 109.484 L
189.225 110.268 L
189.56 111.313 L
189.895 112.097 L
190.23 112.881 L
190.566 113.926 L
190.901 114.71 L
191.236 115.494 L
191.572 116.539 L
191.907 117.323 L
192.242 117.323 L
192.578 117.323 L
192.913 117.323 L
193.248 119.152 L
193.584 120.719 L
193.919 122.548 L
194.254 119.152 L
194.59 115.494 L
194.925 112.097 L
195.26 111.313 L
195.596 110.268 L
195.931 109.484 L
196.266 109.484 L
196.602 109.484 L
196.937 109.484 L
197.272 110.268 L
197.607 111.313 L
197.943 112.097 L
198.278 113.926 L
198.613 115.494 L
198.949 117.323 L
199.284 118.106 L
199.619 119.152 L
199.955 119.935 L
200.29 121.765 L
200.625 123.332 L
200.961 125.161 L
201.296 125.161 L
201.631 125.161 L
201.967 125.161 L
202.302 121.765 L
202.637 118.106 L
202.973 114.71 L
203.308 111.313 L
203.643 107.655 L
203.979 104.258 L
204.314 104.258 L
204.649 104.258 L
204.985 104.258 L
205.32 106.871 L
205.655 109.484 L
205.99 112.097 L
206.326 113.926 L
206.661 115.494 L
206.996 117.323 L
207.332 118.106 L
207.667 119.152 L
208.002 119.935 L
208.338 121.765 L
208.673 123.332 L
209.008 125.161 L
209.344 125.161 L
209.679 125.161 L
210.014 125.161 L
210.35 121.765 L
210.685 118.106 L
211.02 114.71 L
211.356 112.097 L
211.691 109.484 L
212.026 106.871 L
212.362 108.7 L
212.697 110.268 L
213.032 112.097 L
213.367 114.71 L
213.703 117.323 L
214.038 119.935 L
214.373 120.719 L
214.709 121.765 L
215.044 122.548 L
215.379 124.377 L
215.715 125.945 L
216.05 127.774 L
216.385 128.558 L
216.721 129.603 L
217.056 130.387 L
217.391 131.171 L
217.727 132.216 L
218.062 133 L
218.397 126.99 L
218.733 120.719 L
219.068 114.71 L
219.403 112.881 L
219.739 111.313 L
220.074 109.484 L
220.409 110.268 L
220.744 111.313 L
221.08 112.097 L
221.415 111.313 L
221.75 110.268 L
222.086 109.484 L
222.421 109.484 L
222.756 109.484 L
223.092 109.484 L
223.427 109.484 L
223.762 109.484 L
224.098 109.484 L
224.433 108.7 L
224.768 107.655 L
225.104 106.871 L
225.439 106.087 L
225.774 105.042 L
226.11 104.258 L
226.445 103.474 L
226.78 102.429 L
227.116 101.645 L
227.451 101.645 L
227.786 101.645 L
228.122 101.645 L
228.457 100.861 L
228.792 99.816 L
229.127 99.032 L
229.463 98.248 L
229.798 97.203 L
230.133 96.419 L
230.469 97.203 L
230.804 98.248 L
231.139 99.032 L
231.475 101.645 L
231.81 104.258 L
232.145 106.871 L
232.481 106.871 L
232.816 106.871 L
233.151 106.871 L
233.487 106.087 L
233.822 105.042 L
234.157 104.258 L
234.493 103.474 L
234.828 102.429 L
235.163 101.645 L
235.499 101.645 L
235.834 101.645 L
236.169 101.645 L
236.504 101.645 L
236.84 101.645 L
237.175 101.645 L
237.51 102.429 L
237.846 103.474 L
238.181 104.258 L
238.516 105.042 L
238.852 106.087 L
239.187 106.871 L
239.522 107.655 L
239.858 108.7 L
240.193 109.484 L
240.528 109.484 L
240.864 109.484 L
241.199 109.484 L
241.534 108.7 L
241.87 107.655 L
242.205 106.871 L
242.54 106.087 L
242.876 105.042 L
243.211 104.258 L
243.546 103.474 L
243.881 102.429 L
244.217 101.645 L
244.552 101.645 L
244.887 101.645 L
245.223 101.645 L
245.558 102.429 L
245.893 103.474 L
246.229 104.258 L
246.564 105.042 L
246.899 106.087 L
247.235 106.871 L
247.57 107.655 L
247.905 108.7 L
248.241 109.484 L
248.576 109.484 L
248.911 109.484 L
249.247 109.484 L
249.582 110.268 L
249.917 111.313 L
250.253 112.097 L
250.588 110.268 L
250.923 108.7 L
251.258 106.871 L
251.594 106.087 L
251.929 105.042 L
252.264 104.258 L
252.6 105.042 L
252.935 106.087 L
253.27 106.871 L
253.606 109.484 L
253.941 112.097 L
254.276 114.71 L
254.612 115.494 L
254.947 116.539 L
255.282 117.323 L
255.618 119.152 L
255.953 120.719 L
256.288 122.548 L
256.624 122.548 L
256.959 122.548 L
257.294 122.548 L
257.63 122.548 L
257.965 122.548 L
258.3 122.548 L
258.635 119.152 L
258.971 115.494 L
259.306 112.097 L
259.641 107.655 L
259.977 103.474 L
260.312 99.032 L
260.647 96.419 L
260.983 102.429 L
261.318 104.258 L
261.653 104.258 L
261.989 111.313 L
262.324 114.71 L
262.659 109.484 L
262.995 118.106 L
263.33 119.935 L
263.665 114.71 L
264.001 121.765 L
264.336 122.548 L
264.671 119.935 L
265.007 124.377 L
265.342 125.161 L
265.677 122.548 L
266.013 123.855 L
266.348 125.161 L
266.683 125.161 L
267.018 119.935 L
267.354 114.71 L
267.689 109.484 L
268.024 104.258 L
268.36 99.032 L
268.695 93.806 L
269.03 95.635 L
269.366 97.203 L
269.701 99.032 L
270.036 100.861 L
270.372 102.429 L
270.707 104.258 L
271.042 104.258 L
271.378 104.258 L
271.713 104.258 L
272.048 104.258 L
272.384 104.258 L
272.719 104.258 L
273.054 105.042 L
273.39 106.087 L
273.725 106.871 L
274.06 106.871 L
274.395 106.871 L
274.731 106.871 L
275.066 105.042 L
275.401 103.474 L
275.737 101.645 L
276.072 100.861 L
276.407 99.816 L
276.743 99.032 L
277.078 99.032 L
277.413 99.032 L
277.749 99.032 L
278.084 99.816 L
278.419 100.861 L
278.755 101.645 L
279.09 102.429 L
279.425 103.474 L
279.761 104.258 L
280.096 104.258 L
280.431 104.258 L
280.767 104.258 L
281.102 105.042 L
281.437 106.087 L
281.772 106.871 L
282.108 106.871 L
282.443 106.871 L
282.778 106.871 L
283.114 105.042 L
283.449 103.474 L
283.784 101.645 L
284.12 99.032 L
284.455 96.419 L
284.79 93.806 L
285.126 94.59 L
285.461 95.635 L
285.796 96.419 L
286.132 98.248 L
286.467 99.816 L
286.802 101.645 L
287.138 102.429 L
287.473 103.474 L
287.808 104.258 L
288.144 105.042 L
288.479 106.087 L
288.814 106.871 L
289.15 106.871 L
289.485 106.871 L
289.82 106.871 L
290.155 105.042 L
290.491 103.474 L
290.826 101.645 L
291.161 98.248 L
291.497 94.59 L
291.832 91.194 L
292.167 90.41 L
292.503 89.365 L
292.838 88.581 L
293.173 89.365 L
293.509 90.41 L
293.844 91.194 L
294.179 91.977 L
294.515 93.023 L
294.85 93.806 L
295.185 95.635 L
295.521 97.203 L
295.856 99.032 L
296.191 100.861 L
296.526 102.429 L
296.862 104.258 L
297.197 105.042 L
297.532 106.087 L
297.868 106.871 L
298.203 106.087 L
298.538 105.042 L
298.874 104.258 L
299.209 101.645 L
299.544 99.032 L
299.88 96.419 L
300.215 93.806 L
300.55 91.194 L
300.886 88.581 L
301.221 91.977 L
301.556 95.635 L
301.892 99.032 L
302.227 99.032 L
302.562 99.032 L
302.898 99.032 L
303.233 99.816 L
303.568 100.861 L
303.904 101.645 L
304.239 102.429 L
304.574 103.474 L
304.909 104.258 L
305.245 105.042 L
305.58 106.087 L
305.915 106.871 L
306.251 106.087 L
306.586 105.042 L
306.921 104.258 L
307.257 102.429 L
307.592 100.861 L
307.927 99.032 L
308.263 96.419 L
308.598 93.806 L
308.933 91.194 L
309.269 91.977 L
309.604 93.023 L
309.939 93.806 L
310.275 94.59 L
310.61 95.635 L
310.945 96.419 L
311.281 98.248 L
311.616 99.816 L
311.951 101.645 L
312.286 103.474 L
312.622 105.042 L
312.957 106.871 L
313.292 107.655 L
313.628 108.7 L
313.963 109.484 L
314.298 109.484 L
314.634 109.484 L
314.969 109.484 L
315.304 105.042 L
315.64 100.861 L
315.975 96.419 L
316.31 95.635 L
316.646 94.59 L
316.981 93.806 L
317.316 94.59 L
317.652 95.635 L
317.987 96.419 L
318.322 98.248 L
318.658 99.816 L
318.993 101.645 L
319.328 103.474 L
319.663 105.042 L
319.999 106.871 L
320.334 109.484 L
320.669 112.097 L
321.005 114.71 L
321.34 114.71 L
321.675 114.71 L
322.011 114.71 L
322.346 112.881 L
322.681 111.313 L
323.017 109.484 L
323.352 106.087 L
323.687 102.429 L
324.023 99.032 L
324.358 95.635 L
324.693 91.977 L
325.029 88.581 L
325.364 91.194 L
325.699 93.806 L
326.035 96.419 L
326.37 99.032 L
326.705 101.645 L
327.04 104.258 L
327.376 105.042 L
327.711 106.087 L
328.046 106.871 L
328.382 106.871 L
328.717 106.871 L
329.052 106.871 L
329.388 106.871 L
329.723 106.871 L
330.058 106.871 L
330.394 106.871 L
330.729 106.871 L
331.064 106.871 L
331.4 104.258 L
331.735 101.645 L
332.07 99.032 L
332.406 97.203 L
332.741 95.635 L
333.076 93.806 L
333.412 95.635 L
333.747 97.203 L
334.082 99.032 L
334.418 100.861 L
334.753 102.429 L
335.088 104.258 L
335.423 105.042 L
335.759 106.087 L
336.094 106.871 L
336.429 106.871 L
336.765 106.871 L
337.1 106.871 L
337.435 107.655 L
337.771 108.7 L
338.106 109.484 L
338.441 109.484 L
338.777 109.484 L
339.112 109.484 L
339.447 107.655 L
339.783 106.087 L
340.118 104.258 L
340.453 100.861 L
340.789 97.203 L
341.124 93.806 L
341.459 95.635 L
341.795 97.203 L
342.13 99.032 L
342.465 100.861 L
342.8 102.429 L
343.136 104.258 L
343.471 105.042 L
343.806 106.087 L
344.142 106.871 L
344.477 107.655 L
344.812 108.7 L
345.148 109.484 L
345.483 110.268 L
345.818 111.313 L
346.154 112.097 L
346.489 112.097 L
346.824 112.097 L
347.16 112.097 L
347.495 107.655 L
347.83 103.474 L
348.166 99.032 L
348.501 95.635 L
348.836 91.977 L
349.172 88.581 L
349.507 90.41 L
349.842 91.977 L
350.177 93.806 L
350.513 96.419 L
350.848 99.032 L
351.183 101.645 L
351.519 103.474 L
351.854 105.042 L
352.189 106.871 L
352.525 109.484 L
352.86 112.097 L
353.195 114.71 L
353.531 117.323 L
353.866 119.935 L
354.201 122.548 L
354.537 120.719 L
354.872 119.152 L
355.207 117.323 L
355.543 111.313 L
355.878 105.042 L
356.213 99.032 L
356.549 95.635 L
356.884 91.977 L
357.219 88.581 L
357.555 90.41 L
357.89 91.977 L
358.225 93.806 L
358.56 95.635 L
358.896 97.203 L
359.231 99.032 L
359.566 101.645 L
359.902 104.258 L
360.237 106.871 L
360.572 109.484 L
360.908 112.097 L
361.243 114.71 L
361.578 114.71 L
361.914 114.71 L
362.249 114.71 L
362.584 112.881 L
362.92 111.313 L
363.255 109.484 L
363.59 106.087 L
363.926 102.429 L
364.261 99.032 L
364.596 93.806 L
364.932 88.581 L
365.267 83.355 L
365.602 85.968 L
365.937 88.581 L
366.273 91.194 L
366.608 93.023 L
366.943 94.59 L
367.279 96.419 L
367.614 97.203 L
367.949 98.248 L
368.285 99.032 L
368.62 100.861 L
368.955 102.429 L
369.291 104.258 L
369.626 105.042 L
369.961 106.087 L
370.297 106.871 L
370.632 106.871 L
370.967 106.871 L
371.303 106.871 L
371.638 103.474 L
371.973 99.816 L
372.309 96.419 L
372.644 93.023 L
372.979 89.365 L
373.314 85.968 L
373.65 88.581 L
373.985 91.194 L
374.32 93.806 L
374.656 94.59 L
374.991 95.635 L
375.326 96.419 L
375.662 97.203 L
375.997 98.248 L
376.332 99.032 L
376.668 102.429 L
377.003 106.087 L
377.338 109.484 L
377.674 110.268 L
378.009 111.313 L
378.344 112.097 L
378.68 110.268 L
379.015 108.7 L
379.35 106.871 L
379.686 102.429 L
380.021 98.248 L
380.356 93.806 L
380.691 90.41 L
381.027 86.752 L
381.362 83.355 L
381.697 85.184 L
382.033 86.752 L
382.368 88.581 L
382.703 90.41 L
383.039 91.977 L
383.374 93.806 L
383.709 97.203 L
384.045 100.861 L
384.38 104.258 L
384.715 106.871 L
385.051 109.484 L
385.386 112.097 L
385.721 112.881 L
386.057 113.926 L
386.392 114.71 L
386.727 112.097 L
387.063 109.484 L
387.398 106.871 L
387.733 101.645 L
388.068 96.419 L
388.404 91.194 L
388.739 85.968 L
389.074 80.742 L
389.41 75.516 L
389.745 78.129 L
390.08 80.742 L
390.416 83.355 L
390.751 85.968 L
391.086 88.581 L
391.422 91.194 L
391.757 93.806 L
392.092 96.419 L
392.428 99.032 L
392.763 100.861 L
393.098 102.429 L
393.434 104.258 L
393.769 105.042 L
394.104 106.087 L
394.44 106.871 L
394.775 106.871 L
395.11 106.871 L
395.445 106.871 L
395.781 101.645 L
396.116 96.419 L
396.451 91.194 L
396.787 89.365 L
397.122 87.797 L
397.457 85.968 L
397.793 86.752 L
398.128 87.797 L
398.463 88.581 L
398.799 89.365 L
399.134 90.41 L
399.469 91.194 L
399.805 91.977 L
400.14 93.023 L
400.475 93.806 L
400.811 94.59 L
401.146 95.635 L
401.481 96.419 L
401.817 97.203 L
402.152 98.248 L
402.487 99.032 L
402.823 99.816 L
403.158 100.861 L
403.493 101.645 L
403.828 99.032 L
404.164 96.419 L
404.499 93.806 L
404.834 91.194 L
405.17 88.581 L
405.505 85.968 L
405.84 87.797 L
406.176 89.365 L
406.511 91.194 L
406.846 91.977 L
407.182 93.023 L
407.517 93.806 L
407.852 94.59 L
408.188 95.635 L
408.523 96.419 L
408.858 97.203 L
409.194 98.248 L
409.529 99.032 L
409.864 99.816 L
410.2 100.861 L
410.535 101.645 L
410.87 100.861 L
411.205 99.816 L
411.541 99.032 L
411.876 97.203 L
412.211 95.635 L
412.547 93.806 L
412.882 93.023 L
413.217 91.977 L
413.553 91.194 L
413.888 91.977 L
414.223 93.023 L
414.559 93.806 L
414.894 94.59 L
415.229 95.635 L
415.565 96.419 L
415.9 99.816 L
416.235 103.474 L
416.571 106.871 L
416.906 109.484 L
417.241 112.097 L
417.577 114.71 L
417.912 115.494 L
418.247 116.539 L
418.582 117.323 L
418.918 113.926 L
419.253 110.268 L
419.588 106.871 L
419.924 102.429 L
420.259 98.248 L
420.594 93.806 L
420.93 88.581 L
421.265 83.355 L
421.6 78.129 L
421.936 79.958 L
422.271 81.526 L
422.606 83.355 L
422.942 86.752 L
423.277 90.41 L
423.612 93.806 L
423.948 95.635 L
424.283 97.203 L
424.618 99.032 L
424.954 101.645 L
425.289 104.258 L
425.624 106.871 L
425.96 106.871 L
426.295 106.871 L
426.63 106.871 L
426.965 106.087 L
427.301 105.042 L
427.636 104.258 L
427.971 102.429 L
428.307 100.861 L
428.642 99.032 L
428.977 96.419 L
429.313 93.806 L
429.648 91.194 L
429.983 91.194 L
430.319 91.194 L
430.654 91.194 L
430.989 93.023 L
431.325 94.59 L
431.66 96.419 L
431.995 99.032 L
432.331 101.645 L
432.666 104.258 L
433.001 107.655 L
433.337 111.313 L
433.672 114.71 L
434.007 116.539 L
434.342 118.106 L
434.678 119.935 L
435.013 119.935 L
435.348 119.935 L
435.684 119.935 L
436.019 113.926 L
436.354 107.655 L
436.69 101.645 L
437.025 98.248 L
437.36 94.59 L
437.696 91.194 L
438.031 93.023 L
438.366 94.59 L
438.702 96.419 L
439.037 98.248 L
439.372 99.816 L
439.708 101.645 L
440.043 104.258 L
440.378 106.871 L
440.714 109.484 L
441.049 111.313 L
441.384 112.881 L
441.719 114.71 L
442.055 116.539 L
442.39 118.106 L
442.725 119.935 L
443.061 117.323 L
443.396 114.71 L
443.731 112.097 L
444.067 108.7 L
444.402 105.042 L
444.737 101.645 L
445.073 97.203 L
445.408 93.023 L
445.743 88.581 L
446.079 88.581 L
446.414 88.581 L
446.749 88.581 L
447.085 90.41 L
447.42 91.977 L
447.755 93.806 L
448.091 96.419 L
448.426 99.032 L
448.761 101.645 L
449.096 104.258 L
449.432 106.871 L
449.767 109.484 L
450.102 110.268 L
450.438 111.313 L
450.773 112.097 L
451.108 110.268 L
451.444 108.7 L
451.779 106.871 L
452.114 104.258 L
452.45 101.645 L
452.785 99.032 L
453.12 95.635 L
453.456 91.977 L
453.791 88.581 L
454.126 89.365 L
454.462 90.41 L
454.797 91.194 L
455.132 91.977 L
455.468 93.023 L
455.803 93.806 L
456.138 96.419 L
456.474 99.032 L
456.809 101.645 L
457.144 104.258 L
457.479 106.871 L
457.815 109.484 L
458.15 110.268 L
458.485 111.313 L
458.821 112.097 L
459.156 108.7 L
459.491 105.042 L
459.827 101.645 L
460.162 99.032 L
460.497 96.419 L
460.833 93.806 L
461.168 88.581 L
461.503 83.355 L
461.839 78.129 L
462.174 79.958 L
462.509 81.526 L
462.845 83.355 L
463.18 85.184 L
463.515 86.752 L
463.85 88.581 L
464.186 90.41 L
464.521 91.977 L
464.856 93.806 L
465.192 96.419 L
465.527 99.032 L
465.862 101.645 L
466.198 102.429 L
466.533 103.474 L
466.868 104.258 L
467.204 103.474 L
467.539 102.429 L
467.874 101.645 L
468.21 99.032 L
468.545 96.419 L
468.88 93.806 L
469.216 87.797 L
469.551 81.526 L
469.886 75.516 L
470.222 78.129 L
470.557 80.742 L
470.892 83.355 L
471.228 85.184 L
471.563 86.752 L
471.898 88.581 L
472.233 90.41 L
472.569 91.977 L
472.904 93.806 L
473.239 98.248 L
473.575 102.429 L
473.91 106.871 L
474.245 106.871 L
474.581 106.871 L
474.916 106.871 L
475.251 104.258 L
475.587 101.645 L
475.922 99.032 L
476.257 93.806 L
476.593 88.581 L
476.928 83.355 L
477.263 78.913 L
477.599 74.732 L
477.934 70.29 L
478.269 72.903 L
478.605 75.516 L
478.94 78.129 L
479.275 79.958 L
479.61 81.526 L
479.946 83.355 L
480.281 87.797 L
480.616 91.977 L
480.952 96.419 L
481.287 99.032 L
481.622 101.645 L
481.958 104.258 L
482.293 106.087 L
482.628 107.655 L
482.964 109.484 L
483.299 105.042 L
483.634 100.861 L
483.97 96.419 L
484.305 90.41 L
484.64 84.139 L
484.976 78.129 L
485.311 72.903 L
485.646 67.677 L
485.982 62.452 L
486.317 63.235 L
486.652 64.281 L
486.987 65.065 L
487.323 69.506 L
487.658 73.687 L
487.993 78.129 L
488.329 81.526 L
488.664 85.184 L
488.999 88.581 L
489.335 91.977 L
489.67 95.635 L
490.005 99.032 L
490.341 102.429 L
490.676 106.087 L
491.011 109.484 L
491.347 105.042 L
491.682 100.861 L
492.017 96.419 L
492.353 90.41 L
492.688 84.139 L
493.023 78.129 L
493.359 72.903 L
493.694 67.677 L
494.029 62.452 L
494.365 64.281 L
494.7 65.848 L
495.035 67.677 L
495.37 71.074 L
495.706 74.732 L
496.041 78.129 L
496.376 81.526 L
496.712 85.184 L
497.047 88.581 L
497.382 91.977 L
497.718 95.635 L
498.053 99.032 L
498.388 102.429 L
498.724 106.087 L
499.059 109.484 L
499.394 105.042 L
499.73 100.861 L
500.065 96.419 L
500.4 89.365 L
500.736 82.571 L
501.071 75.516 L
501.406 73.687 L
501.742 72.119 L
502.077 70.29 L
502.412 69.506 L
502.747 68.461 L
503.083 67.677 L
503.418 70.29 L
503.753 72.903 L
504.089 75.516 L
504.424 81.526 L
504.759 87.797 L
505.095 93.806 L
505.43 94.59 L
505.765 95.635 L
506.101 96.419 L
506.436 97.203 L
506.771 98.248 L
507.107 99.032 L
507.442 98.248 L
507.777 97.203 L
508.113 96.419 L
508.448 89.365 L
508.783 82.571 L
509.119 75.516 L
509.454 72.119 L
509.789 68.461 L
510.124 65.065 L
510.46 65.848 L
510.795 66.894 L
511.13 67.677 L
511.466 69.506 L
511.801 71.074 L
512.136 72.903 L
512.472 75.516 L
512.807 78.129 L
513.142 80.742 L
513.478 82.571 L
513.813 84.139 L
514.148 85.968 L
514.484 88.581 L
514.819 91.194 L
515.154 93.806 L
515.49 91.977 L
515.825 90.41 L
516.16 88.581 L
516.496 84.139 L
516.831 79.958 L
517.166 75.516 L
517.501 72.119 L
517.837 68.461 L
518.172 65.065 L
518.507 65.848 L
518.843 66.894 L
519.178 67.677 L
519.513 70.29 L
519.849 72.903 L
520.184 75.516 L
520.519 77.345 L
520.855 78.913 L
521.19 80.742 L
521.525 82.571 L
521.861 84.139 L
522.196 85.968 L
522.531 87.797 L
522.867 89.365 L
523.202 91.194 L
523.537 90.41 L
523.873 89.365 L
524.208 88.581 L
524.543 84.139 L
524.878 79.958 L
525.214 75.516 L
525.549 75.516 L
525.884 75.516 L
526.22 75.516 L
526.555 72.903 L
526.89 70.29 L
527.226 67.677 L
527.561 70.29 L
527.896 72.903 L
528.232 75.516 L
528.567 77.345 L
528.902 78.913 L
529.238 80.742 L
529.573 80.742 L
529.908 80.742 L
530.244 80.742 L
530.579 82.571 L
530.914 84.139 L
531.25 85.968 L
531.585 85.184 L
531.92 84.139 L
532.255 83.355 L
532.591 81.526 L
532.926 79.958 L
533.261 78.129 L
533.597 76.3 L
533.932 74.732 L
534.267 72.903 L
534.603 72.903 L
534.938 72.903 L
535.273 72.903 L
535.609 75.516 L
535.944 78.129 L
536.279 80.742 L
536.615 84.139 L
536.95 87.797 L
537.285 91.194 L
537.621 91.977 L
537.956 93.023 L
538.291 93.806 L
538.627 94.59 L
538.962 95.635 L
539.297 96.419 L
539.633 96.419 L
539.968 96.419 L
540.303 96.419 L
540.638 94.59 L
540.974 93.023 L
541.309 91.194 L
541.644 87.797 L
541.98 84.139 L
542.315 80.742 L
542.65 81.526 L
542.986 82.571 L
543.321 83.355 L
543.656 84.139 L
543.992 85.184 L
544.327 85.968 L
544.662 88.581 L
544.998 91.194 L
545.333 93.806 L
545.668 99.032 L
546.004 104.258 L
546.339 109.484 L
546.674 112.097 L
547.01 114.71 L
547.345 117.323 L
547.68 113.926 L
548.016 110.268 L
548.351 106.871 L
548.686 101.645 L
549.021 96.419 L
549.357 91.194 L
549.692 88.581 L
550.027 85.968 L
550.363 83.355 L
550.698 85.184 L
551.033 86.752 L
551.369 88.581 L
551.704 89.365 L
552.039 90.41 L
552.375 91.194 L
552.71 96.419 L
553.045 101.645 L
553.381 106.871 L
553.716 108.7 L
554.051 110.268 L
554.387 112.097 L
554.722 112.881 L
555.057 113.926 L
555.393 114.71 L
555.728 110.268 L
556.063 106.087 L
556.398 101.645 L
556.734 97.203 L
557.069 93.023 L
557.404 88.581 L
557.74 83.355 L
558.075 78.129 L
558.41 72.903 L
558.746 74.732 L
559.081 76.3 L
559.416 78.129 L
559.752 80.742 L
560.087 83.355 L
560.422 85.968 L
560.758 90.41 L
561.093 94.59 L
561.428 99.032 L
561.764 101.645 L
562.099 104.258 L
562.434 106.871 L
562.77 107.655 L
563.105 108.7 L
563.44 109.484 L
563.775 106.087 L
564.111 102.429 L
564.446 99.032 L
564.781 95.113 L
565.117 91.194 L
565.452 87.274 L
565.787 83.355 L
566.123 79.435 L
566.458 75.516 L
566.793 76.3 L
567.129 77.345 L
567.464 78.129 L
567.799 79.958 L
568.135 81.526 L
568.47 83.355 L
568.805 88.581 L
569.141 93.806 L
569.476 99.032 L
569.811 101.645 L
570.147 104.258 L
570.482 106.871 L
570.817 108.7 L
571.152 110.268 L
571.488 112.097 L
571.823 108.7 L
572.158 105.042 L
572.494 101.645 L
572.829 96.419 L
573.164 91.194 L
573.5 85.968 L
573.835 82.571 L
574.17 78.913 L
574.506 75.516 L
574.841 76.3 L
575.176 77.345 L
575.512 78.129 L
575.847 79.958 L
576.182 81.526 L
576.518 83.355 L
576.853 88.581 L
577.188 93.806 L
577.523 99.032 L
577.859 101.645 L
578.194 104.258 L
578.529 106.871 L
578.865 108.7 L
579.2 110.268 L
579.535 112.097 L
579.871 106.871 L
580.206 101.645 L
580.541 96.419 L
580.877 91.194 L
581.212 85.968 L
581.547 80.742 L
581.883 78.129 L
582.218 75.516 L
582.553 72.903 L
582.889 74.732 L
583.224 76.3 L
583.559 78.129 L
583.895 79.958 L
584.23 81.526 L
584.565 83.355 L
584.901 89.365 L
585.236 95.635 L
585.571 101.645 L
585.906 103.474 L
586.242 105.042 L
586.577 106.871 L
586.912 109.484 L
587.248 112.097 L
587.583 114.71 L
587.918 108.7 L
588.254 102.429 L
588.589 96.419 L
588.924 90.41 L
589.26 84.139 L
589.595 78.129 L
589.93 74.732 L
590.266 71.074 L
590.601 67.677 L
590.936 70.29 L
591.272 72.903 L
591.607 75.516 L
591.942 78.129 L
592.278 80.742 L
592.613 83.355 L
592.948 87.797 L
593.284 91.977 L
593.619 96.419 L
593.954 99.816 L
594.289 103.474 L
594.625 106.871 L
594.96 109.484 L
595.295 112.097 L
595.631 114.71 L
595.966 105.042 L
596.301 95.635 L
596.637 85.968 L
596.972 81.526 L
597.307 77.345 L
597.643 72.903 L
597.978 69.506 L
598.313 65.848 L
598.649 62.452 L
598.984 63.235 L
599.319 64.281 L
599.655 65.065 L
599.99 67.677 L
600.325 70.29 L
600.661 72.903 L
600.996 78.129 L
601.331 83.355 L
601.666 88.581 L
602.002 93.023 L
602.337 97.203 L
602.672 101.645 L
603.008 102.429 L
603.343 103.474 L
603.678 104.258 L
604.014 98.248 L
604.349 91.977 L
604.684 85.968 L
605.02 80.742 L
605.355 75.516 L
605.69 70.29 L
606.026 66.894 L
606.361 63.235 L
606.696 59.839 L
607.032 60.623 L
607.367 61.668 L
607.702 62.452 L
608.038 65.065 L
608.373 67.677 L
608.708 70.29 L
609.043 76.3 L
609.379 82.571 L
609.714 88.581 L
610.049 91.977 L
610.385 95.635 L
610.72 99.032 L
611.055 99.816 L
611.391 100.861 L
611.726 101.645 L
612.061 96.419 L
612.397 91.194 L
612.732 85.968 L
613.067 80.742 L
613.403 75.516 L
613.738 70.29 L
614.073 65.848 L
614.409 61.668 L
614.744 57.226 L
615.079 59.055 L
615.415 60.623 L
615.75 62.452 L
616.085 64.281 L
616.42 65.848 L
616.756 67.677 L
617.091 72.903 L
617.426 78.129 L
617.762 83.355 L
618.097 87.797 L
618.432 91.977 L
618.768 96.419 L
619.103 96.419 L
619.438 96.419 L
619.774 96.419 L
620.109 93.023 L
620.444 89.365 L
620.78 85.968 L
621.115 80.742 L
621.45 75.516 L
621.786 70.29 L
622.121 64.281 L
622.456 58.01 L
622.792 52 L
623.127 53.829 L
623.462 55.397 L
623.797 57.226 L
624.133 59.055 L
624.468 60.623 L
624.803 62.452 L
625.139 69.506 L
625.474 76.3 L
625.809 83.355 L
626.145 87.797 L
626.48 91.977 L
626.815 96.419 L
627.151 100.861 L
627.486 105.042 L
627.821 109.484 L
628.157 100.861 L
628.492 91.977 L
628.827 83.355 L
629.163 78.913 L
629.498 74.732 L
629.833 70.29 L
630.169 66.894 L
630.504 63.235 L
630.839 59.839 L
631.174 59.839 L
631.51 59.839 L
631.845 59.839 L
632.18 62.452 L
632.516 65.065 L
632.851 67.677 L
633.186 72.119 L
633.522 76.3 L
633.857 80.742 L
634.192 82.571 L
634.528 84.139 L
634.863 85.968 L
635.198 88.581 L
635.534 91.194 L
635.869 93.806 L
636.204 90.41 L
636.54 86.752 L
636.875 83.355 L
637.21 79.958 L
637.546 76.3 L
637.881 72.903 L
638.216 71.074 L
638.552 69.506 L
638.887 67.677 L
639.222 69.506 L
639.557 71.074 L
639.893 72.903 L
640.228 74.732 L
640.563 76.3 L
640.899 78.129 L
641.234 79.958 L
641.569 81.526 L
641.905 83.355 L
642.24 88.581 L
642.575 93.806 L
642.911 99.032 L
643.246 99.816 L
643.581 100.861 L
643.917 101.645 L
644.252 99.032 L
644.587 96.419 L
644.923 93.806 L
645.258 88.581 L
645.593 83.355 L
645.929 78.129 L
646.264 72.903 L
646.599 67.677 L
646.935 62.452 L
647.27 64.281 L
647.605 65.848 L
647.94 67.677 L
648.276 71.074 L
648.611 74.732 L
648.946 78.129 L
649.282 82.571 L
649.617 86.752 L
649.952 91.194 L
650.288 95.635 L
650.623 99.816 L
650.958 104.258 L
651.294 105.042 L
651.629 106.087 L
651.964 106.871 L
652.3 101.645 L
652.635 96.419 L
652.97 91.194 L
653.306 84.139 L
653.641 77.345 L
653.976 70.29 L
654.312 66.894 L
654.647 63.235 L
654.982 59.839 L
655.317 61.668 L
655.653 63.235 L
655.988 65.065 L
656.323 67.677 L
656.659 70.29 L
656.994 72.903 L
657.329 75.516 L
657.665 78.129 L
658 80.742 L
S
GR
GS
[0.58537 0 0 0.58537 0 0.07315] CT
1 GC
N
95 294 M
658 294 L
658 213 L
95 213 L
cp
f
GR
GS
[0.58537 0 0 0.58537 0 0.07315] CT
0.149 GC
2 setlinecap
1 LJ
0.854 LW
N
95 294 M
658 294 L
S
GR
GS
[0.58537 0 0 0.58537 0 0.07315] CT
0.149 GC
2 setlinecap
1 LJ
0.854 LW
N
95 213 M
658 213 L
S
GR
GS
[0.58537 0 0 0.58537 0 0.07315] CT
0.149 GC
2 setlinecap
1 LJ
0.854 LW
N
159.585 294 M
159.585 288.37 L
S
GR
GS
[0.58537 0 0 0.58537 0 0.07315] CT
0.149 GC
2 setlinecap
1 LJ
0.854 LW
N
224.823 294 M
224.823 288.37 L
S
GR
GS
[0.58537 0 0 0.58537 0 0.07315] CT
0.149 GC
2 setlinecap
1 LJ
0.854 LW
N
290.06 294 M
290.06 288.37 L
S
GR
GS
[0.58537 0 0 0.58537 0 0.07315] CT
0.149 GC
2 setlinecap
1 LJ
0.854 LW
N
355.298 294 M
355.298 288.37 L
S
GR
GS
[0.58537 0 0 0.58537 0 0.07315] CT
0.149 GC
2 setlinecap
1 LJ
0.854 LW
N
420.535 294 M
420.535 288.37 L
S
GR
GS
[0.58537 0 0 0.58537 0 0.07315] CT
0.149 GC
2 setlinecap
1 LJ
0.854 LW
N
485.773 294 M
485.773 288.37 L
S
GR
GS
[0.58537 0 0 0.58537 0 0.07315] CT
0.149 GC
2 setlinecap
1 LJ
0.854 LW
N
551.01 294 M
551.01 288.37 L
S
GR
GS
[0.58537 0 0 0.58537 0 0.07315] CT
0.149 GC
2 setlinecap
1 LJ
0.854 LW
N
616.248 294 M
616.248 288.37 L
S
GR
GS
[0.58537 0 0 0.58537 0 0.07315] CT
0.149 GC
2 setlinecap
1 LJ
0.854 LW
N
159.585 213 M
159.585 218.63 L
S
GR
GS
[0.58537 0 0 0.58537 0 0.07315] CT
0.149 GC
2 setlinecap
1 LJ
0.854 LW
N
224.823 213 M
224.823 218.63 L
S
GR
GS
[0.58537 0 0 0.58537 0 0.07315] CT
0.149 GC
2 setlinecap
1 LJ
0.854 LW
N
290.06 213 M
290.06 218.63 L
S
GR
GS
[0.58537 0 0 0.58537 0 0.07315] CT
0.149 GC
2 setlinecap
1 LJ
0.854 LW
N
355.298 213 M
355.298 218.63 L
S
GR
GS
[0.58537 0 0 0.58537 0 0.07315] CT
0.149 GC
2 setlinecap
1 LJ
0.854 LW
N
420.535 213 M
420.535 218.63 L
S
GR
GS
[0.58537 0 0 0.58537 0 0.07315] CT
0.149 GC
2 setlinecap
1 LJ
0.854 LW
N
485.773 213 M
485.773 218.63 L
S
GR
GS
[0.58537 0 0 0.58537 0 0.07315] CT
0.149 GC
2 setlinecap
1 LJ
0.854 LW
N
551.01 213 M
551.01 218.63 L
S
GR
GS
[0.58537 0 0 0.58537 0 0.07315] CT
0.149 GC
2 setlinecap
1 LJ
0.854 LW
N
616.248 213 M
616.248 218.63 L
S
GR
GS
[0.58537 0 0 0.58537 93.41571 176.17073] CT
0.149 GC
/Helvetica 17.083 F
GS
[1 0 0 1 0 0] CT
-16.5 16 moveto 
1 -1 scale
(100) t 
GR
GR
GS
[0.58537 0 0 0.58537 131.60354 176.17073] CT
0.149 GC
/Helvetica 17.083 F
GS
[1 0 0 1 0 0] CT
-16.5 16 moveto 
1 -1 scale
(200) t 
GR
GR
GS
[0.58537 0 0 0.58537 169.79136 176.17073] CT
0.149 GC
/Helvetica 17.083 F
GS
[1 0 0 1 0 0] CT
-16.5 16 moveto 
1 -1 scale
(300) t 
GR
GR
GS
[0.58537 0 0 0.58537 207.97919 176.17073] CT
0.149 GC
/Helvetica 17.083 F
GS
[1 0 0 1 0 0] CT
-16.5 16 moveto 
1 -1 scale
(400) t 
GR
GR
GS
[0.58537 0 0 0.58537 246.16703 176.17073] CT
0.149 GC
/Helvetica 17.083 F
GS
[1 0 0 1 0 0] CT
-16.5 16 moveto 
1 -1 scale
(500) t 
GR
GR
GS
[0.58537 0 0 0.58537 284.35486 176.17073] CT
0.149 GC
/Helvetica 17.083 F
GS
[1 0 0 1 0 0] CT
-16.5 16 moveto 
1 -1 scale
(600) t 
GR
GR
GS
[0.58537 0 0 0.58537 322.54269 176.17073] CT
0.149 GC
/Helvetica 17.083 F
GS
[1 0 0 1 0 0] CT
-16.5 16 moveto 
1 -1 scale
(700) t 
GR
GR
GS
[0.58537 0 0 0.58537 360.73053 176.17073] CT
0.149 GC
/Helvetica 17.083 F
GS
[1 0 0 1 0 0] CT
-16.5 16 moveto 
1 -1 scale
(800) t 
GR
GR
GS
[0.58537 0 0 0.58537 220.39039 189.4634] CT
0.149 GC
/Helvetica 18.792 F
GS
[1 0 0 1 0 0] CT
-19 18 moveto 
1 -1 scale
(t / h) t 
GR
GR
GS
[0.58537 0 0 0.58537 0 0.07315] CT
0.149 GC
2 setlinecap
1 LJ
0.854 LW
N
95 294 M
95 213 L
S
GR
GS
[0.58537 0 0 0.58537 0 0.07315] CT
0.149 GC
2 setlinecap
1 LJ
0.854 LW
N
658 294 M
658 213 L
S
GR
GS
[0.58537 0 0 0.58537 0 0.07315] CT
0.149 GC
2 setlinecap
1 LJ
0.854 LW
N
95 294 M
100.63 294 L
S
GR
GS
[0.58537 0 0 0.58537 0 0.07315] CT
0.149 GC
2 setlinecap
1 LJ
0.854 LW
N
95 257.182 M
100.63 257.182 L
S
GR
GS
[0.58537 0 0 0.58537 0 0.07315] CT
0.149 GC
2 setlinecap
1 LJ
0.854 LW
N
95 220.364 M
100.63 220.364 L
S
GR
GS
[0.58537 0 0 0.58537 0 0.07315] CT
0.149 GC
2 setlinecap
1 LJ
0.854 LW
N
658 294 M
652.37 294 L
S
GR
GS
[0.58537 0 0 0.58537 0 0.07315] CT
0.149 GC
2 setlinecap
1 LJ
0.854 LW
N
658 257.182 M
652.37 257.182 L
S
GR
GS
[0.58537 0 0 0.58537 0 0.07315] CT
0.149 GC
2 setlinecap
1 LJ
0.854 LW
N
658 220.364 M
652.37 220.364 L
S
GR
GS
[0.58537 0 0 0.58537 51.60975 172.17072] CT
0.149 GC
/Helvetica 17.083 F
GS
[1 0 0 1 0 0] CT
-11 5.5 moveto 
1 -1 scale
(0) t 
GR
GR
GS
[0.58537 0 0 0.58537 51.60975 150.61862] CT
0.149 GC
/Helvetica 17.083 F
GS
[1 0 0 1 0 0] CT
-22 5.5 moveto 
1 -1 scale
(10) t 
GR
GR
GS
[0.58537 0 0 0.58537 51.60975 129.0665] CT
0.149 GC
/Helvetica 17.083 F
GS
[1 0 0 1 0 0] CT
-22 5.5 moveto 
1 -1 scale
(20) t 
GR
GR
GS
[0 -0.58537 0.58537 0 32.78049 163.9756] CT
0.149 GC
/Helvetica 18.792 F
GS
[1 0 0 1 0 0] CT
0 0 moveto 
1 -1 scale
(T / ) t 
GR
GR
GS
[0 -0.58537 0.58537 0 27.5122 145.82926] CT
0.149 GC
/Courier 15.033 F
GS
[1 0 0 1 0 0] CT
0 0 moveto 
1 -1 scale
(\260) t 
GR
GR
GS
[0 -0.58537 0.58537 0 32.78049 141.14633] CT
0.149 GC
/Helvetica 18.792 F
GS
[1 0 0 1 0 0] CT
0 0 moveto 
1 -1 scale
(C) t 
GR
GR
GS
[0.58537 0 0 0.58537 220.39046 123.14633] CT
/Helvetica-Bold 18.792 F
GS
[1 0 0 1 0 0] CT
-111.5 -5 moveto 
1 -1 scale
(Validation set: V\344xj\366) t 
GR
GR
GS
[0.58537 0 0 0.58537 0 0.07315] CT
0 0.447 0.741 RC
1 LJ
0.854 LW
N
95 253.5 M
95.652 257.182 L
96.305 260.864 L
96.957 261.968 L
97.61 263.441 L
98.262 264.545 L
98.914 264.545 L
99.567 264.545 L
100.219 264.545 L
100.871 258.286 L
101.524 252.395 L
102.176 246.136 L
102.829 249.818 L
103.481 253.5 L
104.133 257.182 L
104.786 256.077 L
105.438 254.605 L
106.09 253.5 L
106.743 250.923 L
107.395 248.714 L
108.048 246.136 L
108.7 250.923 L
109.352 256.077 L
110.005 260.864 L
110.657 264.545 L
111.309 268.227 L
111.962 271.909 L
112.614 271.909 L
113.267 271.909 L
113.919 271.909 L
114.571 269.332 L
115.224 267.123 L
115.876 264.545 L
116.528 258.286 L
117.181 252.395 L
117.833 246.136 L
118.486 246.136 L
119.138 246.136 L
119.79 246.136 L
120.443 247.241 L
121.095 248.714 L
121.747 249.818 L
122.4 252.395 L
123.052 254.605 L
123.705 257.182 L
124.357 258.286 L
125.009 259.759 L
125.662 260.864 L
126.314 261.968 L
126.966 263.441 L
127.619 264.545 L
128.271 265.65 L
128.924 267.123 L
129.576 268.227 L
130.228 267.123 L
130.881 265.65 L
131.533 264.545 L
132.185 260.864 L
132.838 257.182 L
133.49 253.5 L
134.143 257.182 L
134.795 260.864 L
135.447 264.545 L
136.1 265.65 L
136.752 267.123 L
137.404 268.227 L
138.057 268.227 L
138.709 268.227 L
139.362 268.227 L
140.014 269.332 L
140.666 270.805 L
141.319 271.909 L
141.971 274.486 L
142.623 276.695 L
143.276 279.273 L
143.928 280.377 L
144.581 281.85 L
145.233 282.955 L
145.885 278.168 L
146.538 273.014 L
147.19 268.227 L
147.842 263.441 L
148.495 258.286 L
149.147 253.5 L
149.8 257.182 L
150.452 260.864 L
151.104 264.545 L
151.757 264.545 L
152.409 264.545 L
153.061 264.545 L
153.714 264.545 L
154.366 264.545 L
155.019 264.545 L
155.671 265.65 L
156.323 267.123 L
156.976 268.227 L
157.628 269.332 L
158.28 270.805 L
158.933 271.909 L
159.585 271.909 L
160.238 271.909 L
160.89 271.909 L
161.542 269.332 L
162.195 267.123 L
162.847 264.545 L
163.499 261.968 L
164.152 259.759 L
164.804 257.182 L
165.457 250.923 L
166.109 245.032 L
166.761 238.773 L
167.414 238.773 L
168.066 238.773 L
168.718 238.773 L
169.371 242.455 L
170.023 246.136 L
170.676 249.818 L
171.328 256.077 L
171.98 261.968 L
172.633 268.227 L
173.285 269.332 L
173.937 270.805 L
174.59 271.909 L
175.242 274.486 L
175.895 276.695 L
176.547 279.273 L
177.199 274.486 L
177.852 269.332 L
178.504 264.545 L
179.156 260.864 L
179.809 257.182 L
180.461 253.5 L
181.114 247.241 L
181.766 241.35 L
182.418 235.091 L
183.071 238.773 L
183.723 242.455 L
184.375 246.136 L
185.028 247.241 L
185.68 248.714 L
186.333 249.818 L
186.985 254.605 L
187.637 259.759 L
188.29 264.545 L
188.942 271.909 L
189.594 279.273 L
190.247 286.636 L
190.899 287.741 L
191.552 289.214 L
192.204 290.318 L
192.856 280.377 L
193.509 270.805 L
194.161 260.864 L
194.813 254.605 L
195.466 248.714 L
196.118 242.455 L
196.771 239.877 L
197.423 237.668 L
198.075 235.091 L
198.728 236.195 L
199.38 237.668 L
200.032 238.773 L
200.685 242.455 L
201.337 246.136 L
201.99 249.818 L
202.642 256.077 L
203.294 261.968 L
203.947 268.227 L
204.599 270.805 L
205.251 273.014 L
205.904 275.591 L
206.556 278.168 L
207.209 280.377 L
207.861 282.955 L
208.513 275.591 L
209.166 268.227 L
209.818 260.864 L
210.47 254.605 L
211.123 248.714 L
211.775 242.455 L
212.428 243.559 L
213.08 245.032 L
213.732 246.136 L
214.385 246.136 L
215.037 246.136 L
215.689 246.136 L
216.342 247.241 L
216.994 248.714 L
217.647 249.818 L
218.299 253.5 L
218.951 257.182 L
219.604 260.864 L
220.256 261.968 L
220.908 263.441 L
221.561 264.545 L
222.213 265.65 L
222.866 267.123 L
223.518 268.227 L
224.17 265.65 L
224.823 263.441 L
225.475 260.864 L
226.127 257.182 L
226.78 253.5 L
227.432 249.818 L
228.085 247.241 L
228.737 245.032 L
229.389 242.455 L
230.042 243.559 L
230.694 245.032 L
231.346 246.136 L
231.999 248.714 L
232.651 250.923 L
233.304 253.5 L
233.956 256.077 L
234.608 258.286 L
235.261 260.864 L
235.913 263.441 L
236.565 265.65 L
237.218 268.227 L
237.87 268.227 L
238.523 268.227 L
239.175 268.227 L
239.827 264.545 L
240.48 260.864 L
241.132 257.182 L
241.784 253.5 L
242.437 249.818 L
243.089 246.136 L
243.742 242.455 L
244.394 238.773 L
245.046 235.091 L
245.699 236.195 L
246.351 237.668 L
247.003 238.773 L
247.656 239.877 L
248.308 241.35 L
248.961 242.455 L
249.613 248.714 L
250.265 254.605 L
250.918 260.864 L
251.57 263.441 L
252.222 265.65 L
252.875 268.227 L
253.527 264.545 L
254.18 260.864 L
254.832 257.182 L
255.484 258.286 L
256.137 259.759 L
256.789 260.864 L
257.441 256.077 L
258.094 250.923 L
258.746 246.136 L
259.399 245.032 L
260.051 243.559 L
260.703 242.455 L
261.356 242.455 L
262.008 242.455 L
262.66 242.455 L
263.313 243.559 L
263.965 245.032 L
264.618 246.136 L
265.27 248.714 L
265.922 250.923 L
266.575 253.5 L
267.227 256.077 L
267.879 258.286 L
268.532 260.864 L
269.184 261.968 L
269.837 263.441 L
270.489 264.545 L
271.141 263.441 L
271.794 261.968 L
272.446 260.864 L
273.098 256.077 L
273.751 250.923 L
274.403 246.136 L
275.056 242.455 L
275.708 238.773 L
276.36 235.091 L
277.013 237.668 L
277.665 239.877 L
278.318 242.455 L
278.97 245.032 L
279.622 247.241 L
280.275 249.818 L
280.927 253.5 L
281.579 257.182 L
282.232 260.864 L
282.884 269.332 L
283.536 278.168 L
284.189 286.636 L
284.841 287.741 L
285.494 289.214 L
286.146 290.318 L
286.798 280.377 L
287.451 270.805 L
288.103 260.864 L
288.755 256.077 L
289.408 250.923 L
290.06 246.136 L
290.713 243.559 L
291.365 241.35 L
292.017 238.773 L
292.67 238.773 L
293.322 238.773 L
293.975 238.773 L
294.627 242.455 L
295.279 246.136 L
295.932 249.818 L
296.584 253.5 L
297.236 257.182 L
297.889 260.864 L
298.541 268.227 L
299.194 275.591 L
299.846 282.955 L
300.498 286.636 L
301.151 290.318 L
301.803 294 L
302.455 282.955 L
303.108 271.909 L
303.76 260.864 L
304.413 257.182 L
305.065 253.5 L
305.717 249.818 L
306.37 249.818 L
307.022 249.818 L
307.674 249.818 L
308.327 247.241 L
308.979 245.032 L
309.632 242.455 L
310.284 247.241 L
310.936 252.395 L
311.589 257.182 L
312.241 258.286 L
312.893 259.759 L
313.546 260.864 L
314.198 265.65 L
314.851 270.805 L
315.503 275.591 L
316.155 276.695 L
316.808 278.168 L
317.46 279.273 L
318.112 273.014 L
318.765 267.123 L
319.417 260.864 L
320.07 257.182 L
320.722 253.5 L
321.374 249.818 L
322.027 249.818 L
322.679 249.818 L
323.331 249.818 L
323.984 249.818 L
324.636 249.818 L
325.289 249.818 L
325.941 252.395 L
326.593 254.605 L
327.246 257.182 L
327.898 259.759 L
328.55 261.968 L
329.203 264.545 L
329.855 268.227 L
330.508 271.909 L
331.16 275.591 L
331.812 275.591 L
332.465 275.591 L
333.117 275.591 L
333.769 271.909 L
334.422 268.227 L
335.074 264.545 L
335.727 261.968 L
336.379 259.759 L
337.031 257.182 L
337.684 258.286 L
338.336 259.759 L
338.988 260.864 L
339.641 259.759 L
340.293 258.286 L
340.946 257.182 L
341.598 257.182 L
342.25 257.182 L
342.903 257.182 L
343.555 259.759 L
344.207 261.968 L
344.86 264.545 L
345.512 265.65 L
346.165 267.123 L
346.817 268.227 L
347.469 269.332 L
348.122 270.805 L
348.774 271.909 L
349.426 265.65 L
350.079 259.759 L
350.731 253.5 L
351.384 249.818 L
352.036 246.136 L
352.688 242.455 L
353.341 239.877 L
353.993 237.668 L
354.645 235.091 L
355.298 233.986 L
355.95 232.514 L
356.603 231.409 L
357.255 233.986 L
357.907 236.195 L
358.56 238.773 L
359.212 242.455 L
359.864 246.136 L
360.517 249.818 L
361.169 252.395 L
361.822 254.605 L
362.474 257.182 L
363.126 254.605 L
363.779 252.395 L
364.431 249.818 L
365.083 246.136 L
365.736 242.455 L
366.388 238.773 L
367.041 232.514 L
367.693 226.623 L
368.345 220.364 L
368.998 220.364 L
369.65 220.364 L
370.302 220.364 L
370.955 222.941 L
371.607 225.15 L
372.26 227.727 L
372.912 230.305 L
373.564 232.514 L
374.217 235.091 L
374.869 236.195 L
375.521 237.668 L
376.174 238.773 L
376.826 241.35 L
377.479 243.559 L
378.131 246.136 L
378.783 245.032 L
379.436 243.559 L
380.088 242.455 L
380.74 243.559 L
381.393 245.032 L
382.045 246.136 L
382.698 245.032 L
383.35 243.559 L
384.002 242.455 L
384.655 239.877 L
385.307 237.668 L
385.959 235.091 L
386.612 233.986 L
387.264 232.514 L
387.917 231.409 L
388.569 233.986 L
389.221 236.195 L
389.874 238.773 L
390.526 241.35 L
391.178 243.559 L
391.831 246.136 L
392.483 249.818 L
393.136 253.5 L
393.788 257.182 L
394.44 258.286 L
395.093 259.759 L
395.745 260.864 L
396.397 256.077 L
397.05 250.923 L
397.702 246.136 L
398.355 245.032 L
399.007 243.559 L
399.659 242.455 L
400.312 241.35 L
400.964 239.877 L
401.616 238.773 L
402.269 239.877 L
402.921 241.35 L
403.574 242.455 L
404.226 243.559 L
404.878 245.032 L
405.531 246.136 L
406.183 248.714 L
406.835 250.923 L
407.488 253.5 L
408.14 257.182 L
408.793 260.864 L
409.445 264.545 L
410.097 263.441 L
410.75 261.968 L
411.402 260.864 L
412.054 258.286 L
412.707 256.077 L
413.359 253.5 L
414.012 252.395 L
414.664 250.923 L
415.316 249.818 L
415.969 246.136 L
416.621 242.455 L
417.273 238.773 L
417.926 238.773 L
418.578 238.773 L
419.231 238.773 L
419.883 238.773 L
420.535 238.773 L
421.188 238.773 L
421.84 245.032 L
422.492 250.923 L
423.145 257.182 L
423.797 259.759 L
424.45 261.968 L
425.102 264.545 L
425.754 263.441 L
426.407 261.968 L
427.059 260.864 L
427.711 258.286 L
428.364 256.077 L
429.016 253.5 L
429.669 249.818 L
430.321 246.136 L
430.973 242.455 L
431.626 241.35 L
432.278 239.877 L
432.93 238.773 L
433.583 238.773 L
434.235 238.773 L
434.888 238.773 L
435.54 239.877 L
436.192 241.35 L
436.845 242.455 L
437.497 248.714 L
438.149 254.605 L
438.802 260.864 L
439.454 263.441 L
440.107 265.65 L
440.759 268.227 L
441.411 269.332 L
442.064 270.805 L
442.716 271.909 L
443.368 265.65 L
444.021 259.759 L
444.673 253.5 L
445.326 249.818 L
445.978 246.136 L
446.63 242.455 L
447.283 238.773 L
447.935 235.091 L
448.587 231.409 L
449.24 230.305 L
449.892 228.832 L
450.545 227.727 L
451.197 230.305 L
451.849 232.514 L
452.502 235.091 L
453.154 238.773 L
453.806 242.455 L
454.459 246.136 L
455.111 249.818 L
455.764 253.5 L
456.416 257.182 L
457.068 257.182 L
457.721 257.182 L
458.373 257.182 L
459.025 256.077 L
459.678 254.605 L
460.33 253.5 L
460.983 249.818 L
461.635 246.136 L
462.287 242.455 L
462.94 238.773 L
463.592 235.091 L
464.245 231.409 L
464.897 232.514 L
465.549 233.986 L
466.202 235.091 L
466.854 237.668 L
467.506 239.877 L
468.159 242.455 L
468.811 245.032 L
469.464 247.241 L
470.116 249.818 L
470.768 252.395 L
471.421 254.605 L
472.073 257.182 L
472.725 257.182 L
473.378 257.182 L
474.03 257.182 L
474.682 257.182 L
475.335 257.182 L
475.987 257.182 L
476.64 254.605 L
477.292 252.395 L
477.944 249.818 L
478.597 249.818 L
479.249 249.818 L
479.902 249.818 L
480.554 246.136 L
481.206 242.455 L
481.859 238.773 L
482.511 241.35 L
483.163 243.559 L
483.816 246.136 L
484.468 249.818 L
485.121 253.5 L
485.773 257.182 L
486.425 261.968 L
487.078 267.123 L
487.73 271.909 L
488.382 269.332 L
489.035 267.123 L
489.687 264.545 L
490.34 261.968 L
490.992 259.759 L
491.644 257.182 L
492.297 254.605 L
492.949 252.395 L
493.601 249.818 L
494.254 246.136 L
494.906 242.455 L
495.559 238.773 L
496.211 239.877 L
496.863 241.35 L
497.516 242.455 L
498.168 243.559 L
498.82 245.032 L
499.473 246.136 L
500.125 249.818 L
500.778 253.5 L
501.43 257.182 L
502.082 259.759 L
502.735 261.968 L
503.387 264.545 L
504.039 267.123 L
504.692 269.332 L
505.344 271.909 L
505.997 267.123 L
506.649 261.968 L
507.301 257.182 L
507.954 254.605 L
508.606 252.395 L
509.258 249.818 L
509.911 246.136 L
510.563 242.455 L
511.216 238.773 L
511.868 238.773 L
512.52 238.773 L
513.173 238.773 L
513.825 239.877 L
514.477 241.35 L
515.13 242.455 L
515.782 247.241 L
516.435 252.395 L
517.087 257.182 L
517.739 259.759 L
518.392 261.968 L
519.044 264.545 L
519.696 267.123 L
520.349 269.332 L
521.001 271.909 L
521.654 264.545 L
522.306 257.182 L
522.958 249.818 L
523.611 245.032 L
524.263 239.877 L
524.915 235.091 L
525.568 230.305 L
526.22 225.15 L
526.873 220.364 L
527.525 222.941 L
528.177 225.15 L
528.83 227.727 L
529.482 228.832 L
530.134 230.305 L
530.787 231.409 L
531.439 236.195 L
532.092 241.35 L
532.744 246.136 L
533.396 249.818 L
534.049 253.5 L
534.701 257.182 L
535.353 258.286 L
536.006 259.759 L
536.658 260.864 L
537.311 257.182 L
537.963 253.5 L
538.615 249.818 L
539.268 242.455 L
539.92 235.091 L
540.572 227.727 L
541.225 224.045 L
541.877 220.364 L
542.53 216.682 L
543.182 215.577 L
543.834 214.105 L
544.487 213 L
545.139 215.577 L
545.791 217.786 L
546.444 220.364 L
547.096 225.15 L
547.749 230.305 L
548.401 235.091 L
549.053 239.877 L
549.706 245.032 L
550.358 249.818 L
551.01 250.923 L
551.663 252.395 L
552.315 253.5 L
552.968 252.395 L
553.62 250.923 L
554.272 249.818 L
554.925 241.35 L
555.577 232.514 L
556.229 224.045 L
556.882 220.364 L
557.534 216.682 L
558.187 213 L
558.839 216.682 L
559.491 220.364 L
560.144 224.045 L
560.796 226.623 L
561.448 228.832 L
562.101 231.409 L
562.753 237.668 L
563.406 243.559 L
564.058 249.818 L
564.71 250.923 L
565.363 252.395 L
566.015 253.5 L
566.667 254.605 L
567.32 256.077 L
567.972 257.182 L
568.625 257.182 L
569.277 257.182 L
569.929 257.182 L
570.582 254.605 L
571.234 252.395 L
571.886 249.818 L
572.539 247.241 L
573.191 245.032 L
573.844 242.455 L
574.496 245.032 L
575.148 247.241 L
575.801 249.818 L
576.453 252.395 L
577.105 254.605 L
577.758 257.182 L
578.41 258.286 L
579.063 259.759 L
579.715 260.864 L
580.367 260.864 L
581.02 260.864 L
581.672 260.864 L
582.324 260.864 L
582.977 260.864 L
583.629 260.864 L
584.282 259.759 L
584.934 258.286 L
585.586 257.182 L
586.239 254.605 L
586.891 252.395 L
587.543 249.818 L
588.196 247.241 L
588.848 245.032 L
589.501 242.455 L
590.153 243.559 L
590.805 245.032 L
591.458 246.136 L
592.11 247.241 L
592.762 248.714 L
593.415 249.818 L
594.067 256.077 L
594.72 261.968 L
595.372 268.227 L
596.024 273.014 L
596.677 278.168 L
597.329 282.955 L
597.981 280.377 L
598.634 278.168 L
599.286 275.591 L
599.939 273.014 L
600.591 270.805 L
601.243 268.227 L
601.896 263.441 L
602.548 258.286 L
603.2 253.5 L
603.853 250.923 L
604.505 248.714 L
605.158 246.136 L
605.81 246.136 L
606.462 246.136 L
607.115 246.136 L
607.767 247.241 L
608.419 248.714 L
609.072 249.818 L
609.724 254.605 L
610.377 259.759 L
611.029 264.545 L
611.681 268.227 L
612.334 271.909 L
612.986 275.591 L
613.638 276.695 L
614.291 278.168 L
614.943 279.273 L
615.596 274.486 L
616.248 269.332 L
616.9 264.545 L
617.553 260.864 L
618.205 257.182 L
618.857 253.5 L
619.51 249.818 L
620.162 246.136 L
620.815 242.455 L
621.467 243.559 L
622.119 245.032 L
622.772 246.136 L
623.424 247.241 L
624.076 248.714 L
624.729 249.818 L
625.381 250.923 L
626.034 252.395 L
626.686 253.5 L
627.338 254.605 L
627.991 256.077 L
628.643 257.182 L
629.295 258.286 L
629.948 259.759 L
630.6 260.864 L
631.253 257.182 L
631.905 253.5 L
632.557 249.818 L
633.21 247.241 L
633.862 245.032 L
634.514 242.455 L
635.167 242.455 L
635.819 242.455 L
636.472 242.455 L
637.124 242.455 L
637.776 242.455 L
638.429 242.455 L
639.081 243.559 L
639.733 245.032 L
640.386 246.136 L
641.038 248.714 L
641.691 250.923 L
642.343 253.5 L
642.995 256.077 L
643.648 258.286 L
644.3 260.864 L
644.953 260.864 L
645.605 260.864 L
646.257 260.864 L
646.91 257.182 L
647.562 253.5 L
648.214 249.818 L
648.867 245.032 L
649.519 239.877 L
650.172 235.091 L
650.824 232.514 L
651.476 230.305 L
652.129 227.727 L
652.781 227.727 L
653.433 227.727 L
654.086 227.727 L
654.738 228.832 L
655.391 230.305 L
656.043 231.409 L
656.695 238.773 L
657.348 246.136 L
658 253.5 L
S
GR
GS
[0.58537 0 0 0.58537 0 0.07315] CT
1 GC
N
95 455 M
658 455 L
658 374 L
95 374 L
cp
f
GR
GS
[0.58537 0 0 0.58537 0 0.07315] CT
0.149 GC
2 setlinecap
1 LJ
0.854 LW
N
95 455 M
658 455 L
S
GR
GS
[0.58537 0 0 0.58537 0 0.07315] CT
0.149 GC
2 setlinecap
1 LJ
0.854 LW
N
95 374 M
658 374 L
S
GR
GS
[0.58537 0 0 0.58537 0 0.07315] CT
0.149 GC
2 setlinecap
1 LJ
0.854 LW
N
161.728 455 M
161.728 449.37 L
S
GR
GS
[0.58537 0 0 0.58537 0 0.07315] CT
0.149 GC
2 setlinecap
1 LJ
0.854 LW
N
228.792 455 M
228.792 449.37 L
S
GR
GS
[0.58537 0 0 0.58537 0 0.07315] CT
0.149 GC
2 setlinecap
1 LJ
0.854 LW
N
295.856 455 M
295.856 449.37 L
S
GR
GS
[0.58537 0 0 0.58537 0 0.07315] CT
0.149 GC
2 setlinecap
1 LJ
0.854 LW
N
362.92 455 M
362.92 449.37 L
S
GR
GS
[0.58537 0 0 0.58537 0 0.07315] CT
0.149 GC
2 setlinecap
1 LJ
0.854 LW
N
429.983 455 M
429.983 449.37 L
S
GR
GS
[0.58537 0 0 0.58537 0 0.07315] CT
0.149 GC
2 setlinecap
1 LJ
0.854 LW
N
497.047 455 M
497.047 449.37 L
S
GR
GS
[0.58537 0 0 0.58537 0 0.07315] CT
0.149 GC
2 setlinecap
1 LJ
0.854 LW
N
564.111 455 M
564.111 449.37 L
S
GR
GS
[0.58537 0 0 0.58537 0 0.07315] CT
0.149 GC
2 setlinecap
1 LJ
0.854 LW
N
631.174 455 M
631.174 449.37 L
S
GR
GS
[0.58537 0 0 0.58537 0 0.07315] CT
0.149 GC
2 setlinecap
1 LJ
0.854 LW
N
161.728 374 M
161.728 379.63 L
S
GR
GS
[0.58537 0 0 0.58537 0 0.07315] CT
0.149 GC
2 setlinecap
1 LJ
0.854 LW
N
228.792 374 M
228.792 379.63 L
S
GR
GS
[0.58537 0 0 0.58537 0 0.07315] CT
0.149 GC
2 setlinecap
1 LJ
0.854 LW
N
295.856 374 M
295.856 379.63 L
S
GR
GS
[0.58537 0 0 0.58537 0 0.07315] CT
0.149 GC
2 setlinecap
1 LJ
0.854 LW
N
362.92 374 M
362.92 379.63 L
S
GR
GS
[0.58537 0 0 0.58537 0 0.07315] CT
0.149 GC
2 setlinecap
1 LJ
0.854 LW
N
429.983 374 M
429.983 379.63 L
S
GR
GS
[0.58537 0 0 0.58537 0 0.07315] CT
0.149 GC
2 setlinecap
1 LJ
0.854 LW
N
497.047 374 M
497.047 379.63 L
S
GR
GS
[0.58537 0 0 0.58537 0 0.07315] CT
0.149 GC
2 setlinecap
1 LJ
0.854 LW
N
564.111 374 M
564.111 379.63 L
S
GR
GS
[0.58537 0 0 0.58537 0 0.07315] CT
0.149 GC
2 setlinecap
1 LJ
0.854 LW
N
631.174 374 M
631.174 379.63 L
S
GR
GS
[0.58537 0 0 0.58537 94.67029 270.41464] CT
0.149 GC
/Helvetica 17.083 F
GS
[1 0 0 1 0 0] CT
-16.5 16 moveto 
1 -1 scale
(200) t 
GR
GR
GS
[0.58537 0 0 0.58537 133.92711 270.41464] CT
0.149 GC
/Helvetica 17.083 F
GS
[1 0 0 1 0 0] CT
-16.5 16 moveto 
1 -1 scale
(400) t 
GR
GR
GS
[0.58537 0 0 0.58537 173.18392 270.41464] CT
0.149 GC
/Helvetica 17.083 F
GS
[1 0 0 1 0 0] CT
-16.5 16 moveto 
1 -1 scale
(600) t 
GR
GR
GS
[0.58537 0 0 0.58537 212.44073 270.41464] CT
0.149 GC
/Helvetica 17.083 F
GS
[1 0 0 1 0 0] CT
-16.5 16 moveto 
1 -1 scale
(800) t 
GR
GR
GS
[0.58537 0 0 0.58537 251.69756 270.41464] CT
0.149 GC
/Helvetica 17.083 F
GS
[1 0 0 1 0 0] CT
-22 16 moveto 
1 -1 scale
(1000) t 
GR
GR
GS
[0.58537 0 0 0.58537 290.95437 270.41464] CT
0.149 GC
/Helvetica 17.083 F
GS
[1 0 0 1 0 0] CT
-22 16 moveto 
1 -1 scale
(1200) t 
GR
GR
GS
[0.58537 0 0 0.58537 330.21119 270.41464] CT
0.149 GC
/Helvetica 17.083 F
GS
[1 0 0 1 0 0] CT
-22 16 moveto 
1 -1 scale
(1400) t 
GR
GR
GS
[0.58537 0 0 0.58537 369.468 270.41464] CT
0.149 GC
/Helvetica 17.083 F
GS
[1 0 0 1 0 0] CT
-22 16 moveto 
1 -1 scale
(1600) t 
GR
GR
GS
[0.58537 0 0 0.58537 220.3904 283.70731] CT
0.149 GC
/Helvetica 18.792 F
GS
[1 0 0 1 0 0] CT
-19 18 moveto 
1 -1 scale
(t / h) t 
GR
GR
GS
[0.58537 0 0 0.58537 0 0.07315] CT
0.149 GC
2 setlinecap
1 LJ
0.854 LW
N
95 455 M
95 374 L
S
GR
GS
[0.58537 0 0 0.58537 0 0.07315] CT
0.149 GC
2 setlinecap
1 LJ
0.854 LW
N
658 455 M
658 374 L
S
GR
GS
[0.58537 0 0 0.58537 0 0.07315] CT
0.149 GC
2 setlinecap
1 LJ
0.854 LW
N
95 442.85 M
100.63 442.85 L
S
GR
GS
[0.58537 0 0 0.58537 0 0.07315] CT
0.149 GC
2 setlinecap
1 LJ
0.854 LW
N
95 422.6 M
100.63 422.6 L
S
GR
GS
[0.58537 0 0 0.58537 0 0.07315] CT
0.149 GC
2 setlinecap
1 LJ
0.854 LW
N
95 402.35 M
100.63 402.35 L
S
GR
GS
[0.58537 0 0 0.58537 0 0.07315] CT
0.149 GC
2 setlinecap
1 LJ
0.854 LW
N
95 382.1 M
100.63 382.1 L
S
GR
GS
[0.58537 0 0 0.58537 0 0.07315] CT
0.149 GC
2 setlinecap
1 LJ
0.854 LW
N
658 442.85 M
652.37 442.85 L
S
GR
GS
[0.58537 0 0 0.58537 0 0.07315] CT
0.149 GC
2 setlinecap
1 LJ
0.854 LW
N
658 422.6 M
652.37 422.6 L
S
GR
GS
[0.58537 0 0 0.58537 0 0.07315] CT
0.149 GC
2 setlinecap
1 LJ
0.854 LW
N
658 402.35 M
652.37 402.35 L
S
GR
GS
[0.58537 0 0 0.58537 0 0.07315] CT
0.149 GC
2 setlinecap
1 LJ
0.854 LW
N
658 382.1 M
652.37 382.1 L
S
GR
GS
[0.58537 0 0 0.58537 51.60975 259.30244] CT
0.149 GC
/Helvetica 17.083 F
GS
[1 0 0 1 0 0] CT
-17 5.5 moveto 
1 -1 scale
(-5) t 
GR
GR
GS
[0.58537 0 0 0.58537 51.60975 247.44878] CT
0.149 GC
/Helvetica 17.083 F
GS
[1 0 0 1 0 0] CT
-11 5.5 moveto 
1 -1 scale
(0) t 
GR
GR
GS
[0.58537 0 0 0.58537 51.60975 235.59512] CT
0.149 GC
/Helvetica 17.083 F
GS
[1 0 0 1 0 0] CT
-11 5.5 moveto 
1 -1 scale
(5) t 
GR
GR
GS
[0.58537 0 0 0.58537 51.60975 223.74146] CT
0.149 GC
/Helvetica 17.083 F
GS
[1 0 0 1 0 0] CT
-22 5.5 moveto 
1 -1 scale
(10) t 
GR
GR
GS
[0 -0.58537 0.58537 0 32.78049 258.21951] CT
0.149 GC
/Helvetica 18.792 F
GS
[1 0 0 1 0 0] CT
0 0 moveto 
1 -1 scale
(T / ) t 
GR
GR
GS
[0 -0.58537 0.58537 0 27.5122 240.07317] CT
0.149 GC
/Courier 15.033 F
GS
[1 0 0 1 0 0] CT
0 0 moveto 
1 -1 scale
(\260) t 
GR
GR
GS
[0 -0.58537 0.58537 0 32.78049 235.39024] CT
0.149 GC
/Helvetica 18.792 F
GS
[1 0 0 1 0 0] CT
0 0 moveto 
1 -1 scale
(C) t 
GR
GR
GS
[0.58537 0 0 0.58537 220.39046 217.39024] CT
/Helvetica-Bold 18.792 F
GS
[1 0 0 1 0 0] CT
-80 -5 moveto 
1 -1 scale
(Test set: V\344xj\366) t 
GR
GR
GS
[0.58537 0 0 0.58537 0 0.07315] CT
0 0.447 0.741 RC
1 LJ
0.854 LW
N
95 393.035 M
95.335 390.2 L
95.671 388.985 L
96.006 387.365 L
96.341 386.15 L
96.677 384.935 L
97.012 383.315 L
97.347 382.1 L
97.683 382.1 L
98.018 382.1 L
98.353 382.1 L
98.689 382.1 L
99.024 382.1 L
99.359 382.1 L
99.694 383.315 L
100.03 384.935 L
100.365 386.15 L
100.7 390.2 L
101.036 394.25 L
101.371 398.3 L
101.706 406.4 L
102.042 414.5 L
102.377 422.6 L
102.712 425.435 L
103.048 427.865 L
103.383 430.7 L
103.718 430.7 L
104.054 430.7 L
104.389 430.7 L
104.724 430.7 L
105.06 430.7 L
105.395 430.7 L
105.73 425.435 L
106.066 419.765 L
106.401 414.5 L
106.736 409.235 L
107.071 403.565 L
107.407 398.3 L
107.742 399.515 L
108.077 401.135 L
108.413 402.35 L
108.748 407.615 L
109.083 413.285 L
109.419 418.55 L
109.754 419.765 L
110.089 421.385 L
110.425 422.6 L
110.76 423.815 L
111.095 425.435 L
111.431 426.65 L
111.766 427.865 L
112.101 429.485 L
112.437 430.7 L
112.772 430.7 L
113.107 430.7 L
113.443 430.7 L
113.778 423.815 L
114.113 417.335 L
114.448 410.45 L
114.784 403.565 L
115.119 397.085 L
115.454 390.2 L
115.79 391.415 L
116.125 393.035 L
116.46 394.25 L
116.796 397.085 L
117.131 399.515 L
117.466 402.35 L
117.802 409.235 L
118.137 415.715 L
118.472 422.6 L
118.808 425.435 L
119.143 427.865 L
119.478 430.7 L
119.814 433.535 L
120.149 435.965 L
120.484 438.8 L
120.82 434.75 L
121.155 430.7 L
121.49 426.65 L
121.825 422.6 L
122.161 418.55 L
122.496 414.5 L
122.831 407.615 L
123.167 401.135 L
123.502 394.25 L
123.837 393.035 L
124.173 391.415 L
124.508 390.2 L
124.843 391.415 L
125.179 393.035 L
125.514 394.25 L
125.849 395.465 L
126.185 397.085 L
126.52 398.3 L
126.855 397.085 L
127.191 395.465 L
127.526 394.25 L
127.861 394.25 L
128.197 394.25 L
128.532 394.25 L
128.867 391.415 L
129.202 388.985 L
129.538 386.15 L
129.873 384.935 L
130.208 383.315 L
130.544 382.1 L
130.879 380.885 L
131.214 379.265 L
131.55 378.05 L
131.885 378.05 L
132.22 378.05 L
132.556 378.05 L
132.891 379.265 L
133.226 380.885 L
133.562 382.1 L
133.897 383.315 L
134.232 384.935 L
134.568 386.15 L
134.903 388.985 L
135.238 391.415 L
135.574 394.25 L
135.909 395.465 L
136.244 397.085 L
136.58 398.3 L
136.915 397.085 L
137.25 395.465 L
137.585 394.25 L
137.921 391.415 L
138.256 388.985 L
138.591 386.15 L
138.927 384.935 L
139.262 383.315 L
139.597 382.1 L
139.933 382.1 L
140.268 382.1 L
140.603 382.1 L
140.939 384.935 L
141.274 387.365 L
141.609 390.2 L
141.945 393.035 L
142.28 395.465 L
142.615 398.3 L
142.951 399.515 L
143.286 401.135 L
143.621 402.35 L
143.957 402.35 L
144.292 402.35 L
144.627 402.35 L
144.962 403.565 L
145.298 405.185 L
145.633 406.4 L
145.968 402.35 L
146.304 398.3 L
146.639 394.25 L
146.974 390.2 L
147.31 386.15 L
147.645 382.1 L
147.98 384.935 L
148.316 387.365 L
148.651 390.2 L
148.986 393.035 L
149.322 395.465 L
149.657 398.3 L
149.992 403.565 L
150.328 409.235 L
150.663 414.5 L
150.998 415.715 L
151.334 417.335 L
151.669 418.55 L
152.004 418.55 L
152.339 418.55 L
152.675 418.55 L
153.01 414.5 L
153.345 410.45 L
153.681 406.4 L
154.016 402.35 L
154.351 398.3 L
154.687 394.25 L
155.022 388.985 L
155.357 383.315 L
155.693 378.05 L
156.028 382.1 L
156.363 386.15 L
156.699 390.2 L
157.034 394.25 L
157.369 398.3 L
157.705 402.35 L
158.04 403.565 L
158.375 405.185 L
158.711 406.4 L
159.046 407.615 L
159.381 409.235 L
159.716 410.45 L
160.052 411.665 L
160.387 413.285 L
160.722 414.5 L
161.058 411.665 L
161.393 409.235 L
161.728 406.4 L
162.064 402.35 L
162.399 398.3 L
162.734 394.25 L
163.07 390.2 L
163.405 386.15 L
163.74 382.1 L
164.076 382.1 L
164.411 382.1 L
164.746 382.1 L
165.082 384.935 L
165.417 387.365 L
165.752 390.2 L
166.088 390.2 L
166.423 390.2 L
166.758 390.2 L
167.094 393.035 L
167.429 395.465 L
167.764 398.3 L
168.099 401.135 L
168.435 403.565 L
168.77 406.4 L
169.105 402.35 L
169.441 398.3 L
169.776 394.25 L
170.111 391.415 L
170.447 388.985 L
170.782 386.15 L
171.117 383.315 L
171.453 380.885 L
171.788 378.05 L
172.123 379.265 L
172.459 380.885 L
172.794 382.1 L
173.129 383.315 L
173.465 384.935 L
173.8 386.15 L
174.135 386.15 L
174.471 386.15 L
174.806 386.15 L
175.141 387.365 L
175.476 388.985 L
175.812 390.2 L
176.147 387.365 L
176.482 384.935 L
176.818 382.1 L
177.153 382.1 L
177.488 382.1 L
177.824 382.1 L
178.159 379.265 L
178.494 376.835 L
178.83 374 L
179.165 375.215 L
179.5 376.835 L
179.836 378.05 L
180.171 379.265 L
180.506 380.885 L
180.842 382.1 L
181.177 383.315 L
181.512 384.935 L
181.848 386.15 L
182.183 386.15 L
182.518 386.15 L
182.853 386.15 L
183.189 387.365 L
183.524 388.985 L
183.859 390.2 L
184.195 390.2 L
184.53 390.2 L
184.865 390.2 L
185.201 388.985 L
185.536 387.365 L
185.871 386.15 L
186.207 383.315 L
186.542 380.885 L
186.877 378.05 L
187.213 378.05 L
187.548 378.05 L
187.883 378.05 L
188.219 379.265 L
188.554 380.885 L
188.889 382.1 L
189.225 383.315 L
189.56 384.935 L
189.895 386.15 L
190.23 386.15 L
190.566 386.15 L
190.901 386.15 L
191.236 387.365 L
191.572 388.985 L
191.907 390.2 L
192.242 391.415 L
192.578 393.035 L
192.913 394.25 L
193.248 391.415 L
193.584 388.985 L
193.919 386.15 L
194.254 383.315 L
194.59 380.885 L
194.925 378.05 L
195.26 379.265 L
195.596 380.885 L
195.931 382.1 L
196.266 382.1 L
196.602 382.1 L
196.937 382.1 L
197.272 383.315 L
197.607 384.935 L
197.943 386.15 L
198.278 390.2 L
198.613 394.25 L
198.949 398.3 L
199.284 401.135 L
199.619 403.565 L
199.955 406.4 L
200.29 409.235 L
200.625 411.665 L
200.961 414.5 L
201.296 414.5 L
201.631 414.5 L
201.967 414.5 L
202.302 410.45 L
202.637 406.4 L
202.973 402.35 L
203.308 403.565 L
203.643 405.185 L
203.979 406.4 L
204.314 409.235 L
204.649 411.665 L
204.985 414.5 L
205.32 417.335 L
205.655 419.765 L
205.99 422.6 L
206.326 423.815 L
206.661 425.435 L
206.996 426.65 L
207.332 429.485 L
207.667 431.915 L
208.002 434.75 L
208.338 435.965 L
208.673 437.585 L
209.008 438.8 L
209.344 441.635 L
209.679 444.065 L
210.014 446.9 L
210.35 440.015 L
210.685 433.535 L
211.02 426.65 L
211.356 418.55 L
211.691 410.45 L
212.026 402.35 L
212.362 406.4 L
212.697 410.45 L
213.032 414.5 L
213.367 417.335 L
213.703 419.765 L
214.038 422.6 L
214.373 425.435 L
214.709 427.865 L
215.044 430.7 L
215.379 433.535 L
215.715 435.965 L
216.05 438.8 L
216.385 441.635 L
216.721 444.065 L
217.056 446.9 L
217.391 449.735 L
217.727 452.165 L
218.062 455 L
218.397 445.685 L
218.733 435.965 L
219.068 426.65 L
219.403 419.765 L
219.739 413.285 L
220.074 406.4 L
220.409 410.45 L
220.744 414.5 L
221.08 418.55 L
221.415 421.385 L
221.75 423.815 L
222.086 426.65 L
222.421 430.7 L
222.756 434.75 L
223.092 438.8 L
223.427 440.015 L
223.762 441.635 L
224.098 442.85 L
224.433 444.065 L
224.768 445.685 L
225.104 446.9 L
225.439 446.9 L
225.774 446.9 L
226.11 446.9 L
226.445 437.585 L
226.78 427.865 L
227.116 418.55 L
227.451 413.285 L
227.786 407.615 L
228.122 402.35 L
228.457 405.185 L
228.792 407.615 L
229.127 410.45 L
229.463 414.5 L
229.798 418.55 L
230.133 422.6 L
230.469 423.815 L
230.804 425.435 L
231.139 426.65 L
231.475 427.865 L
231.81 429.485 L
232.145 430.7 L
232.481 431.915 L
232.816 433.535 L
233.151 434.75 L
233.487 429.485 L
233.822 423.815 L
234.157 418.55 L
234.493 414.5 L
234.828 410.45 L
235.163 406.4 L
235.499 402.35 L
235.834 398.3 L
236.169 394.25 L
236.504 395.465 L
236.84 397.085 L
237.175 398.3 L
237.51 399.515 L
237.846 401.135 L
238.181 402.35 L
238.516 405.185 L
238.852 407.615 L
239.187 410.45 L
239.522 414.5 L
239.858 418.55 L
240.193 422.6 L
240.528 418.55 L
240.864 414.5 L
241.199 410.45 L
241.534 410.45 L
241.87 410.45 L
242.205 410.45 L
242.54 407.615 L
242.876 405.185 L
243.211 402.35 L
243.546 399.515 L
243.881 397.085 L
244.217 394.25 L
244.552 395.465 L
244.887 397.085 L
245.223 398.3 L
245.558 399.515 L
245.893 401.135 L
246.229 402.35 L
246.564 405.185 L
246.899 407.615 L
247.235 410.45 L
247.57 411.665 L
247.905 413.285 L
248.241 414.5 L
248.576 413.285 L
248.911 411.665 L
249.247 410.45 L
249.582 413.285 L
249.917 415.715 L
250.253 418.55 L
250.588 411.665 L
250.923 405.185 L
251.258 398.3 L
251.594 397.085 L
251.929 395.465 L
252.264 394.25 L
252.6 394.25 L
252.935 394.25 L
253.27 394.25 L
253.606 395.465 L
253.941 397.085 L
254.276 398.3 L
254.612 398.3 L
254.947 398.3 L
255.282 398.3 L
255.618 397.085 L
255.953 395.465 L
256.288 394.25 L
256.624 394.25 L
256.959 394.25 L
257.294 394.25 L
257.63 394.25 L
257.965 394.25 L
258.3 394.25 L
258.635 394.25 L
258.971 394.25 L
259.306 394.25 L
259.641 394.25 L
259.977 394.25 L
260.312 394.25 L
260.647 393.035 L
260.983 391.415 L
261.318 390.2 L
261.653 391.415 L
261.989 393.035 L
262.324 394.25 L
262.659 394.25 L
262.995 394.25 L
263.33 394.25 L
263.665 394.25 L
264.001 394.25 L
264.336 394.25 L
264.671 395.465 L
265.007 397.085 L
265.342 398.3 L
265.677 397.085 L
266.013 395.465 L
266.348 394.25 L
266.683 393.035 L
267.018 391.415 L
267.354 390.2 L
267.689 388.985 L
268.024 387.365 L
268.36 386.15 L
268.695 387.365 L
269.03 388.985 L
269.366 390.2 L
269.701 391.415 L
270.036 393.035 L
270.372 394.25 L
270.707 394.25 L
271.042 394.25 L
271.378 394.25 L
271.713 395.465 L
272.048 397.085 L
272.384 398.3 L
272.719 398.3 L
273.054 398.3 L
273.39 398.3 L
273.725 397.085 L
274.06 395.465 L
274.395 394.25 L
274.731 393.035 L
275.066 391.415 L
275.401 390.2 L
275.737 388.985 L
276.072 387.365 L
276.407 386.15 L
276.743 387.365 L
277.078 388.985 L
277.413 390.2 L
277.749 391.415 L
278.084 393.035 L
278.419 394.25 L
278.755 398.3 L
279.09 402.35 L
279.425 406.4 L
279.761 405.185 L
280.096 403.565 L
280.431 402.35 L
280.767 401.135 L
281.102 399.515 L
281.437 398.3 L
281.772 398.3 L
282.108 398.3 L
282.443 398.3 L
282.778 395.465 L
283.114 393.035 L
283.449 390.2 L
283.784 388.985 L
284.12 387.365 L
284.455 386.15 L
284.79 387.365 L
285.126 388.985 L
285.461 390.2 L
285.796 391.415 L
286.132 393.035 L
286.467 394.25 L
286.802 395.465 L
287.138 397.085 L
287.473 398.3 L
287.808 399.515 L
288.144 401.135 L
288.479 402.35 L
288.814 403.565 L
289.15 405.185 L
289.485 406.4 L
289.82 403.565 L
290.155 401.135 L
290.491 398.3 L
290.826 397.085 L
291.161 395.465 L
291.497 394.25 L
291.832 393.035 L
292.167 391.415 L
292.503 390.2 L
292.838 390.2 L
293.173 390.2 L
293.509 390.2 L
293.844 391.415 L
294.179 393.035 L
294.515 394.25 L
294.85 395.465 L
295.185 397.085 L
295.521 398.3 L
295.856 399.515 L
296.191 401.135 L
296.526 402.35 L
296.862 403.565 L
297.197 405.185 L
297.532 406.4 L
297.868 403.565 L
298.203 401.135 L
298.538 398.3 L
298.874 397.085 L
299.209 395.465 L
299.544 394.25 L
299.88 393.035 L
300.215 391.415 L
300.55 390.2 L
300.886 390.2 L
301.221 390.2 L
301.556 390.2 L
301.892 393.035 L
302.227 395.465 L
302.562 398.3 L
302.898 398.3 L
303.233 398.3 L
303.568 398.3 L
303.904 399.515 L
304.239 401.135 L
304.574 402.35 L
304.909 403.565 L
305.245 405.185 L
305.58 406.4 L
305.915 406.4 L
306.251 406.4 L
306.586 406.4 L
306.921 405.185 L
307.257 403.565 L
307.592 402.35 L
307.927 399.515 L
308.263 397.085 L
308.598 394.25 L
308.933 394.25 L
309.269 394.25 L
309.604 394.25 L
309.939 395.465 L
310.275 397.085 L
310.61 398.3 L
310.945 401.135 L
311.281 403.565 L
311.616 406.4 L
311.951 407.615 L
312.286 409.235 L
312.622 410.45 L
312.957 409.235 L
313.292 407.615 L
313.628 406.4 L
313.963 405.185 L
314.298 403.565 L
314.634 402.35 L
314.969 401.135 L
315.304 399.515 L
315.64 398.3 L
315.975 397.085 L
316.31 395.465 L
316.646 394.25 L
316.981 394.25 L
317.316 394.25 L
317.652 394.25 L
317.987 397.085 L
318.322 399.515 L
318.658 402.35 L
318.993 403.565 L
319.328 405.185 L
319.663 406.4 L
319.999 407.615 L
320.334 409.235 L
320.669 410.45 L
321.005 409.235 L
321.34 407.615 L
321.675 406.4 L
322.011 403.565 L
322.346 401.135 L
322.681 398.3 L
323.017 395.465 L
323.352 393.035 L
323.687 390.2 L
324.023 391.415 L
324.358 393.035 L
324.693 394.25 L
325.029 393.035 L
325.364 391.415 L
325.699 390.2 L
326.035 390.2 L
326.37 390.2 L
326.705 390.2 L
327.04 391.415 L
327.376 393.035 L
327.711 394.25 L
328.046 394.25 L
328.382 394.25 L
328.717 394.25 L
329.052 394.25 L
329.388 394.25 L
329.723 394.25 L
330.058 395.465 L
330.394 397.085 L
330.729 398.3 L
331.064 395.465 L
331.4 393.035 L
331.735 390.2 L
332.07 393.035 L
332.406 395.465 L
332.741 398.3 L
333.076 399.515 L
333.412 401.135 L
333.747 402.35 L
334.082 405.185 L
334.418 407.615 L
334.753 410.45 L
335.088 413.285 L
335.423 415.715 L
335.759 418.55 L
336.094 421.385 L
336.429 423.815 L
336.765 426.65 L
337.1 427.865 L
337.435 429.485 L
337.771 430.7 L
338.106 430.7 L
338.441 430.7 L
338.777 430.7 L
339.112 427.865 L
339.447 425.435 L
339.783 422.6 L
340.118 414.5 L
340.453 406.4 L
340.789 398.3 L
341.124 399.515 L
341.459 401.135 L
341.795 402.35 L
342.13 405.185 L
342.465 407.615 L
342.8 410.45 L
343.136 411.665 L
343.471 413.285 L
343.806 414.5 L
344.142 418.55 L
344.477 422.6 L
344.812 426.65 L
345.148 427.865 L
345.483 429.485 L
345.818 430.7 L
346.154 430.7 L
346.489 430.7 L
346.824 430.7 L
347.16 427.865 L
347.495 425.435 L
347.83 422.6 L
348.166 414.5 L
348.501 406.4 L
348.836 398.3 L
349.172 399.515 L
349.507 401.135 L
349.842 402.35 L
350.177 405.185 L
350.513 407.615 L
350.848 410.45 L
351.183 411.665 L
351.519 413.285 L
351.854 414.5 L
352.189 415.715 L
352.525 417.335 L
352.86 418.55 L
353.195 419.765 L
353.531 421.385 L
353.866 422.6 L
354.201 421.385 L
354.537 419.765 L
354.872 418.55 L
355.207 415.715 L
355.543 413.285 L
355.878 410.45 L
356.213 405.185 L
356.549 399.515 L
356.884 394.25 L
357.219 395.465 L
357.555 397.085 L
357.89 398.3 L
358.225 399.515 L
358.56 401.135 L
358.896 402.35 L
359.231 403.565 L
359.566 405.185 L
359.902 406.4 L
360.237 406.4 L
360.572 406.4 L
360.908 406.4 L
361.243 407.615 L
361.578 409.235 L
361.914 410.45 L
362.249 409.235 L
362.584 407.615 L
362.92 406.4 L
363.255 405.185 L
363.59 403.565 L
363.926 402.35 L
364.261 399.515 L
364.596 397.085 L
364.932 394.25 L
365.267 395.465 L
365.602 397.085 L
365.937 398.3 L
366.273 399.515 L
366.608 401.135 L
366.943 402.35 L
367.279 403.565 L
367.614 405.185 L
367.949 406.4 L
368.285 406.4 L
368.62 406.4 L
368.955 406.4 L
369.291 407.615 L
369.626 409.235 L
369.961 410.45 L
370.297 410.45 L
370.632 410.45 L
370.967 410.45 L
371.303 407.615 L
371.638 405.185 L
371.973 402.35 L
372.309 399.515 L
372.644 397.085 L
372.979 394.25 L
373.314 395.465 L
373.65 397.085 L
373.985 398.3 L
374.32 399.515 L
374.656 401.135 L
374.991 402.35 L
375.326 405.185 L
375.662 407.615 L
375.997 410.45 L
376.332 411.665 L
376.668 413.285 L
377.003 414.5 L
377.338 415.715 L
377.674 417.335 L
378.009 418.55 L
378.344 414.5 L
378.68 410.45 L
379.015 406.4 L
379.35 405.185 L
379.686 403.565 L
380.021 402.35 L
380.356 401.135 L
380.691 399.515 L
381.027 398.3 L
381.362 398.3 L
381.697 398.3 L
382.033 398.3 L
382.368 399.515 L
382.703 401.135 L
383.039 402.35 L
383.374 403.565 L
383.709 405.185 L
384.045 406.4 L
384.38 407.615 L
384.715 409.235 L
385.051 410.45 L
385.386 410.45 L
385.721 410.45 L
386.057 410.45 L
386.392 410.45 L
386.727 410.45 L
387.063 410.45 L
387.398 407.615 L
387.733 405.185 L
388.068 402.35 L
388.404 402.35 L
388.739 402.35 L
389.074 402.35 L
389.41 402.35 L
389.745 402.35 L
390.08 402.35 L
390.416 403.565 L
390.751 405.185 L
391.086 406.4 L
391.422 406.4 L
391.757 406.4 L
392.092 406.4 L
392.428 407.615 L
392.763 409.235 L
393.098 410.45 L
393.434 410.45 L
393.769 410.45 L
394.104 410.45 L
394.44 411.665 L
394.775 413.285 L
395.11 414.5 L
395.445 413.285 L
395.781 411.665 L
396.116 410.45 L
396.451 407.615 L
396.787 405.185 L
397.122 402.35 L
397.457 402.35 L
397.793 402.35 L
398.128 402.35 L
398.463 403.565 L
398.799 405.185 L
399.134 406.4 L
399.469 406.4 L
399.805 406.4 L
400.14 406.4 L
400.475 407.615 L
400.811 409.235 L
401.146 410.45 L
401.481 410.45 L
401.817 410.45 L
402.152 410.45 L
402.487 411.665 L
402.823 413.285 L
403.158 414.5 L
403.493 414.5 L
403.828 414.5 L
404.164 414.5 L
404.499 414.5 L
404.834 414.5 L
405.17 414.5 L
405.505 414.5 L
405.84 414.5 L
406.176 414.5 L
406.511 415.715 L
406.846 417.335 L
407.182 418.55 L
407.517 418.55 L
407.852 418.55 L
408.188 418.55 L
408.523 418.55 L
408.858 418.55 L
409.194 418.55 L
409.529 419.765 L
409.864 421.385 L
410.2 422.6 L
410.535 422.6 L
410.87 422.6 L
411.205 422.6 L
411.541 423.815 L
411.876 425.435 L
412.211 426.65 L
412.547 423.815 L
412.882 421.385 L
413.217 418.55 L
413.553 419.765 L
413.888 421.385 L
414.223 422.6 L
414.559 425.435 L
414.894 427.865 L
415.229 430.7 L
415.565 429.485 L
415.9 427.865 L
416.235 426.65 L
416.571 427.865 L
416.906 429.485 L
417.241 430.7 L
417.577 433.535 L
417.912 435.965 L
418.247 438.8 L
418.582 440.015 L
418.918 441.635 L
419.253 442.85 L
419.588 438.8 L
419.924 434.75 L
420.259 430.7 L
420.594 425.435 L
420.93 419.765 L
421.265 414.5 L
421.6 417.335 L
421.936 419.765 L
422.271 422.6 L
422.606 427.865 L
422.942 433.535 L
423.277 438.8 L
423.612 438.8 L
423.948 438.8 L
424.283 438.8 L
424.618 435.965 L
424.954 433.535 L
425.289 430.7 L
425.624 433.535 L
425.96 435.965 L
426.295 438.8 L
426.63 434.75 L
426.965 430.7 L
427.301 426.65 L
427.636 423.815 L
427.971 421.385 L
428.307 418.55 L
428.642 419.765 L
428.977 421.385 L
429.313 422.6 L
429.648 422.6 L
429.983 422.6 L
430.319 422.6 L
430.654 425.435 L
430.989 427.865 L
431.325 430.7 L
431.66 430.7 L
431.995 430.7 L
432.331 430.7 L
432.666 430.7 L
433.001 430.7 L
433.337 430.7 L
433.672 429.485 L
434.007 427.865 L
434.342 426.65 L
434.678 422.6 L
435.013 418.55 L
435.348 414.5 L
435.684 413.285 L
436.019 411.665 L
436.354 410.45 L
436.69 407.615 L
437.025 405.185 L
437.36 402.35 L
437.696 399.515 L
438.031 397.085 L
438.366 394.25 L
438.702 394.25 L
439.037 394.25 L
439.372 394.25 L
439.708 393.035 L
440.043 391.415 L
440.378 390.2 L
440.714 390.2 L
441.049 390.2 L
441.384 390.2 L
441.719 393.035 L
442.055 395.465 L
442.39 398.3 L
442.725 398.3 L
443.061 398.3 L
443.396 398.3 L
443.731 397.085 L
444.067 395.465 L
444.402 394.25 L
444.737 393.035 L
445.073 391.415 L
445.408 390.2 L
445.743 391.415 L
446.079 393.035 L
446.414 394.25 L
446.749 395.465 L
447.085 397.085 L
447.42 398.3 L
447.755 398.3 L
448.091 398.3 L
448.426 398.3 L
448.761 398.3 L
449.096 398.3 L
449.432 398.3 L
449.767 399.515 L
450.102 401.135 L
450.438 402.35 L
450.773 401.135 L
451.108 399.515 L
451.444 398.3 L
451.779 395.465 L
452.114 393.035 L
452.45 390.2 L
452.785 391.415 L
453.12 393.035 L
453.456 394.25 L
453.791 394.25 L
454.126 394.25 L
454.462 394.25 L
454.797 395.465 L
455.132 397.085 L
455.468 398.3 L
455.803 403.565 L
456.138 409.235 L
456.474 414.5 L
456.809 415.715 L
457.144 417.335 L
457.479 418.55 L
457.815 419.765 L
458.15 421.385 L
458.485 422.6 L
458.821 418.55 L
459.156 414.5 L
459.491 410.45 L
459.827 407.615 L
460.162 405.185 L
460.497 402.35 L
460.833 403.565 L
461.168 405.185 L
461.503 406.4 L
461.839 406.4 L
462.174 406.4 L
462.509 406.4 L
462.845 406.4 L
463.18 406.4 L
463.515 406.4 L
463.85 407.615 L
464.186 409.235 L
464.521 410.45 L
464.856 411.665 L
465.192 413.285 L
465.527 414.5 L
465.862 415.715 L
466.198 417.335 L
466.533 418.55 L
466.868 417.335 L
467.204 415.715 L
467.539 414.5 L
467.874 414.5 L
468.21 414.5 L
468.545 414.5 L
468.88 414.5 L
469.216 414.5 L
469.551 414.5 L
469.886 415.715 L
470.222 417.335 L
470.557 418.55 L
470.892 421.385 L
471.228 423.815 L
471.563 426.65 L
471.898 427.865 L
472.233 429.485 L
472.569 430.7 L
472.904 434.75 L
473.239 438.8 L
473.575 442.85 L
473.91 444.065 L
474.245 445.685 L
474.581 446.9 L
474.916 442.85 L
475.251 438.8 L
475.587 434.75 L
475.922 430.7 L
476.257 426.65 L
476.593 422.6 L
476.928 421.385 L
477.263 419.765 L
477.599 418.55 L
477.934 421.385 L
478.269 423.815 L
478.605 426.65 L
478.94 426.65 L
479.275 426.65 L
479.61 426.65 L
479.946 425.435 L
480.281 423.815 L
480.616 422.6 L
480.952 419.765 L
481.287 417.335 L
481.622 414.5 L
481.958 411.665 L
482.293 409.235 L
482.628 406.4 L
482.964 405.185 L
483.299 403.565 L
483.634 402.35 L
483.97 401.135 L
484.305 399.515 L
484.64 398.3 L
484.976 398.3 L
485.311 398.3 L
485.646 398.3 L
485.982 397.085 L
486.317 395.465 L
486.652 394.25 L
486.987 395.465 L
487.323 397.085 L
487.658 398.3 L
487.993 398.3 L
488.329 398.3 L
488.664 398.3 L
488.999 398.3 L
489.335 398.3 L
489.67 398.3 L
490.005 398.3 L
490.341 398.3 L
490.676 398.3 L
491.011 398.3 L
491.347 398.3 L
491.682 398.3 L
492.017 398.3 L
492.353 398.3 L
492.688 398.3 L
493.023 397.085 L
493.359 395.465 L
493.694 394.25 L
494.029 394.25 L
494.365 394.25 L
494.7 394.25 L
495.035 397.085 L
495.37 399.515 L
495.706 402.35 L
496.041 406.4 L
496.376 410.45 L
496.712 414.5 L
497.047 415.715 L
497.382 417.335 L
497.718 418.55 L
498.053 418.55 L
498.388 418.55 L
498.724 418.55 L
499.059 413.285 L
499.394 407.615 L
499.73 402.35 L
500.065 401.135 L
500.4 399.515 L
500.736 398.3 L
501.071 397.085 L
501.406 395.465 L
501.742 394.25 L
502.077 395.465 L
502.412 397.085 L
502.747 398.3 L
503.083 399.515 L
503.418 401.135 L
503.753 402.35 L
504.089 403.565 L
504.424 405.185 L
504.759 406.4 L
505.095 406.4 L
505.43 406.4 L
505.765 406.4 L
506.101 407.615 L
506.436 409.235 L
506.771 410.45 L
507.107 407.615 L
507.442 405.185 L
507.777 402.35 L
508.113 399.515 L
508.448 397.085 L
508.783 394.25 L
509.119 394.25 L
509.454 394.25 L
509.789 394.25 L
510.124 393.035 L
510.46 391.415 L
510.795 390.2 L
511.13 390.2 L
511.466 390.2 L
511.801 390.2 L
512.136 393.035 L
512.472 395.465 L
512.807 398.3 L
513.142 398.3 L
513.478 398.3 L
513.813 398.3 L
514.148 397.085 L
514.484 395.465 L
514.819 394.25 L
515.154 393.035 L
515.49 391.415 L
515.825 390.2 L
516.16 391.415 L
516.496 393.035 L
516.831 394.25 L
517.166 395.465 L
517.501 397.085 L
517.837 398.3 L
518.172 398.3 L
518.507 398.3 L
518.843 398.3 L
519.178 399.515 L
519.513 401.135 L
519.849 402.35 L
520.184 403.565 L
520.519 405.185 L
520.855 406.4 L
521.19 407.615 L
521.525 409.235 L
521.861 410.45 L
522.196 414.5 L
522.531 418.55 L
522.867 422.6 L
523.202 422.6 L
523.537 422.6 L
523.873 422.6 L
524.208 421.385 L
524.543 419.765 L
524.878 418.55 L
525.214 417.335 L
525.549 415.715 L
525.884 414.5 L
526.22 417.335 L
526.555 419.765 L
526.89 422.6 L
527.226 423.815 L
527.561 425.435 L
527.896 426.65 L
528.232 427.865 L
528.567 429.485 L
528.902 430.7 L
529.238 431.915 L
529.573 433.535 L
529.908 434.75 L
530.244 434.75 L
530.579 434.75 L
530.914 434.75 L
531.25 433.535 L
531.585 431.915 L
531.92 430.7 L
532.255 427.865 L
532.591 425.435 L
532.926 422.6 L
533.261 418.55 L
533.597 414.5 L
533.932 410.45 L
534.267 409.235 L
534.603 407.615 L
534.938 406.4 L
535.273 406.4 L
535.609 406.4 L
535.944 406.4 L
536.279 407.615 L
536.615 409.235 L
536.95 410.45 L
537.285 410.45 L
537.621 410.45 L
537.956 410.45 L
538.291 410.45 L
538.627 410.45 L
538.962 410.45 L
539.297 410.45 L
539.633 410.45 L
539.968 410.45 L
540.303 409.235 L
540.638 407.615 L
540.974 406.4 L
541.309 406.4 L
541.644 406.4 L
541.98 406.4 L
542.315 407.615 L
542.65 409.235 L
542.986 410.45 L
543.321 410.45 L
543.656 410.45 L
543.992 410.45 L
544.327 406.4 L
544.662 402.35 L
544.998 398.3 L
545.333 398.3 L
545.668 398.3 L
546.004 398.3 L
546.339 398.3 L
546.674 398.3 L
547.01 398.3 L
547.345 402.35 L
547.68 406.4 L
548.016 410.45 L
548.351 407.615 L
548.686 405.185 L
549.021 402.35 L
549.357 401.135 L
549.692 399.515 L
550.027 398.3 L
550.363 398.3 L
550.698 398.3 L
551.033 398.3 L
551.369 399.515 L
551.704 401.135 L
552.039 402.35 L
552.375 403.565 L
552.71 405.185 L
553.045 406.4 L
553.381 407.615 L
553.716 409.235 L
554.051 410.45 L
554.387 411.665 L
554.722 413.285 L
555.057 414.5 L
555.393 413.285 L
555.728 411.665 L
556.063 410.45 L
556.398 410.45 L
556.734 410.45 L
557.069 410.45 L
557.404 407.615 L
557.74 405.185 L
558.075 402.35 L
558.41 403.565 L
558.746 405.185 L
559.081 406.4 L
559.416 410.45 L
559.752 414.5 L
560.087 418.55 L
560.422 422.6 L
560.758 426.65 L
561.093 430.7 L
561.428 431.915 L
561.764 433.535 L
562.099 434.75 L
562.434 434.75 L
562.77 434.75 L
563.105 434.75 L
563.44 433.535 L
563.775 431.915 L
564.111 430.7 L
564.446 423.815 L
564.781 417.335 L
565.117 410.45 L
565.452 409.235 L
565.787 407.615 L
566.123 406.4 L
566.458 410.45 L
566.793 414.5 L
567.129 418.55 L
567.464 421.385 L
567.799 423.815 L
568.135 426.65 L
568.47 431.915 L
568.805 437.585 L
569.141 442.85 L
569.476 444.065 L
569.811 445.685 L
570.147 446.9 L
570.482 445.685 L
570.817 444.065 L
571.152 442.85 L
571.488 442.85 L
571.823 442.85 L
572.158 442.85 L
572.494 441.635 L
572.829 440.015 L
573.164 438.8 L
573.5 433.535 L
573.835 427.865 L
574.17 422.6 L
574.506 422.6 L
574.841 422.6 L
575.176 422.6 L
575.512 425.435 L
575.847 427.865 L
576.182 430.7 L
576.518 431.915 L
576.853 433.535 L
577.188 434.75 L
577.523 437.585 L
577.859 440.015 L
578.194 442.85 L
578.529 442.85 L
578.865 442.85 L
579.2 442.85 L
579.535 445.685 L
579.871 448.115 L
580.206 450.95 L
580.541 445.685 L
580.877 440.015 L
581.212 434.75 L
581.547 430.7 L
581.883 426.65 L
582.218 422.6 L
582.553 425.435 L
582.889 427.865 L
583.224 430.7 L
583.559 431.915 L
583.895 433.535 L
584.23 434.75 L
584.565 435.965 L
584.901 437.585 L
585.236 438.8 L
585.571 440.015 L
585.906 441.635 L
586.242 442.85 L
586.577 442.85 L
586.912 442.85 L
587.248 442.85 L
587.583 441.635 L
587.918 440.015 L
588.254 438.8 L
588.589 434.75 L
588.924 430.7 L
589.26 426.65 L
589.595 425.435 L
589.93 423.815 L
590.266 422.6 L
590.601 421.385 L
590.936 419.765 L
591.272 418.55 L
591.607 418.55 L
591.942 418.55 L
592.278 418.55 L
592.613 418.55 L
592.948 418.55 L
593.284 418.55 L
593.619 418.55 L
593.954 418.55 L
594.289 418.55 L
594.625 417.335 L
594.96 415.715 L
595.295 414.5 L
595.631 414.5 L
595.966 414.5 L
596.301 414.5 L
596.637 413.285 L
596.972 411.665 L
597.307 410.45 L
597.643 407.615 L
597.978 405.185 L
598.313 402.35 L
598.649 403.565 L
598.984 405.185 L
599.319 406.4 L
599.655 406.4 L
599.99 406.4 L
600.325 406.4 L
600.661 407.615 L
600.996 409.235 L
601.331 410.45 L
601.666 410.45 L
602.002 410.45 L
602.337 410.45 L
602.672 411.665 L
603.008 413.285 L
603.343 414.5 L
603.678 413.285 L
604.014 411.665 L
604.349 410.45 L
604.684 409.235 L
605.02 407.615 L
605.355 406.4 L
605.69 402.35 L
606.026 398.3 L
606.361 394.25 L
606.696 394.25 L
607.032 394.25 L
607.367 394.25 L
607.702 397.085 L
608.038 399.515 L
608.373 402.35 L
608.708 405.185 L
609.043 407.615 L
609.379 410.45 L
609.714 410.45 L
610.049 410.45 L
610.385 410.45 L
610.72 410.45 L
611.055 410.45 L
611.391 410.45 L
611.726 410.45 L
612.061 410.45 L
612.397 410.45 L
612.732 409.235 L
613.067 407.615 L
613.403 406.4 L
613.738 403.565 L
614.073 401.135 L
614.409 398.3 L
614.744 398.3 L
615.079 398.3 L
615.415 398.3 L
615.75 401.135 L
616.085 403.565 L
616.42 406.4 L
616.756 409.235 L
617.091 411.665 L
617.426 414.5 L
617.762 417.335 L
618.097 419.765 L
618.432 422.6 L
618.768 423.815 L
619.103 425.435 L
619.438 426.65 L
619.774 426.65 L
620.109 426.65 L
620.444 426.65 L
620.78 422.6 L
621.115 418.55 L
621.45 414.5 L
621.786 410.45 L
622.121 406.4 L
622.456 402.35 L
622.792 402.35 L
623.127 402.35 L
623.462 402.35 L
623.797 405.185 L
624.133 407.615 L
624.468 410.45 L
624.803 411.665 L
625.139 413.285 L
625.474 414.5 L
625.809 413.285 L
626.145 411.665 L
626.48 410.45 L
626.815 410.45 L
627.151 410.45 L
627.486 410.45 L
627.821 410.45 L
628.157 410.45 L
628.492 410.45 L
628.827 409.235 L
629.163 407.615 L
629.498 406.4 L
629.833 405.185 L
630.169 403.565 L
630.504 402.35 L
630.839 402.35 L
631.174 402.35 L
631.51 402.35 L
631.845 403.565 L
632.18 405.185 L
632.516 406.4 L
632.851 406.4 L
633.186 406.4 L
633.522 406.4 L
633.857 406.4 L
634.192 406.4 L
634.528 406.4 L
634.863 406.4 L
635.198 406.4 L
635.534 406.4 L
635.869 406.4 L
636.204 406.4 L
636.54 406.4 L
636.875 406.4 L
637.21 406.4 L
637.546 406.4 L
637.881 403.565 L
638.216 401.135 L
638.552 398.3 L
638.887 398.3 L
639.222 398.3 L
639.557 398.3 L
639.893 403.565 L
640.228 409.235 L
640.563 414.5 L
640.899 415.715 L
641.234 417.335 L
641.569 418.55 L
641.905 418.55 L
642.24 418.55 L
642.575 418.55 L
642.911 418.55 L
643.246 418.55 L
643.581 418.55 L
643.917 417.335 L
644.252 415.715 L
644.587 414.5 L
644.923 411.665 L
645.258 409.235 L
645.593 406.4 L
645.929 405.185 L
646.264 403.565 L
646.599 402.35 L
646.935 402.35 L
647.27 402.35 L
647.605 402.35 L
647.94 402.35 L
648.276 402.35 L
648.611 402.35 L
648.946 402.35 L
649.282 402.35 L
649.617 402.35 L
649.952 401.135 L
650.288 399.515 L
650.623 398.3 L
650.958 398.3 L
651.294 398.3 L
651.629 398.3 L
651.964 394.25 L
652.3 390.2 L
652.635 386.15 L
652.97 384.935 L
653.306 383.315 L
653.641 382.1 L
653.976 384.935 L
654.312 387.365 L
654.647 390.2 L
654.982 390.2 L
655.317 390.2 L
655.653 390.2 L
655.988 390.2 L
656.323 390.2 L
656.659 390.2 L
656.994 390.2 L
657.329 390.2 L
657.665 390.2 L
658 390.2 L
S
GR
%%Trailer
%%Pages: 1
%%EOF
